{
  "name": "S21-ettevotted",
  "title": "Ettevõtluse tihedus",
  "year": "2019",
  "caption": "",
  "useGrid": true,
  "maxBounds": [
    [
      24.4,
      59.25
    ],
    [
      25.145,
      59.65
    ]
  ],
  "layers": [
    "S21-ettevotted.data.json"
  ],
  "popup": {
    "template": "<b>{{categories[sources.composite.cat] | safe}}</b>",
    "data": {
      "categories": {
        "1": "100–4999 m²",
        "2": "5000+ m²"
      }
    }
  },
  "legend": [
    [
      {
        "text": "Ettevõtluseks kasutatav pind"
      }
    ],
    [
      {
        "color": "rgb(239, 51, 64, 0.8)",
        "text": "5000+ m²"
      },
      {
        "color": "rgb(255, 204, 204, 0.8)",
        "text": "100–4999 m²"
      }
    ]
  ]
}