{
  "name": "S06-tanavatuubid",
  "title": "Tallinn’s street types",
  "year": "2021+",
  "caption": "",
  "maxBounds": [
    [
      24.4,
      59.25
    ],
    [
      25.145,
      59.65
    ]
  ],
  "clickRadius": 1,
  "sources": [
    "S06-tanavatuubid-local.geojson",
    "S06-tanavatuubid-town_square.geojson",
    "S06-tanavatuubid-city_place.geojson",
    "S06-tanavatuubid-city_street.geojson",
    "S06-tanavatuubid-high_street.geojson",
    "S06-tanavatuubid-connector.geojson",
    "S06-tanavatuubid-city_hub.geojson",
    "S06-tanavatuubid-high_road.geojson",
    "S06-tanavatuubid-core_road.geojson"
  ],
  "popup": {
    "template": "{% for key, data in sources %}{% if data.nimi_en %}<b>{{data.nimi_en if loop.first}}</b>{% endif %}{% endfor %}",
    "color": "{% for key, data in sources %}{% if data.nimi_en %}{{colors[data.nimi_en] if loop.first}}{% endif %}{% endfor %}",
    "data": {
      "colors": {
        "Citywide place": "#D42D39",
        "Citywide street": "#F1823F",
        "Citywide road": "#F3D03E",
        "Regional place": "#6B2CC4",
        "Regional street": "#9A65E5",
        "Regional road": "#C9ADF1",
        "Local place": "#00752C",
        "Local street": "#40B16B",
        "Local road": "#AFE5B0"
      }
    }
  },
  "legend": [
    [
      {
        "icon": "streets_large",
        "text": "Citywide",
        "toggle": "large",
        "checked": true
      },
      {
        "icon": "streets_medium",
        "text": "Regional",
        "toggle": "medium",
        "checked": true
      },
      {
        "icon": "streets_small",
        "text": "Local",
        "toggle": "small",
        "checked": true
      }
    ]
  ]
}