{
  "name": "S06-tanavatuubid",
  "title": "Типы улиц Таллинна",
  "year": "2021+",
  "caption": "",
  "maxBounds": [
    [
      24.4,
      59.25
    ],
    [
      25.145,
      59.65
    ]
  ],
  "clickRadius": 1,
  "sources": [
    "S06-tanavatuubid-local.geojson",
    "S06-tanavatuubid-town_square.geojson",
    "S06-tanavatuubid-city_place.geojson",
    "S06-tanavatuubid-city_street.geojson",
    "S06-tanavatuubid-high_street.geojson",
    "S06-tanavatuubid-connector.geojson",
    "S06-tanavatuubid-city_hub.geojson",
    "S06-tanavatuubid-high_road.geojson",
    "S06-tanavatuubid-core_road.geojson"
  ],
  "popup": {
    "template": "{% for key, data in sources %}{% if data.nimi_ru %}<b>{{data.nimi_ru if loop.first}}</b>{% endif %}{% endfor %}",
    "color": "{% for key, data in sources %}{% if data.nimi_ru %}{{colors[data.nimi_ru] if loop.first}}{% endif %}{% endfor %}",
    "data": {
      "colors": {
        "Общегородское место": "#D42D39",
        "Общегородская улица": "#F1823F",
        "Общегородская дорога": "#F3D03E",
        "Региональное место": "#6B2CC4",
        "Региональная улица": "#9A65E5",
        "Региональная дорога": "#C9ADF1",
        "Локальное место": "#00752C",
        "Местная улица": "#40B16B",
        "Местная дорога": "#AFE5B0"
      }
    }
  },
  "legend": [
    [
      {
        "icon": "streets_large",
        "text": "Общегородской",
        "toggle": "large",
        "checked": true
      },
      {
        "icon": "streets_medium",
        "text": "Региональный",
        "toggle": "medium",
        "checked": true
      },
      {
        "icon": "streets_small",
        "text": "Местный",
        "toggle": "small",
        "checked": true
      }
    ]
  ]
}