{
  "name": "S00-linnaosade-areng",
  "title": "Linnaosade tuleviku kaart",
  "year": "2021+",
  "caption": "",
  "maxBounds": [
    [
      24.4,
      59.25
    ],
    [
      25.145,
      59.65
    ]
  ],
  "clickRadius": 2,
  "sources": [
    "S00-linnaosade-areng-linnaosad.geojson",
    "S00-linnaosade-areng-arendusala-ulelinnaline.geojson",
    "S00-linnaosade-areng-arendusala-piirkondlik.geojson",
    "S00-linnaosade-areng-trammivork.geojson",
    "S00-linnaosade-areng-roobastranspordi-vajadus.geojson",
    "S00-linnaosade-areng-kiire-uhistranspordi-vajadus.geojson",
    "S00-linnaosade-areng-peatanav.geojson",
    "S00-linnaosade-areng-arendusobjekt.geojson"
  ],
  "popup": {
    "template": "{% for data in sources | uniqueBy('nimi_et') %}{% if data.nimi_et and data.nimi_et !== 'null' %}<b>{{data.nimi_et}}</b>{% endif %}{% if data.kirjeldus_et and data.kirjeldus_et !== 'null' %}<br/>{{data.kirjeldus_et}}{% endif %}{%endfor%}"
  },
  "legend": [
    [
      {
        "icon": "arendus",
        "text": "Arendusobjekt",
        "toggle": "arendusobjekt",
        "checked": true
      },
      {
        "icon": "circle_small",
        "text": "Piirkondlik arendusala",
        "toggle": "arendusala-piirkondlik",
        "checked": true
      },
      {
        "icon": "circle_blue_large",
        "text": "Ülelinnaline arendusala",
        "toggle": "arendusala-ulelinnaline",
        "checked": true
      },
      {
        "icon": "yellow_line",
        "text": "Kavandatav peatänav",
        "toggle": "peatanav",
        "checked": true
      },
      {
        "icon": "blue_line",
        "text": "Kiire ühistranspordi ühenduse vajadus",
        "toggle": "kiire-uhistranspordi-vajadus",
        "checked": true
      },
      {
        "icon": "grey_line",
        "text": "Rööbastranspordiühenduse vajadus",
        "toggle": "roobastranspordi-vajadus",
        "checked": true
      },
      {
        "icon": "brown_line",
        "text": "Olemasolev trammivõrk",
        "toggle": "trammivork",
        "checked": true
      }
    ]
  ],
  "points": [
    {
      "title": "Kesklinn",
      "slug": "kesklinn",
      "lat": 59.43705,
      "lon": 24.75348
    },
    {
      "title": "Põhja-Tallinn",
      "slug": "pohjatallinn",
      "lat": 59.44712,
      "lon": 24.7304
    },
    {
      "title": "Kristiine",
      "slug": "kristiine",
      "lat": 59.42748,
      "lon": 24.72007
    },
    {
      "title": "Pirita",
      "slug": "pirita",
      "lat": 59.46323,
      "lon": 24.82679
    },
    {
      "title": "Lasnamäe",
      "slug": "lasnamae",
      "lat": 59.43461,
      "lon": 24.801
    },
    {
      "title": "Mustamäe",
      "slug": "mustamae",
      "lat": 59.40847,
      "lon": 24.68484
    },
    {
      "title": "Nõmme",
      "slug": "nomme",
      "lat": 59.38798,
      "lon": 24.68389
    },
    {
      "title": "Haabersti",
      "slug": "haabersti",
      "lat": 59.42328,
      "lon": 24.64651
    }
  ]
}