<svg xmlns="http://www.w3.org/2000/svg" viewBox="0 0 1920 460.88">
  <defs>
    <style>
      .cls-1, .cls-27 {
        fill: #d6d6d6;
      }

      .cls-10, .cls-2 {
        fill: #fff;
      }

      .cls-13, .cls-3 {
        fill: #858585;
      }

      .cls-20, .cls-4 {
        fill: #d6e9f7;
      }

      .cls-26, .cls-5 {
        fill: #add2ef;
      }

      .cls-6, .cls-9 {
        fill: #adadad;
      }

      .cls-7 {
        fill: none;
      }

      .cls-10, .cls-11, .cls-12, .cls-13, .cls-14, .cls-15, .cls-16, .cls-17, .cls-18, .cls-19, .cls-20, .cls-21, .cls-22, .cls-23, .cls-24, .cls-25, .cls-26, .cls-27, .cls-7, .cls-8, .cls-9 {
        stroke: #000;
        stroke-linecap: round;
        stroke-linejoin: round;
        stroke-width: 3px;
      }

      .cls-8 {
        fill: #009639;
      }

      .cls-11 {
        fill: #fdf8e0;
      }

      .cls-12 {
        fill: #f9e9a2;
      }

      .cls-14 {
        fill: #338ed8;
      }

      .cls-15 {
        fill: #85bbe8;
      }

      .cls-16 {
        fill: #ffd126;
      }

      .cls-17 {
        fill: #f25c66;
      }

      .cls-18 {
        fill: #8b5e3c;
      }

      .cls-19 {
        fill: #ef3340;
      }

      .cls-21 {
        fill: #333;
      }

      .cls-22 {
        fill: #d6eedf;
      }

      .cls-23 {
        fill: #fddee1;
      }

      .cls-24 {
        fill: #00972c;
      }

      .cls-25 {
        fill: #fbf0c1;
      }
    </style>
  </defs>
  <title>Mõõdikud_skeemid_v10_puhas_expand</title>
  <g id="Layer_1" data-name="Layer 1">
    <g>
      <g>
        <path class="cls-1" d="M57.14,394.29l-25.89,36H895.87l36-35H58.49Zm764.21,28.58,2.77-15.3h15.62l-3.08,15.3Z"/>
        <path class="cls-2" d="M64.85,383.58l-7.71,10.71,1.35,1H931.86l3.3-3.22-3.41-8.18s-29.61-9.83-81.14-12.39l-10.87-15.66H156.8c-42.35,0-58.69,21.55-59.48,22.6l0,0Zm627-3.84v-8a3,3,0,0,1,3-3h10a3,3,0,0,1,3,3v8a3,3,0,0,1-3,3h-10A3,3,0,0,1,691.87,379.74Zm25.92,0v-8a3,3,0,0,1,3-3h10a3,3,0,0,1,3,3v8a3,3,0,0,1-3,3h-10A3,3,0,0,1,717.79,379.74Zm25.92,0v-8a3,3,0,0,1,3-3h9.95a3,3,0,0,1,3,3v8a3,3,0,0,1-3,3h-9.95A3,3,0,0,1,743.71,379.74Zm25.93,0v-8a3,3,0,0,1,3-3h10a3,3,0,0,1,3,3v8a3,3,0,0,1-3,3h-10A3,3,0,0,1,769.64,379.74Zm25.91,0v-8a3,3,0,0,1,3-3h10a3,3,0,0,1,3,3v8a3,3,0,0,1-3,3h-10A3,3,0,0,1,795.55,379.74Zm25.93,0v-8a3,3,0,0,1,3-3h9.95a3,3,0,0,1,3,3v8a3,3,0,0,1-3,3h-9.95A3,3,0,0,1,821.48,379.74Z"/>
        <path class="cls-2" d="M111.54,350.84c-5.79,12.42-13.72,26.69-14.22,27.58.79-1.05,17.13-22.6,59.48-22.6H456.58v-9.14H114A24.41,24.41,0,0,0,111.54,350.84Z"/>
        <path class="cls-2" d="M172.62,326.58l.33.35H836l.25.1,4.08-10.21-3.42-4.63H780l-8.25-13H571l-6.28,3.41-7.82,12H281.05l-2.82,4.7h-89C182.68,319.24,177,322.42,172.62,326.58Z"/>
        <polygon class="cls-2" points="323.4 346.68 456.58 346.68 479.69 346.68 502.81 346.68 510.99 346.68 525.93 346.61 549.05 346.5 572.16 346.38 611.88 346.19 667.4 346.19 690.51 346.19 713.63 346.19 736.75 346.19 759.87 346.19 782.98 346.19 815.55 346.19 832.65 346.19 832.92 346 830.25 342.16 832.43 336.69 832.09 336.56 814.72 336.56 782.98 336.56 759.87 336.56 736.75 336.56 713.63 336.56 690.51 336.56 667.4 336.56 595.28 336.56 572.16 336.56 549.05 336.56 525.93 336.56 333.51 336.56 323.4 346.68"/>
        <path class="cls-2" d="M342.19,303.69l-4.77,10.85H556.93l7.82-12H462.37l-11.1-7.26c-9.19,7.9-14.74,8.55-22.43,8.55H342.61Z"/>
        <path class="cls-3" d="M346.48,293.93l-4.29,9.76.42.18h86.23c7.69,0,13.24-.65,22.43-8.55-.75-.48-1.51-.95-2.28-1.39Z"/>
        <path class="cls-3" d="M351.3,283l-4.82,11H449c-18.6-10.78-45.95-10.82-60.51-10.82H351.66Z"/>
        <path class="cls-2" d="M449,293.93c.77.44,1.53.91,2.28,1.39l11.1,7.26h24.55s-27-26.62-71.53-30.66c-3.28-.3-6.67-.47-10.15-.5H356.38L351.3,283l.36.16h36.82C403,283.11,430.39,283.15,449,293.93Z"/>
        <polygon class="cls-3" points="355.85 258.88 362.43 271.41 372.62 271.41 365.73 258.88 355.85 258.88"/>
        <polygon class="cls-3" points="377.25 258.88 383.83 271.41 394.03 271.41 387.14 258.88 377.25 258.88"/>
        <path class="cls-3" d="M398.66,258.88l6.58,12.53h0c3.48,0,6.87.2,10.15.5l0-.51-6.89-12.53Z"/>
        <polygon class="cls-2" points="502.81 346.68 502.81 355.82 510.48 355.82 525.93 355.82 525.93 346.68 525.93 346.61 510.99 346.68 502.81 346.68"/>
        <polygon class="cls-2" points="505.86 244.93 517.82 273.18 530.27 302.58 544.95 302.58 520.95 244.93 505.86 244.93"/>
        <polygon class="cls-4" points="525.93 346.68 525.93 355.82 549.05 355.82 549.05 346.68 549.05 346.5 525.93 346.61 525.93 346.68"/>
        <polygon class="cls-4" points="549.05 346.68 549.05 355.82 572.16 355.82 572.16 346.68 572.16 346.38 549.05 346.5 549.05 346.68"/>
        <rect class="cls-4" x="549.05" y="326.93" width="23.11" height="9.64"/>
        <polygon class="cls-5" points="572.16 346.68 572.16 355.82 611.88 355.82 667.4 355.82 667.4 346.68 667.4 346.19 611.88 346.19 572.16 346.38 572.16 346.68"/>
        <rect class="cls-4" x="572.16" y="326.93" width="23.12" height="9.64"/>
        <rect class="cls-2" x="595.28" y="326.93" width="72.12" height="9.64"/>
        <path class="cls-2" d="M634,288.49l-4.56,10.68H752.1s-26.05-21.36-62.63-21.36H657v10.68Z"/>
        <polygon class="cls-2" points="667.4 346.68 667.4 355.82 690.51 355.82 690.51 346.68 690.51 346.19 667.4 346.19 667.4 346.68"/>
        <rect class="cls-5" x="667.4" y="326.93" width="23.11" height="9.64"/>
        <polygon class="cls-5" points="690.51 346.68 690.51 355.82 713.63 355.82 713.63 346.68 713.63 346.19 690.51 346.19 690.51 346.68"/>
        <rect class="cls-2" x="690.51" y="326.93" width="23.12" height="9.64"/>
        <polygon class="cls-2" points="713.63 346.68 713.63 355.82 736.75 355.82 736.75 346.68 736.75 346.19 713.63 346.19 713.63 346.68"/>
        <rect class="cls-5" x="713.63" y="326.93" width="23.12" height="9.64"/>
        <rect class="cls-5" x="717.79" y="368.78" width="15.95" height="13.96" rx="3"/>
        <polygon class="cls-5" points="736.75 346.68 736.75 355.82 759.87 355.82 759.87 346.68 759.87 346.19 736.75 346.19 736.75 346.68"/>
        <rect class="cls-2" x="736.75" y="326.93" width="23.12" height="9.64"/>
        <polygon class="cls-2" points="759.87 346.68 759.87 355.82 782.98 355.82 782.98 346.68 782.98 346.19 759.87 346.19 759.87 346.68"/>
        <rect class="cls-5" x="759.87" y="326.93" width="23.11" height="9.64"/>
        <path class="cls-5" d="M769.64,371.78v8a3,3,0,0,0,3,3h10a3,3,0,0,0,3-3v-8a3,3,0,0,0-3-3h-10A3,3,0,0,0,769.64,371.78Z"/>
        <polygon class="cls-5" points="782.98 346.68 782.98 355.82 821.1 355.82 815.55 346.68 815.55 346.19 782.98 346.19 782.98 346.68"/>
        <polygon class="cls-2" points="782.98 326.93 782.98 336.56 814.72 336.56 808.74 326.93 782.98 326.93"/>
        <polygon class="cls-5" points="808.74 326.93 814.72 336.56 832.09 336.56 832.43 336.69 836.28 327.03 836.03 326.93 808.74 326.93"/>
        <polygon class="cls-2" points="815.55 346.19 815.55 346.68 821.1 355.82 839.74 355.82 832.92 346 832.65 346.19 815.55 346.19"/>
        <polygon class="cls-6" points="824.12 407.57 821.35 422.87 836.66 422.87 839.74 407.57 824.12 407.57"/>
        <path class="cls-5" d="M821.48,371.78v8a3,3,0,0,0,3,3h9.95a3,3,0,0,0,3-3v-8a3,3,0,0,0-3-3h-9.95A3,3,0,0,0,821.48,371.78Z"/>
      </g>
      <g>
        <path class="cls-7" d="M97.3,378.46l-32.45,5.12-7.71,10.71-25.89,36H895.87l36-35,3.3-3.22-3.41-8.18s-29.61-9.83-81.14-12.39l-10.87-15.66L832.92,346l-2.67-3.84,2.18-5.47,3.85-9.66,4.08-10.21-3.42-4.63H780l-8.25-13H752.1s-26.05-21.36-62.63-21.36H657v10.68H634l-4.56,10.68H571l-6.28,3.41H486.92s-27-26.62-71.53-30.66c-3.28-.3-6.67-.47-10.15-.5H356.38L351.3,283l-4.82,11-4.29,9.76-4.77,10.85H281.05l-2.82,4.7h-89c-6.58,0-12.23,3.18-16.64,7.34a40.45,40.45,0,0,0-6.14,7.46H142.29c-8.55,0-21.3,3.1-28.28,12.64a24.41,24.41,0,0,0-2.47,4.16c-5.79,12.42-13.72,26.69-14.22,27.58"/>
        <polyline class="cls-7" points="362.43 271.41 355.85 258.88 365.73 258.88 372.62 271.41"/>
        <polyline class="cls-7" points="383.83 271.41 377.25 258.88 387.14 258.88 394.03 271.41"/>
        <polyline class="cls-7" points="405.24 271.41 398.66 258.88 408.54 258.88 415.43 271.41"/>
        <polyline class="cls-7" points="530.27 302.58 517.82 273.18 505.86 244.93 520.95 244.93 544.95 302.58"/>
        <line class="cls-7" x1="517.82" y1="273.18" x2="505.86" y2="302.58"/>
        <path class="cls-7" d="M303.25,314.54a31.73,31.73,0,0,0-18.63-5.83H268.13l-3.71-4.84H252.19l-2.85,4.55H210.62l-5.7,10.82"/>
        <polyline class="cls-7" points="836.03 326.93 808.74 326.93 782.98 326.93 759.87 326.93 736.75 326.93 713.63 326.93 690.51 326.93 667.4 326.93 595.28 326.93 572.16 326.93 549.05 326.93 525.93 326.93 172.95 326.93"/>
        <polyline class="cls-7" points="832.09 336.56 814.72 336.56 782.98 336.56 759.87 336.56 736.75 336.56 713.63 336.56 690.51 336.56 667.4 336.56 595.28 336.56 572.16 336.56 549.05 336.56 525.93 336.56 333.51 336.56"/>
        <line class="cls-7" x1="333.51" y1="336.56" x2="165.05" y2="336.56"/>
        <polyline class="cls-7" points="564.75 302.58 556.92 314.54 337.42 314.54"/>
        <path class="cls-7" d="M342.61,303.87h86.23c7.69,0,13.24-.65,22.43-8.55l11.1,7.26h24.55"/>
        <path class="cls-7" d="M351.66,283.11h36.82c14.56,0,41.91,0,60.51,10.82.77.44,1.53.91,2.28,1.39"/>
        <polyline class="cls-7" points="346.49 293.93 448.99 293.93 449.22 293.93"/>
        <line class="cls-7" x1="931.86" y1="395.27" x2="58.49" y2="395.27"/>
        <path class="cls-7" d="M97.3,378.46l0,0c.79-1.05,17.13-22.6,59.48-22.6H342.61"/>
        <polyline class="cls-7" points="342.61 355.82 456.58 355.82 479.69 355.82 502.81 355.82 510.48 355.82"/>
        <polyline class="cls-7" points="510.48 355.82 525.93 355.82 549.05 355.82 572.16 355.82 611.88 355.82"/>
        <polyline class="cls-7" points="611.88 355.82 667.4 355.82 690.51 355.82 713.63 355.82 736.75 355.82 759.87 355.82 782.98 355.82 821.1 355.82 839.74 355.82"/>
        <polyline class="cls-7" points="611.88 346.19 667.4 346.19 690.51 346.19 713.63 346.19 736.75 346.19 759.87 346.19 782.98 346.19 815.55 346.19 832.65 346.19"/>
        <polyline class="cls-7" points="510.99 346.68 525.93 346.61 549.05 346.5 572.16 346.38 611.88 346.19"/>
        <polyline class="cls-7" points="323.4 346.68 456.58 346.68 479.69 346.68 502.81 346.68 510.99 346.68"/>
        <polyline class="cls-7" points="114.01 346.68 161.82 346.68 323.4 346.68"/>
        <path class="cls-7" d="M704.82,382.74h-10a3,3,0,0,1-3-3v-8a3,3,0,0,1,3-3h10a3,3,0,0,1,3,3v8A3,3,0,0,1,704.82,382.74Z"/>
        <path class="cls-7" d="M730.75,382.74h-10a3,3,0,0,1-3-3v-8a3,3,0,0,1,3-3h10a3,3,0,0,1,3,3v8A3,3,0,0,1,730.75,382.74Z"/>
        <path class="cls-7" d="M756.66,382.74h-9.95a3,3,0,0,1-3-3v-8a3,3,0,0,1,3-3h9.95a3,3,0,0,1,3,3v8A3,3,0,0,1,756.66,382.74Z"/>
        <path class="cls-7" d="M782.59,382.74h-10a3,3,0,0,1-3-3v-8a3,3,0,0,1,3-3h10a3,3,0,0,1,3,3v8A3,3,0,0,1,782.59,382.74Z"/>
        <path class="cls-7" d="M808.51,382.74h-10a3,3,0,0,1-3-3v-8a3,3,0,0,1,3-3h10a3,3,0,0,1,3,3v8A3,3,0,0,1,808.51,382.74Z"/>
        <path class="cls-7" d="M834.43,382.74h-9.95a3,3,0,0,1-3-3v-8a3,3,0,0,1,3-3h9.95a3,3,0,0,1,3,3v8A3,3,0,0,1,834.43,382.74Z"/>
        <line class="cls-7" x1="815.56" y1="346.68" x2="821.1" y2="355.82"/>
        <line class="cls-7" x1="808.73" y1="326.93" x2="814.72" y2="336.56"/>
        <path class="cls-7" d="M161.82,346.68a44.07,44.07,0,0,1,3.23-10.12,20.55,20.55,0,0,1,1.43-2.52"/>
        <line class="cls-7" x1="667.4" y1="346.68" x2="667.4" y2="355.82"/>
        <line class="cls-7" x1="690.51" y1="346.68" x2="690.51" y2="355.82"/>
        <line class="cls-7" x1="713.63" y1="346.68" x2="713.63" y2="355.82"/>
        <line class="cls-7" x1="736.75" y1="346.68" x2="736.75" y2="355.82"/>
        <line class="cls-7" x1="759.87" y1="346.68" x2="759.87" y2="355.82"/>
        <line class="cls-7" x1="782.98" y1="346.68" x2="782.98" y2="355.82"/>
        <line class="cls-7" x1="479.69" y1="346.68" x2="479.69" y2="355.82"/>
        <line class="cls-7" x1="456.58" y1="346.68" x2="456.58" y2="355.82"/>
        <line class="cls-7" x1="502.81" y1="346.68" x2="502.81" y2="355.82"/>
        <line class="cls-7" x1="525.93" y1="346.68" x2="525.93" y2="355.82"/>
        <line class="cls-7" x1="549.05" y1="346.68" x2="549.05" y2="355.82"/>
        <line class="cls-7" x1="572.16" y1="346.68" x2="572.16" y2="355.82"/>
        <line class="cls-7" x1="667.4" y1="326.93" x2="667.4" y2="336.56"/>
        <line class="cls-7" x1="690.51" y1="326.93" x2="690.51" y2="336.56"/>
        <line class="cls-7" x1="713.63" y1="326.93" x2="713.63" y2="336.56"/>
        <line class="cls-7" x1="736.75" y1="326.93" x2="736.75" y2="336.56"/>
        <line class="cls-7" x1="759.87" y1="326.93" x2="759.87" y2="336.56"/>
        <line class="cls-7" x1="782.98" y1="326.93" x2="782.98" y2="336.56"/>
        <line class="cls-7" x1="525.93" y1="326.93" x2="525.93" y2="336.56"/>
        <line class="cls-7" x1="549.05" y1="326.93" x2="549.05" y2="336.56"/>
        <line class="cls-7" x1="572.16" y1="326.93" x2="572.16" y2="336.56"/>
        <line class="cls-7" x1="595.28" y1="326.93" x2="595.28" y2="336.56"/>
        <line class="cls-7" x1="333.51" y1="336.56" x2="323.4" y2="346.68"/>
        <line class="cls-7" x1="752.1" y1="299.17" x2="629.39" y2="299.17"/>
        <polygon class="cls-7" points="836.66 422.87 839.74 407.57 824.12 407.57 821.35 422.87 836.66 422.87"/>
      </g>
    </g>
    <g>
      <rect class="cls-8" x="1845.89" y="412.63" width="194.67" height="45.67"/>
      <g>
        <polyline class="cls-9" points="1579.74 395.27 1463.88 395.27 1463.88 458.3 1579.74 458.3 1579.56 395.27"/>
        <g>
          <rect class="cls-9" x="1463.88" y="386.63" width="20" height="71.67"/>
          <rect class="cls-9" x="1528.88" y="386.63" width="20" height="71.67"/>
          <rect class="cls-9" x="1593.88" y="386.63" width="20" height="71.67"/>
        </g>
      </g>
      <g>
        <path class="cls-8" d="M1832.73,120.2v-5.43a9.3,9.3,0,0,0-9.3-9.31h0a9.31,9.31,0,0,0-9.31,9.31v5.43Z"/>
        <rect class="cls-10" x="1871.81" y="184.73" width="27" height="57.78"/>
        <rect class="cls-10" x="1747.97" y="184.73" width="27" height="57.78"/>
        <polygon class="cls-10" points="1886.81 242.5 1912.3 242.5 1906.73 249.59 1951.61 249.59 1947.29 255.09 1947.29 294.29 1886.81 294.29 1886.81 242.5"/>
        <polyline class="cls-7" points="1947.29 262.51 1905.26 262.51 1905.26 255.38 1886.51 255.38"/>
        <line class="cls-7" x1="1896.6" y1="255.38" x2="1896.6" y2="294.29"/>
        <polyline class="cls-10" points="1881.46 214.17 1881.46 197.18 1838.16 197.18"/>
        <polyline class="cls-10" points="1765.23 214.24 1765.23 197.18 1808.53 197.18"/>
        <path class="cls-8" d="M1875.43,166.52h19.76a0,0,0,0,1,0,0v10.64a7.57,7.57,0,0,1-7.57,7.57H1883a7.57,7.57,0,0,1-7.57-7.57V166.52a0,0,0,0,1,0,0Z" transform="translate(3770.62 351.24) rotate(180)"/>
        <path class="cls-8" d="M1759.15,166.52h4.63a7.57,7.57,0,0,1,7.57,7.57v10.64a0,0,0,0,1,0,0h-19.76a0,0,0,0,1,0,0V174.08A7.57,7.57,0,0,1,1759.15,166.52Z"/>
        <line class="cls-7" x1="1895.19" y1="176.4" x2="1875.43" y2="176.4"/>
        <line class="cls-7" x1="1889.88" y1="153.24" x2="1880.74" y2="153.24"/>
        <line class="cls-7" x1="1828" y1="87.65" x2="1818.85" y2="87.65"/>
        <line class="cls-7" x1="1771.35" y1="176.4" x2="1751.58" y2="176.4"/>
        <line class="cls-7" x1="1885.31" y1="166.52" x2="1885.31" y2="147.37"/>
        <line class="cls-7" x1="1766.04" y1="153.24" x2="1756.89" y2="153.24"/>
        <line class="cls-7" x1="1761.47" y1="166.52" x2="1761.47" y2="147.37"/>
        <line class="cls-7" x1="1823.43" y1="105.46" x2="1823.43" y2="82.66"/>
        <path class="cls-8" d="M1796.82,157.94H1850V145.31a26.6,26.6,0,0,0-26.6-26.6h0a26.6,26.6,0,0,0-26.61,26.6Z"/>
        <rect class="cls-10" x="1796.82" y="157.94" width="53.21" height="39.24"/>
        <line class="cls-7" x1="1823.43" y1="191.4" x2="1823.43" y2="157.94"/>
        <line class="cls-7" x1="1839.1" y1="197.18" x2="1839.1" y2="157.94"/>
        <line class="cls-7" x1="1807.75" y1="197.18" x2="1807.75" y2="157.94"/>
        <line class="cls-7" x1="1706.03" y1="249.59" x2="1706.03" y2="230.77"/>
        <polygon class="cls-10" points="1760.28 242.5 1734.79 242.5 1740.35 249.59 1695.47 249.59 1699.8 255.09 1699.8 294.29 1760.28 294.29 1760.28 242.5"/>
        <polygon class="cls-10" points="1886.58 301.31 1886.58 242.5 1890.19 242.5 1890.19 217.6 1823.43 191.4 1756.66 217.6 1756.66 242.5 1760.28 242.5 1760.28 301.31 1886.58 301.31"/>
        <line class="cls-7" x1="1890.19" y1="220.21" x2="1756.66" y2="220.21"/>
        <line class="cls-7" x1="1890.19" y1="234.25" x2="1756.66" y2="234.25"/>
        <line class="cls-7" x1="1770.17" y1="234.25" x2="1770.17" y2="300.9"/>
        <line class="cls-7" x1="1783.63" y1="234.25" x2="1783.63" y2="300.9"/>
        <line class="cls-7" x1="1793.41" y1="234.25" x2="1793.41" y2="300.9"/>
        <line class="cls-7" x1="1805.77" y1="234.25" x2="1805.77" y2="300.9"/>
        <line class="cls-7" x1="1815.56" y1="234.25" x2="1815.56" y2="300.9"/>
        <line class="cls-7" x1="1830.54" y1="234.25" x2="1830.54" y2="300.9"/>
        <line class="cls-7" x1="1840.32" y1="234.25" x2="1840.32" y2="300.9"/>
        <line class="cls-7" x1="1853.57" y1="234.25" x2="1853.57" y2="300.9"/>
        <line class="cls-7" x1="1863.35" y1="234.25" x2="1863.35" y2="300.9"/>
        <line class="cls-7" x1="1877.02" y1="234.25" x2="1877.02" y2="300.9"/>
        <line class="cls-7" x1="1912.12" y1="262.51" x2="1912.12" y2="294.29"/>
        <line class="cls-7" x1="1724.89" y1="262.51" x2="1724.89" y2="294.29"/>
        <line class="cls-7" x1="1734.67" y1="262.51" x2="1734.67" y2="294.29"/>
        <polyline class="cls-7" points="1699.8 262.51 1741.53 262.51 1741.53 255.38 1760.28 255.38"/>
        <line class="cls-7" x1="1750.19" y1="255.38" x2="1750.19" y2="294.29"/>
        <line class="cls-7" x1="1709.36" y1="262.51" x2="1709.36" y2="294.29"/>
        <line class="cls-7" x1="1796.82" y1="145.31" x2="1850.03" y2="145.31"/>
        <circle class="cls-11" cx="1823.43" cy="98.74" r="3.3"/>
      </g>
      <g>
        <circle class="cls-7" cx="1669.46" cy="288.94" r="86.7"/>
        <g>
          <line class="cls-7" x1="1584.08" y1="273.89" x2="1754.84" y2="304"/>
          <line class="cls-7" x1="1596.34" y1="242.36" x2="1742.58" y2="335.53"/>
          <line class="cls-7" x1="1754.1" y1="270.18" x2="1584.82" y2="307.71"/>
          <line class="cls-7" x1="1652.18" y1="203.99" x2="1686.75" y2="373.9"/>
          <line class="cls-7" x1="1714.76" y1="215.02" x2="1624.16" y2="362.86"/>
          <line class="cls-7" x1="1684.52" y1="203.56" x2="1654.41" y2="374.32"/>
          <line class="cls-7" x1="1619.74" y1="217.93" x2="1719.19" y2="359.96"/>
          <line class="cls-7" x1="1740.48" y1="239.22" x2="1598.45" y2="338.67"/>
        </g>
        <path class="cls-12" d="M1766.31,300.6a11.3,11.3,0,1,1-22.6,0v-4.23h22.6Z"/>
        <path class="cls-12" d="M1752,235.82a11.3,11.3,0,1,1-22.6,0v-4.23H1752Z"/>
        <path class="cls-12" d="M1696,200.17a11.31,11.31,0,0,1-22.61,0v-4.23H1696Z"/>
        <path class="cls-12" d="M1631.21,214.53a11.31,11.31,0,0,1-22.61,0V210.3h22.61Z"/>
        <path class="cls-12" d="M1595.56,270.5a11.31,11.31,0,0,1-22.61,0v-4.24h22.61Z"/>
        <path class="cls-12" d="M1610.08,334.37a11.31,11.31,0,0,1-22.61,0v-4.23h22.61Z"/>
        <path class="cls-12" d="M1665.88,370.93a11.31,11.31,0,0,1-22.61,0V366.7h22.61Z"/>
        <path class="cls-12" d="M1730.66,356.57a11.3,11.3,0,0,1-22.6,0v-4.23h22.6Z"/>
        <circle class="cls-13" cx="1669.46" cy="288.94" r="11.3"/>
        <polyline class="cls-7" points="1716.83 375.64 1669.46 288.94 1622.1 375.64"/>
      </g>
      <g>
        <polygon class="cls-12" points="1596.14 250.66 1564.28 250.66 1564.28 363.63 1711.75 363.63 1711.75 250.66 1679.89 250.66 1638.02 235.11 1596.14 250.66"/>
        <rect class="cls-10" x="1668.02" y="277.21" width="11.39" height="19.54"/>
        <line class="cls-7" x1="1683.59" y1="325.69" x2="1694.98" y2="325.69"/>
        <line class="cls-7" x1="1657.96" y1="325.69" x2="1669.35" y2="325.69"/>
        <line class="cls-7" x1="1632.32" y1="325.69" x2="1643.71" y2="325.69"/>
        <line class="cls-7" x1="1606.68" y1="325.69" x2="1618.08" y2="325.69"/>
        <line class="cls-7" x1="1581.05" y1="325.69" x2="1592.44" y2="325.69"/>
        <rect class="cls-10" x="1644.22" y="277.21" width="11.39" height="19.54"/>
        <rect class="cls-10" x="1620.42" y="277.21" width="11.39" height="19.54"/>
        <rect class="cls-10" x="1596.62" y="277.21" width="11.39" height="19.54"/>
        <line class="cls-7" x1="1711.75" y1="312.17" x2="1564.28" y2="312.17"/>
        <line class="cls-7" x1="1711.75" y1="264.59" x2="1564.28" y2="264.59"/>
        <line class="cls-7" x1="1697.51" y1="264.59" x2="1697.51" y2="312.17"/>
        <line class="cls-7" x1="1578.52" y1="264.59" x2="1578.52" y2="312.17"/>
        <path class="cls-7" d="M1623.89,254.22a20.94,20.94,0,0,1,28.25,0"/>
      </g>
      <g>
        <polygon class="cls-14" points="1656.23 275.04 1683.19 261.21 2013.6 261.21 2040.56 275.04 1656.23 275.04"/>
        <polygon class="cls-15" points="1788.75 275.04 1656.23 275.04 1656.23 412.63 2040.56 412.63 2040.56 275.04 1908.04 275.04 1848.4 252.47 1788.75 275.04"/>
        <rect class="cls-7" x="1696.24" y="290.76" width="8.38" height="16.75"/>
        <rect class="cls-7" x="1671.31" y="290.76" width="9.47" height="16.75"/>
        <rect class="cls-7" x="1761.3" y="290.76" width="9.47" height="16.75"/>
        <rect class="cls-7" x="1722.49" y="290.76" width="8.38" height="16.75"/>
        <rect class="cls-7" x="1800.29" y="293.55" width="9.47" height="16.75"/>
        <rect class="cls-10" x="1800.29" y="320.07" width="9.47" height="16.75"/>
        <line class="cls-7" x1="1788.75" y1="275.04" x2="1788.75" y2="412.63"/>
        <rect class="cls-10" x="1888.23" y="293.55" width="9.47" height="16.75"/>
        <rect class="cls-7" x="1888.23" y="320.07" width="9.47" height="16.75"/>
        <line class="cls-7" x1="1908.04" y1="275.04" x2="1908.04" y2="412.63"/>
        <line class="cls-7" x1="1877.89" y1="283.78" x2="1877.89" y2="412.63"/>
        <rect class="cls-7" x="1858.07" y="293.55" width="9.47" height="16.75"/>
        <rect class="cls-10" x="1858.07" y="320.07" width="9.47" height="16.75"/>
        <line class="cls-7" x1="1847.73" y1="283.78" x2="1847.73" y2="412.63"/>
        <rect class="cls-10" x="1829.18" y="293.55" width="9.47" height="16.75"/>
        <rect class="cls-7" x="1829.18" y="320.07" width="9.47" height="16.75"/>
        <line class="cls-7" x1="1818.84" y1="283.78" x2="1818.84" y2="412.63"/>
        <line class="cls-7" x1="1908.04" y1="282.48" x2="1788.75" y2="282.48"/>
        <circle class="cls-7" cx="1848.4" cy="269.47" r="5.5"/>
        <line class="cls-7" x1="2040.56" y1="348.37" x2="1788.75" y2="348.37"/>
        <line class="cls-7" x1="2040.56" y1="390.76" x2="1908.04" y2="390.76"/>
        <line class="cls-7" x1="1892.96" y1="412.63" x2="1892.96" y2="359.59"/>
        <line class="cls-7" x1="1862.81" y1="412.63" x2="1862.81" y2="359.59"/>
        <line class="cls-7" x1="1833.91" y1="412.63" x2="1833.91" y2="359.59"/>
        <line class="cls-7" x1="1805.02" y1="412.63" x2="1805.02" y2="359.59"/>
      </g>
      <g>
        <rect class="cls-16" x="1577.04" y="303.61" width="269.24" height="154.69" transform="translate(3423.32 761.91) rotate(180)"/>
        <rect class="cls-7" x="1820.52" y="335.25" width="13.96" height="25.13"/>
        <rect class="cls-10" x="1791.56" y="335.25" width="13.96" height="25.13"/>
        <rect class="cls-7" x="1762.6" y="335.25" width="13.96" height="25.13"/>
        <rect class="cls-7" x="1733.64" y="335.25" width="13.96" height="25.13"/>
        <rect class="cls-10" x="1820.52" y="386.02" width="13.96" height="25.13"/>
        <rect class="cls-7" x="1791.56" y="386.02" width="13.96" height="25.13"/>
        <rect class="cls-7" x="1762.6" y="386.02" width="13.96" height="25.13"/>
        <rect class="cls-10" x="1733.64" y="386.02" width="13.96" height="25.13"/>
        <rect class="cls-10" x="1704.68" y="335.25" width="13.96" height="25.13"/>
        <rect class="cls-10" x="1675.72" y="335.25" width="13.96" height="25.13"/>
        <rect class="cls-7" x="1646.76" y="335.25" width="13.96" height="25.13"/>
        <rect class="cls-7" x="1617.8" y="335.25" width="13.96" height="25.13"/>
        <rect class="cls-10" x="1588.84" y="335.25" width="13.96" height="25.13"/>
        <rect class="cls-10" x="1646.76" y="386.02" width="13.96" height="25.13"/>
        <rect class="cls-7" x="1617.8" y="386.02" width="13.96" height="25.13"/>
        <rect class="cls-7" x="1588.84" y="386.02" width="13.96" height="25.13"/>
        <path class="cls-7" d="M1675.54,424.35V397a11,11,0,0,1,11-11h19.92a11,11,0,0,1,11,11v32.76"/>
        <line class="cls-7" x1="1845.89" y1="373.2" x2="1577.04" y2="373.2"/>
        <line class="cls-7" x1="1846.28" y1="316.61" x2="1577.04" y2="316.61"/>
        <polygon class="cls-17" points="1577.04 303.61 1592.21 288.44 1831.1 288.44 1846.28 303.61 1577.04 303.61"/>
        <line class="cls-7" x1="1696.48" y1="386.02" x2="1696.48" y2="434.5"/>
      </g>
      <g>
        <path class="cls-8" d="M1546.63,338.08a11.35,11.35,0,0,1,21.77,2.3c4.42-3.75,12.11-2.44,15,2.56s0,12.46-5.38,14.52c5.41,3.53,7.12,11.82,3.1,16.88S1568.66,380,1564,375.5a18.33,18.33,0,0,1-8.93,11,14.38,14.38,0,0,1-13.92-.44,11.91,11.91,0,0,1-5.23-12.57c-5.94,2.95-14.14-.66-16-7s3.15-13.81,9.76-14.5a11.09,11.09,0,0,1,16.82-14.46"/>
        <path class="cls-18" d="M1553.83,365.65l5.36-6.15A52.6,52.6,0,0,1,1572.75,370q-.32-6.45-1-12.86l9.19-9.28,7.65,9.28c-3.2,29.71-.41,72.51,8.16,101.13h-33.16c6-20.15,8.83-43.4,9-61.95a26.66,26.66,0,0,0-4.69-15.29C1563.88,375.27,1559.38,369.76,1553.83,365.65Z"/>
        <path class="cls-8" d="M1584.3,286.9a14.08,14.08,0,0,1,26.12,8.64,14,14,0,0,1,18.94,20.33c7.42,1.72,12.44,10.3,10.3,17.6s-11.29,11.26-18.46,8.72c.2,6.21-4,12.84-10,14.52a14.47,14.47,0,0,1-16-6.61,18,18,0,0,1-31.79-.57c-4.29,3.54-9.6,6-15.16,6.15s-11.29-2.42-14.27-7.11-2.59-11.49,1.45-15.3a13.62,13.62,0,0,1-2-25.71c1.62-1,4.34-1.5,7.74-1.64-1-2.31-1-5.32-.27-8.88a11.27,11.27,0,0,1,19.94-5.91,13,13,0,0,1,23.31-4.78"/>
        <path class="cls-8" d="M1616.71,343.47a11.35,11.35,0,0,0-21.77,2.3c-4.42-3.74-12.11-2.43-15,2.56s0,12.47,5.38,14.53c-5.41,3.53-7.12,11.81-3.1,16.88s12.51,5.63,17.17,1.16a18.32,18.32,0,0,0,8.94,11,14.36,14.36,0,0,0,13.91-.43,11.9,11.9,0,0,0,5.23-12.58c5.95,2.95,14.14-.66,16-7s-3.16-13.82-9.77-14.51a11.09,11.09,0,0,0-16.82-14.45"/>
      </g>
      <g>
        <path class="cls-19" d="M1741,438.92s-19.59-3.7-30-14.57c-10.4,10.87-30,14.57-30,14.57v3.62h60Z"/>
        <path class="cls-19" d="M1671.26,438.92s-19.59-3.7-30-14.57c-10.4,10.87-30,14.57-30,14.57v3.62h60Z"/>
        <path class="cls-7" d="M1693.58,435.16c-5.89-2.3-12.65-5.79-17.45-10.81-4.8,5-11.55,8.5-17.44,10.81"/>
        <path class="cls-19" d="M1810.27,438.92s-19.6-3.7-30-14.57c-10.4,10.87-30,14.57-30,14.57v3.62h60Z"/>
        <path class="cls-7" d="M1762.81,435.16c-5.89-2.3-12.65-5.79-17.45-10.81-4.8,5-11.28,8.4-17.16,10.7"/>
        <path class="cls-19" d="M1880.45,438.92s-19.59-3.7-30-14.57c-10.4,10.87-30,14.57-30,14.57v3.62h60Z"/>
        <path class="cls-7" d="M1833,435.16c-5.89-2.3-12.65-5.79-17.45-10.81-4.8,5-11.55,8.5-17.43,10.81"/>
        <rect class="cls-16" x="1823.9" y="442.54" width="51.9" height="15.76"/>
        <line class="cls-7" x1="1804.75" y1="442.54" x2="1804.75" y2="458.3"/>
        <line class="cls-7" x1="1755.78" y1="442.54" x2="1755.78" y2="458.3"/>
        <line class="cls-7" x1="1735.52" y1="442.54" x2="1735.52" y2="458.3"/>
        <line class="cls-7" x1="1686.54" y1="442.54" x2="1686.54" y2="458.3"/>
        <line class="cls-7" x1="1665.75" y1="442.54" x2="1665.75" y2="458.3"/>
        <line class="cls-7" x1="1616.77" y1="442.54" x2="1616.77" y2="458.3"/>
      </g>
    </g>
    <polygon class="cls-14" points="460.9 458.3 1462.88 458.3 1462.88 430.27 398.31 430.27 398.31 458.3 460.9 458.3"/>
    <g>
      <g>
        <polyline class="cls-9" points="363.45 395.27 479.31 395.27 479.31 458.3 293.36 458.3 293.54 395.27"/>
        <rect class="cls-9" x="459.31" y="386.63" width="20" height="71.67" transform="translate(938.62 844.94) rotate(180)"/>
        <rect class="cls-9" x="394.31" y="386.63" width="20" height="71.67" transform="translate(808.62 844.94) rotate(180)"/>
      </g>
      <g>
        <rect class="cls-20" x="-49.77" y="138.17" width="88.3" height="290.13"/>
        <line class="cls-21" x1="0.69" y1="201.24" x2="0.69" y2="213.86"/>
        <line class="cls-21" x1="13.3" y1="201.24" x2="13.3" y2="213.86"/>
        <line class="cls-21" x1="25.91" y1="201.24" x2="25.91" y2="213.86"/>
        <line class="cls-21" x1="0.69" y1="226.47" x2="0.69" y2="239.09"/>
        <line class="cls-21" x1="13.3" y1="226.47" x2="13.3" y2="239.09"/>
        <line class="cls-21" x1="25.91" y1="226.47" x2="25.91" y2="239.09"/>
        <line class="cls-21" x1="0.69" y1="251.7" x2="0.69" y2="264.32"/>
        <line class="cls-21" x1="13.3" y1="251.7" x2="13.3" y2="264.32"/>
        <line class="cls-21" x1="25.91" y1="251.7" x2="25.91" y2="264.32"/>
        <line class="cls-21" x1="0.69" y1="276.93" x2="0.69" y2="289.54"/>
        <line class="cls-21" x1="13.3" y1="276.93" x2="13.3" y2="289.54"/>
        <line class="cls-21" x1="25.91" y1="276.93" x2="25.91" y2="289.54"/>
        <line class="cls-21" x1="0.69" y1="302.16" x2="0.69" y2="314.77"/>
        <line class="cls-21" x1="13.3" y1="302.16" x2="13.3" y2="314.77"/>
        <line class="cls-21" x1="25.91" y1="302.16" x2="25.91" y2="314.77"/>
        <line class="cls-21" x1="0.69" y1="327.39" x2="0.69" y2="340"/>
        <line class="cls-21" x1="13.3" y1="327.39" x2="13.3" y2="340"/>
        <line class="cls-21" x1="25.91" y1="327.39" x2="25.91" y2="340"/>
        <line class="cls-21" x1="0.69" y1="352.62" x2="0.69" y2="365.23"/>
        <line class="cls-21" x1="13.3" y1="352.62" x2="13.3" y2="365.23"/>
        <line class="cls-21" x1="25.91" y1="352.62" x2="25.91" y2="365.23"/>
        <line class="cls-21" x1="0.69" y1="377.85" x2="0.69" y2="390.46"/>
        <line class="cls-21" x1="13.3" y1="377.85" x2="13.3" y2="390.46"/>
        <line class="cls-21" x1="25.91" y1="377.85" x2="25.91" y2="390.46"/>
        <line class="cls-21" x1="0.69" y1="403.08" x2="0.69" y2="415.69"/>
        <line class="cls-21" x1="13.3" y1="403.08" x2="13.3" y2="415.69"/>
        <line class="cls-21" x1="25.91" y1="403.08" x2="25.91" y2="415.69"/>
      </g>
      <g>
        <polygon class="cls-22" points="61.15 189.94 -15.17 189.94 -15.17 438.3 109.05 438.31 109.05 215.95 61.15 189.94"/>
        <polygon class="cls-7" points="61.15 189.94 -15.17 148.5 -15.17 189.94 61.15 189.94"/>
        <line class="cls-10" x1="-1.37" y1="207.61" x2="59.91" y2="207.61"/>
        <line class="cls-10" x1="-1.37" y1="224.86" x2="59.91" y2="224.86"/>
        <line class="cls-10" x1="-1.37" y1="242.12" x2="59.91" y2="242.12"/>
        <line class="cls-10" x1="-1.37" y1="259.37" x2="59.91" y2="259.37"/>
        <line class="cls-10" x1="-1.37" y1="276.62" x2="59.91" y2="276.62"/>
      </g>
      <g>
        <rect class="cls-23" x="159.86" y="298.44" width="73.58" height="33.31"/>
        <polygon class="cls-17" points="233.45 298.44 159.86 298.44 159.86 286.03 196.66 256.03 233.45 286.03 233.45 298.44"/>
      </g>
      <g>
        <path class="cls-21" d="M164.14,278.3l-13-7.48s5-3.33,5-11.14c0-11.64-12.72-12.14-12.72-18.79v-5.48H118.86v5.48c0,6.65-12.72,7.15-12.72,18.79,0,7.81,5,11.14,5,11.14l-13,7.48Z"/>
        <path class="cls-21" d="M143.42,216l-3.84-6.78a5,5,0,0,0,1.86-4.15c0-4.33-4.73-4.52-4.73-7v-2l-5.57-30-5.57,30v2c0,2.47-4.73,2.66-4.73,7a5,5,0,0,0,1.86,4.15L118.86,216Z"/>
        <path class="cls-10" d="M142.45,278.3a12,12,0,0,0-22.61,0h-18.7v150h60v-150Z"/>
        <path class="cls-10" d="M111.14,322.44h10v-14c0-3.33-2.23-6-5-6h0c-2.76,0-5,2.71-5,6Z"/>
        <path class="cls-10" d="M141.14,322.44h10v-14c0-3.33-2.23-6-5-6h0c-2.76,0-5,2.71-5,6Z"/>
        <circle class="cls-21" cx="131.14" cy="283.3" r="5"/>
        <rect class="cls-7" x="118.86" y="216.04" width="24.56" height="19.37"/>
        <line class="cls-7" x1="126.86" y1="216.04" x2="126.86" y2="235.41"/>
        <line class="cls-7" x1="135.42" y1="216.04" x2="135.42" y2="235.41"/>
      </g>
      <g>
        <path class="cls-24" d="M277.07,231.3h0A90.82,90.82,0,0,1,268,202.38l-13.67-99.69-13.22,99.68a89.19,89.19,0,0,1-9,28.93h45Z"/>
        <rect class="cls-25" x="229.45" y="241.3" width="50" height="180"/>
        <path class="cls-10" d="M239.45,296.44h10v-14c0-3.33-2.24-6-5-6h0c-2.77,0-5,2.71-5,6Z"/>
        <path class="cls-10" d="M259.45,296.44h10v-14c0-3.33-2.24-6-5-6h0c-2.77,0-5,2.71-5,6Z"/>
        <path class="cls-7" d="M242.45,251.3v15"/>
        <path class="cls-7" d="M254.45,251.3v15"/>
        <path class="cls-7" d="M266.45,251.3v15"/>
        <path class="cls-7" d="M245.45,315.35v10"/>
        <path class="cls-7" d="M263.45,315.35v10"/>
        <polygon class="cls-10" points="284.45 231.31 224.45 231.31 229.45 241.31 279.45 241.31 284.45 231.31"/>
        <polygon class="cls-24" points="284.45 231.31 269.45 231.31 276.95 193.31 284.45 231.31"/>
        <polygon class="cls-24" points="239.45 231.31 224.45 231.31 231.95 193.31 239.45 231.31"/>
      </g>
      <rect class="cls-9" x="39.34" y="385.13" width="192.13" height="73.18"/>
      <g>
        <rect class="cls-9" x="133.45" y="328.3" width="160" height="130"/>
        <polygon class="cls-17" points="129.45 328.3 139.13 309.83 287.76 309.83 297.45 328.3 129.45 328.3"/>
        <g>
          <line class="cls-9" x1="161.45" y1="337.61" x2="161.45" y2="341.61"/>
          <line class="cls-9" x1="149.45" y1="358.5" x2="149.45" y2="362.5"/>
          <line class="cls-9" x1="196.45" y1="337.61" x2="196.45" y2="341.61"/>
          <line class="cls-9" x1="230.45" y1="337.61" x2="230.45" y2="341.61"/>
          <line class="cls-9" x1="213.45" y1="358.5" x2="213.45" y2="362.5"/>
          <line class="cls-9" x1="265.45" y1="337.61" x2="265.45" y2="341.61"/>
          <line class="cls-9" x1="273.45" y1="358.5" x2="273.45" y2="362.5"/>
        </g>
        <path class="cls-21" d="M252.26,368.41H234.64v-9.69s2.26-3.52,8.81-3.52,8.81,3.52,8.81,3.52Z"/>
        <path class="cls-21" d="M192.27,368.42H174.62v-9.71s2.27-3.53,8.83-3.53,8.82,3.53,8.82,3.53Z"/>
        <path class="cls-21" d="M254,435.24H236.88v-9.43s2.2-3.43,8.57-3.43,8.56,3.43,8.56,3.43Z"/>
        <path class="cls-21" d="M190.28,433.94H176.61v-7.52s1.76-2.74,6.84-2.74,6.83,2.74,6.83,2.74Z"/>
        <path class="cls-21" d="M278.21,401.63H262.68v-8.55s2-3.1,7.77-3.1,7.76,3.1,7.76,3.1Z"/>
        <path class="cls-21" d="M223.92,402.16H207v-9.32s2.18-3.39,8.48-3.39,8.47,3.39,8.47,3.39Z"/>
        <path class="cls-21" d="M169.11,401.55H153.78v-8.43s2-3.07,7.67-3.07,7.66,3.07,7.66,3.07Z"/>
      </g>
      <g>
        <path class="cls-18" d="M342.72,458.09c-4.44-14.62-7.91-36-6.94-51.47l-12.94,1.77c1,15.48.16,37.46-7,49.91Z"/>
        <path class="cls-24" d="M311,302.28c1-9.32,10.57-16.82,19.86-15.57s16.53,11,15,20.25c5.65-5.1,15.51-3.22,20.12,2.84s4.44,14.83,1,21.64a14.11,14.11,0,0,1,12.1,24.69,14.48,14.48,0,0,1-3.54,28.32,15.82,15.82,0,0,1-.14,17.49,18.43,18.43,0,0,1-16,7.68,22.13,22.13,0,0,1-15.89-8.53,19.05,19.05,0,0,1-36.49-3.29,17.46,17.46,0,1,1-24.6-24.24c-6.14-1.35-11-6.83-12.12-13a19.52,19.52,0,0,1,5.84-17.12A24.16,24.16,0,0,1,293.4,337a21.46,21.46,0,0,1-3.49-23.67c3.8-7.6,12.68-12,21.12-11.06"/>
      </g>
      <g>
        <rect class="cls-10" x="-116.72" y="270.3" width="165.12" height="165"/>
        <rect class="cls-9" x="-105.64" y="283.93" width="142.96" height="151.37"/>
        <g>
          <line class="cls-7" x1="-105.64" y1="425.21" x2="37.32" y2="425.21"/>
          <line class="cls-7" x1="-105.64" y1="413.44" x2="37.32" y2="413.44"/>
          <line class="cls-7" x1="-105.64" y1="401.66" x2="37.32" y2="401.66"/>
          <line class="cls-7" x1="-105.64" y1="389.89" x2="37.32" y2="389.89"/>
          <line class="cls-7" x1="-105.64" y1="378.12" x2="37.32" y2="378.12"/>
          <line class="cls-7" x1="-105.64" y1="366.34" x2="37.32" y2="366.34"/>
          <line class="cls-7" x1="-105.64" y1="354.57" x2="37.32" y2="354.57"/>
          <line class="cls-7" x1="-105.64" y1="342.8" x2="37.32" y2="342.8"/>
          <line class="cls-7" x1="-105.64" y1="331.02" x2="37.32" y2="331.02"/>
          <line class="cls-7" x1="-105.64" y1="319.25" x2="37.32" y2="319.25"/>
          <line class="cls-7" x1="-105.64" y1="307.48" x2="37.32" y2="307.48"/>
          <line class="cls-7" x1="-105.64" y1="295.7" x2="37.32" y2="295.7"/>
        </g>
        <rect class="cls-25" x="24.71" y="283.93" width="12.61" height="11.77"/>
        <rect class="cls-25" x="24.71" y="378.14" width="12.61" height="11.77"/>
        <rect class="cls-25" x="-8.96" y="354.65" width="33.64" height="11.77"/>
        <rect class="cls-25" x="-25.77" y="401.66" width="33.64" height="11.77"/>
        <rect class="cls-25" x="-25.75" y="283.93" width="33.64" height="11.77"/>
        <line class="cls-13" x1="24.71" y1="283.93" x2="24.71" y2="295.7"/>
        <line class="cls-13" x1="7.89" y1="307.42" x2="7.89" y2="319.2"/>
        <line class="cls-13" x1="24.71" y1="307.42" x2="24.71" y2="319.2"/>
        <rect class="cls-25" x="-8.93" y="330.94" width="16.82" height="11.77"/>
        <rect class="cls-25" x="7.89" y="307.42" width="16.82" height="11.77"/>
        <rect class="cls-25" x="-8.93" y="378.14" width="16.82" height="11.77"/>
        <line class="cls-13" x1="7.89" y1="330.94" x2="7.89" y2="342.72"/>
        <line class="cls-13" x1="24.71" y1="330.94" x2="24.71" y2="342.72"/>
        <line class="cls-13" x1="7.89" y1="354.65" x2="7.89" y2="366.42"/>
        <line class="cls-13" x1="24.71" y1="354.65" x2="24.71" y2="366.42"/>
        <line class="cls-13" x1="7.89" y1="378.14" x2="7.89" y2="389.91"/>
        <line class="cls-13" x1="24.71" y1="378.14" x2="24.71" y2="389.91"/>
        <line class="cls-13" x1="7.89" y1="401.66" x2="7.89" y2="413.44"/>
        <line class="cls-13" x1="24.71" y1="401.66" x2="24.71" y2="413.44"/>
      </g>
      <g>
        <rect class="cls-9" x="31.88" y="317.66" width="77.36" height="46.88"/>
        <path class="cls-21" d="M53,335.24v17.58H41.25V335.24a5.86,5.86,0,0,1,5.86-5.86h0A5.86,5.86,0,0,1,53,335.24Z"/>
        <path class="cls-21" d="M76.42,335.24v17.58H64.69V335.24a5.86,5.86,0,0,1,5.86-5.86h0A5.86,5.86,0,0,1,76.42,335.24Z"/>
        <path class="cls-21" d="M99.86,335.24v17.58H88.14V335.24A5.86,5.86,0,0,1,94,329.38h0A5.86,5.86,0,0,1,99.86,335.24Z"/>
        <rect class="cls-9" x="35.4" y="364.54" width="70.33" height="93.77"/>
        <polygon class="cls-9" points="113.92 305.19 109.23 317.66 31.88 317.66 27.19 305.19 113.92 305.19"/>
        <polygon class="cls-17" points="113.92 305.19 70.56 258.31 27.19 305.19 113.92 305.19"/>
        <line class="cls-9" x1="54.3" y1="381.03" x2="54.3" y2="389.23"/>
        <line class="cls-9" x1="47.11" y1="423.15" x2="47.11" y2="431.35"/>
        <line class="cls-9" x1="69.69" y1="404.2" x2="69.69" y2="412.41"/>
        <line class="cls-9" x1="90.55" y1="434.16" x2="90.55" y2="442.37"/>
        <line class="cls-9" x1="88.14" y1="384.47" x2="88.14" y2="392.67"/>
        <path class="cls-13" d="M80.55,439.72V458.3h-20V439.72s2.67-7.3,10-8.86C77.8,432.15,80.55,439.72,80.55,439.72Z"/>
        <line class="cls-9" x1="70.55" y1="430.86" x2="70.55" y2="458.3"/>
      </g>
      <rect class="cls-24" x="-245.8" y="423.15" width="278.2" height="35.16"/>
      <g>
        <path class="cls-18" d="M41.15,458.16c-3-9.87-5.35-24.31-4.69-34.76l-8.74,1.19c.65,10.46.11,25.3-4.72,33.71Z"/>
        <path class="cls-24" d="M19.74,352.91A12.37,12.37,0,0,1,33.16,342.4a12.38,12.38,0,0,1,10.16,13.68c3.81-3.45,10.47-2.18,13.59,1.91s3,10,.69,14.62a9.54,9.54,0,0,1,8.18,16.68,9.78,9.78,0,0,1-2.4,19.13,10.68,10.68,0,0,1-.09,11.81,12.44,12.44,0,0,1-10.84,5.19,14.91,14.91,0,0,1-10.73-5.76,13.26,13.26,0,0,1-13.16,8.18,13.26,13.26,0,0,1-11.49-10.4A12.08,12.08,0,0,1,5.14,422a11.79,11.79,0,0,1-4.68-21,11.09,11.09,0,0,1-8.19-8.78,13.19,13.19,0,0,1,3.94-11.57,16.38,16.38,0,0,1,11.62-4.34,14.49,14.49,0,0,1-2.36-16,14.41,14.41,0,0,1,14.27-7.48"/>
      </g>
      <path class="cls-8" d="M105.72,450.48H351.41a7.83,7.83,0,0,1,7.83,7.83v0a0,0,0,0,1,0,0H105.72a0,0,0,0,1,0,0v-7.83A0,0,0,0,1,105.72,450.48Z"/>
    </g>
    <g>
      <path class="cls-10" d="M1322.62,138.71s-23.85,5.19-38.47,6.73S1183.52,147,1183.52,147c-14.37,0-20.93-2-20.93-8.23h0c0-8.21,14.67-14.43,20.93-14.43h140.29c6.26,0,9.39,3.08,9.39,7.2S1328.88,138.71,1322.62,138.71Z"/>
      <path class="cls-26" d="M1323.81,124.3h-33.06c-1.58,10-8.62,17.58-27.33,22,9.58-.21,17.22-.49,20.73-.86,14.62-1.54,38.47-6.73,38.47-6.73,6.26,0,10.58-3.08,10.58-7.21S1330.07,124.3,1323.81,124.3Z"/>
      <polygon class="cls-10" points="1272.83 103.45 1259.19 103.45 1214.76 124.3 1263.71 124.3 1272.83 103.45"/>
      <polygon class="cls-14" points="1340.55 102.69 1328.49 102.69 1304.7 126.49 1328.82 126.49 1340.55 102.69"/>
      <path class="cls-10" d="M1284.2,181.24h-18.81l-51.67-36.62s4.88-2.74,27.69-2.74,22.64,2.74,22.64,2.74Z"/>
      <polygon class="cls-14" points="1339.93 151.14 1328.29 151.14 1305.32 134.25 1328.61 134.25 1339.93 151.14"/>
      <path class="cls-27" d="M1179.5,132.8c-1,2.73-3,2.83-6.79,2.73-2.65-.07-4.8-.08-4.8-2.73s2.29-3.93,4.8-4.79C1179.41,125.72,1180.45,130.33,1179.5,132.8Z"/>
      <line class="cls-7" x1="1212.92" y1="133.04" x2="1212.92" y2="134.6"/>
      <line class="cls-7" x1="1218.98" y1="133.04" x2="1218.98" y2="134.6"/>
      <line class="cls-7" x1="1225.04" y1="133.04" x2="1225.04" y2="134.6"/>
      <line class="cls-7" x1="1231.09" y1="133.04" x2="1231.09" y2="134.6"/>
      <line class="cls-7" x1="1237.15" y1="133.04" x2="1237.15" y2="134.6"/>
      <line class="cls-7" x1="1243.21" y1="133.04" x2="1243.21" y2="134.6"/>
      <line class="cls-7" x1="1249.27" y1="133.04" x2="1249.27" y2="134.6"/>
      <line class="cls-7" x1="1255.33" y1="133.04" x2="1255.33" y2="134.6"/>
      <line class="cls-7" x1="1261.38" y1="133.04" x2="1261.38" y2="134.6"/>
      <line class="cls-7" x1="1267.44" y1="133.04" x2="1267.44" y2="134.6"/>
      <line class="cls-7" x1="1273.5" y1="133.04" x2="1273.5" y2="134.6"/>
      <line class="cls-7" x1="1279.56" y1="133.04" x2="1279.56" y2="134.6"/>
    </g>
  </g>
</svg>
