<svg xmlns="http://www.w3.org/2000/svg" viewBox="0 0 1920 804.82">
  <defs>
    <style>
      .cls-1, .cls-27 {
        fill: #f9e9a2;
      }

      .cls-1, .cls-10, .cls-11, .cls-13, .cls-14, .cls-16, .cls-2, .cls-22, .cls-24, .cls-25, .cls-3, .cls-39, .cls-4, .cls-5, .cls-6, .cls-7, .cls-8, .cls-9 {
        stroke: #000;
      }

      .cls-1, .cls-10, .cls-11, .cls-13, .cls-14, .cls-2, .cls-22, .cls-3, .cls-4, .cls-5, .cls-6, .cls-8 {
        stroke-linecap: round;
      }

      .cls-1, .cls-10, .cls-11, .cls-13, .cls-14, .cls-2, .cls-24, .cls-3, .cls-4, .cls-5, .cls-6, .cls-8 {
        stroke-linejoin: round;
      }

      .cls-1, .cls-10, .cls-11, .cls-13, .cls-14, .cls-16, .cls-2, .cls-22, .cls-24, .cls-25, .cls-3, .cls-33, .cls-39, .cls-4, .cls-5, .cls-6, .cls-7, .cls-8, .cls-9 {
        stroke-width: 3px;
      }

      .cls-2, .cls-38 {
        fill: #f25c66;
      }

      .cls-3 {
        fill: #338ed8;
      }

      .cls-31, .cls-4 {
        fill: #f5d965;
      }

      .cls-5 {
        fill: #33ab61;
      }

      .cls-16, .cls-22, .cls-33, .cls-6 {
        fill: none;
      }

      .cls-20, .cls-7 {
        fill: #d6d6d6;
      }

      .cls-16, .cls-22, .cls-25, .cls-33, .cls-7, .cls-9 {
        stroke-miterlimit: 10;
      }

      .cls-23, .cls-8 {
        fill: #adadad;
      }

      .cls-11, .cls-37, .cls-9 {
        fill: #858585;
      }

      .cls-10, .cls-24 {
        fill: #d6e9f7;
      }

      .cls-12, .cls-13 {
        fill: #00972c;
      }

      .cls-14, .cls-18 {
        fill: #b99e8a;
      }

      .cls-15 {
        fill: #009639;
      }

      .cls-17 {
        fill: #ffd126;
      }

      .cls-19, .cls-39 {
        fill: #8b5e3c;
      }

      .cls-21 {
        fill: #85cda0;
      }

      .cls-26 {
        fill: #fdf8e0;
      }

      .cls-28 {
        fill: #fabdc2;
      }

      .cls-29 {
        fill: #ef3340;
      }

      .cls-30 {
        fill: #f79da3;
      }

      .cls-32 {
        fill: #f3d03e;
      }

      .cls-33 {
        stroke: #ef3340;
      }

      .cls-34 {
        fill: #fff;
      }

      .cls-35 {
        fill: #333;
      }

      .cls-36 {
        fill: #ff303e;
      }
    </style>
  </defs>
  <title>Mõõdikud_skeemid_v11_puhas_expand</title>
  <g id="Layer_1" data-name="Layer 1">
    <g>
      <path class="cls-1" d="M1457.26,571c-10.85,6.43-17.12,16.68-14,22.9s14.46,6.06,25.32-.36,17.12-16.68,14-22.9S1468.12,564.59,1457.26,571Zm9.82,19.55c-7,4.11-14.34,4-16.49-.3s1.74-11.09,8.7-15.21,14.35-4,16.5.3S1474,586.44,1467.08,590.56Z"/>
      <g>
        <polygon class="cls-2" points="1152.85 146.4 1090.84 170.88 1128.37 84.4 1152.85 146.4"/>
        <polygon class="cls-3" points="1152.85 146.4 1214.85 121.93 1128.37 84.4 1152.85 146.4"/>
        <polygon class="cls-4" points="1152.85 146.4 1090.84 170.88 1196.56 257.15 1152.85 146.4"/>
        <polygon class="cls-5" points="1152.85 146.4 1214.85 121.93 1196.56 257.15 1152.85 146.4"/>
      </g>
      <path class="cls-6" d="M1455.26,579.36C1336.14,513.44,1304.67,478.16,1309,427c5.1-59.71-16.61-67.41-61-97.85-8.09-5.55-34-19.95-45.87-49.6a85.57,85.57,0,0,1-5.57-22.44"/>
      <polygon class="cls-5" points="1197.88 265.58 1177.75 264.16 1182.92 278.02 1197.88 265.58"/>
      <polygon class="cls-5" points="1197.88 265.58 1210.54 249.85 1217.17 263.08 1197.88 265.58"/>
      <polygon class="cls-4" points="1207.21 289.95 1187.07 288.53 1192.25 302.38 1207.21 289.95"/>
      <polygon class="cls-4" points="1207.21 289.95 1219.86 274.22 1226.5 287.45 1207.21 289.95"/>
      <polygon class="cls-2" points="1223.36 310.45 1203.23 309.03 1208.41 322.89 1223.36 310.45"/>
      <polygon class="cls-2" points="1223.36 310.45 1236.02 294.73 1242.65 307.95 1223.36 310.45"/>
    </g>
    <g>
      <rect class="cls-2" x="-399.48" y="163.62" width="537.31" height="515.12" transform="translate(-261.65 842.36) rotate(-180)"/>
      <polygon class="cls-7" points="-399.48 163.62 185.02 163.62 185.02 150.09 30.96 90.94 -399.48 90.94 -399.48 163.62"/>
      <rect class="cls-8" x="-399.48" y="678.74" width="537.31" height="76.42" transform="translate(-261.65 1433.9) rotate(-180)"/>
      <rect class="cls-9" x="-399.48" y="150.09" width="584.51" height="13.53" transform="translate(-214.46 313.71) rotate(-180)"/>
      <g>
        <g>
          <rect class="cls-10" x="-62.28" y="213.1" width="122.74" height="122.74" transform="translate(-1.82 548.95) rotate(-180)"/>
          <line class="cls-6" x1="19.55" y1="213.1" x2="19.55" y2="335.85"/>
          <line class="cls-6" x1="60.46" y1="246.49" x2="-62.28" y2="246.49"/>
        </g>
        <rect class="cls-9" x="-67.39" y="335.85" width="132.97" height="10.34" transform="translate(-1.82 682.03) rotate(-180)"/>
      </g>
      <g>
        <g>
          <rect class="cls-10" x="-62.28" y="414.29" width="122.74" height="122.74" transform="translate(-1.82 951.32) rotate(-180)"/>
          <line class="cls-6" x1="19.55" y1="414.29" x2="19.55" y2="537.03"/>
          <line class="cls-6" x1="60.46" y1="447.67" x2="-62.28" y2="447.67"/>
        </g>
        <rect class="cls-9" x="-67.39" y="537.03" width="132.97" height="10.34" transform="translate(-1.82 1084.4) rotate(-180)"/>
      </g>
      <line class="cls-6" x1="-11.96" y1="90.94" x2="73.02" y2="150.09"/>
      <rect class="cls-6" x="-88.75" y="191.05" width="175.68" height="411.01" transform="translate(-1.82 793.11) rotate(-180)"/>
      <rect class="cls-11" x="-30.65" y="709.67" width="80.65" height="45.49" transform="translate(19.34 1464.83) rotate(-180)"/>
    </g>
    <g>
      <path class="cls-12" d="M1870.08,723.44a28.76,28.76,0,0,1,4.33,31.45l-173.15.28c-7.32-9.35-4.38-17.83.07-24.1a21.58,21.58,0,0,1,20.19-8.67c-3.1-8.6-2.26-18.94,4.13-25.46a23.64,23.64,0,0,1,24.54-5.78c-.66-14.33,13.94-28.15,28.29-28.82s28,11.75,28.67,26.1c3.33-8.19,13.12-12.85,21.79-11.14s15.7,9.07,18,17.61.06,17.94-4.92,25.22C1852.45,716,1862.51,715.12,1870.08,723.44Z"/>
      <path class="cls-6" d="M1874.41,754.89a28.76,28.76,0,0,0-4.33-31.45c-7.57-8.32-17.63-7.41-28.1-3.31,5-7.28,7.18-16.67,4.92-25.22s-9.28-15.9-18-17.61-18.46,3-21.79,11.14c-.7-14.35-14.35-26.78-28.67-26.1s-29,14.49-28.29,28.82a23.64,23.64,0,0,0-24.54,5.78c-6.39,6.52-7.23,16.86-4.13,25.46a21.58,21.58,0,0,0-20.19,8.67c-4.45,6.27-7.39,14.75-.07,24.1Z"/>
    </g>
    <g>
      <path class="cls-13" d="M1689.6,755.16l-72.08-71.84,32.11-35.49c9-14.49,29-19.66,43.29-11.16s20.51,29.39,13.51,45.06c15.51-7.05,34.52,5,40.23,21.82s.7,36.57-8.46,51.61Z"/>
      <path class="cls-5" d="M1693.42,755.16c8-16.78,5.15-38.63-6.8-52.52s-27.85-12.37-44.38-5.52c7.89-12.18,11.35-27.87,7.78-42.14s-14.66-26.55-28.35-29.4-29.12,4.92-34.4,18.58c-1.08-23.94-22.63-44.69-45.25-43.57s-42.26,23.91-41.22,47.85c-13.65-4.91-29.81-.85-39.92,10s-13.65,28.07-8.75,42.43c-12-1.82-24.83,4-31.87,14.47s-11.66,24.16-.11,39.78Z"/>
      <path class="cls-6" d="M1499.42,698.63c2.64-12.25,10.1-23.54,20.72-29.15s24.31-4.89,33.63,2.91,13,22.68,7.55,33.82c12.13-9.88,31-9,42.19,2.06s13.56,33.86,5.15,47.39"/>
    </g>
    <polygon class="cls-11" points="333.1 777.14 325.68 777.14 158.8 777.14 158.8 755.16 -6 755.14 -6 802.14 355.59 802.14 363.01 802.14 1926 802.14 1926 777.14 333.1 777.14"/>
    <path class="cls-14" d="M1167.44,755.16h251.44v22H1128.82l4-5.15A44,44,0,0,1,1167.44,755.16Z"/>
    <path class="cls-14" d="M409.58,772l4,5.15h-260v-22H375A44,44,0,0,1,409.58,772Z"/>
    <g>
      <polygon class="cls-15" points="1926 755.16 1926 777.14 1418.93 777.14 1418.88 755.16 1926 755.16"/>
      <polygon class="cls-16" points="1418.88 755.16 1926 755.16 1926 777.14 1418.93 777.14 1418.88 755.16"/>
    </g>
    <g>
      <g>
        <path class="cls-17" d="M1180.29,425.61a32.76,32.76,0,1,1-46.33,0A32.75,32.75,0,0,1,1180.29,425.61Z"/>
        <path class="cls-6" d="M1180.29,471.93a32.76,32.76,0,1,1,0-46.32A32.75,32.75,0,0,1,1180.29,471.93Z"/>
      </g>
      <g>
        <ellipse class="cls-17" cx="1157.13" cy="448.77" rx="32.76" ry="16.84" transform="translate(21.59 949.65) rotate(-45)"/>
        <ellipse class="cls-6" cx="1157.13" cy="448.77" rx="32.76" ry="16.84" transform="translate(21.59 949.65) rotate(-45)"/>
      </g>
    </g>
    <g>
      <g>
        <path class="cls-18" d="M1319.34,525c1.65,4.81,1.9,9.8-.35,14.27l-8.47-1.5c.48-3.86-5.4-13.31-.33-22.06C1313.26,510.45,1317.88,520.76,1319.34,525Z"/>
        <path class="cls-19" d="M1290.52,653.7c.31,28.16,1.83,78,1.91,85.07-1.21.4-2.39.73-3.52,1a34.22,34.22,0,0,1-16.68.22,16.88,16.88,0,0,1-3.47-1.23c.52-29.43.3-34.67.82-64.09H1263c-.06,29.52,0,34.57-.08,64.1-1.48.33-2.92.6-4.29.81a51.51,51.51,0,0,1-16.11.13,24,24,0,0,1-4.06-.94c.89-35.15,2.33-49.81,3.23-85l6.44-.11Z"/>
        <path class="cls-20" d="M1288.91,739.78a21.58,21.58,0,0,1,5.19,15.49h-25.85c-.66-6.1.4-10.47,4-15.27A34.22,34.22,0,0,0,1288.91,739.78Z"/>
        <path d="M1285.19,560.76c0,6.1-1.2,12.62,5.4,21.32h0a9.67,9.67,0,0,1-4.11-1.07c-1-.92-1.9-1.22-2.37-2.87a1.58,1.58,0,0,0-2.25-1.09l-1,.53a32.31,32.31,0,0,1-4.09,1.71l-.08-.75a14.82,14.82,0,0,1-1.92-6.23l-.21-.21A21.43,21.43,0,0,0,1285.19,560.76Z"/>
        <path class="cls-18" d="M1274.74,572.32a14.82,14.82,0,0,0,1.92,6.23l.08.75a25.78,25.78,0,0,1-17.35,0l-.77-.65a13.61,13.61,0,0,0,2-6.15l0,0a17.58,17.58,0,0,0,6.39,1.24,18,18,0,0,0,7.47-1.61Z"/>
        <path d="M1275,553.87a1.9,1.9,0,1,1,1.9-1.91A1.9,1.9,0,0,1,1275,553.87Z"/>
        <path d="M1262.87,552a1.9,1.9,0,1,1-1.9-1.89A1.9,1.9,0,0,1,1262.87,552Z"/>
        <path class="cls-21" d="M1321.89,539.83s3.84,26.43-3.73,43.46c-6.37,14.35-13.07,19.5-27,19.69l2.06,50.72H1239.7l2.88-50.72c-25.17.5-35.29-55.18-35.29-55.18l2.69-1,8.32-3.24,2.31-.91c6.68,20.6,11.57,45.57,24.39,41.61a13.55,13.55,0,0,0,4.86-3.19c1-.9,1.9-1.18,2.37-2.82a1.57,1.57,0,0,1,2.25-1.09,30.88,30.88,0,0,0,4.91,2.22,25.78,25.78,0,0,0,17.35,0,32.31,32.31,0,0,0,4.09-1.71l1-.53a1.58,1.58,0,0,1,2.25,1.09c.47,1.65,1.36,2,2.37,2.87a9.67,9.67,0,0,0,4.11,1.07c13.16.18,16.33-34.1,17.37-44.75l2.56.46,8.47,1.5Z"/>
        <path d="M1248.52,560.8a22.91,22.91,0,0,0,12.15,11.68l0,0a13.61,13.61,0,0,1-2,6.15l.77.65a30.88,30.88,0,0,1-4.91-2.22,1.57,1.57,0,0,0-2.25,1.09c-.47,1.64-1.36,1.92-2.37,2.82a13.55,13.55,0,0,1-4.86,3.19C1250.62,569.94,1248.63,561.27,1248.52,560.8Z"/>
        <path class="cls-20" d="M1258.66,739.58c3.86,5,5,9.42,4.33,15.69h-25.71a21.47,21.47,0,0,1,5.27-15.56A51.51,51.51,0,0,0,1258.66,739.58Z"/>
        <path d="M1287.84,547.67a32.94,32.94,0,0,1-.17,3.32c-.06-.17-.14-.34-.22-.51a11.64,11.64,0,0,0-6.15-5.54c-4.65-1.92-10-.52-14.94-1.42-4.27-.78-8.41-7.67-10.8-11.28.28,3.45-.48,10.36-2.39,13.86-.27.4-.56.81-.86,1.19a14.17,14.17,0,0,1-1,1.09,1.29,1.29,0,0,1-.17.16,9,9,0,0,1-5.39,2.66c-.21-1.16-.53-2.33-.63-3.53-1.18-14.34,8.63-26.51,21.81-26a26,26,0,0,1,5.45.74C1283.44,525.13,1287.84,535.17,1287.84,547.67Z"/>
        <path class="cls-18" d="M1291.24,554.45a8.56,8.56,0,0,1-1.58,5,4.7,4.7,0,0,1-2,1.67,2.47,2.47,0,0,1-2.5-.33,21.43,21.43,0,0,1-10.66,11.35,18,18,0,0,1-7.47,1.61,17.58,17.58,0,0,1-6.39-1.24,22.91,22.91,0,0,1-12.15-11.68h0a2.49,2.49,0,0,1-2.5.32,4.61,4.61,0,0,1-2-1.66,8.45,8.45,0,0,1-1.58-5c0-1.32.5-2.82,1.77-3.32a1.88,1.88,0,0,1,1.54.05,9,9,0,0,0,5.39-2.66,1.29,1.29,0,0,0,.17-.16,12.07,12.07,0,0,0,1.2-1.31,5.82,5.82,0,0,0,.64-1c1.91-3.5,2.67-10.41,2.39-13.86,2.39,3.61,6.53,10.5,10.8,11.28,4.94.9,10.29-.5,14.94,1.42a11.64,11.64,0,0,1,6.15,5.54c.08.17.16.34.22.51a2.67,2.67,0,0,1,1.8.13C1290.74,551.62,1291.23,553.13,1291.24,554.45Zm-16.25-.58a1.9,1.9,0,1,0-1.89-1.91A1.9,1.9,0,0,0,1275,553.87Zm-14,0a1.9,1.9,0,1,0-1.9-1.91A1.9,1.9,0,0,0,1261,553.87Z"/>
        <path class="cls-18" d="M1207,534.54c3.77-28.55,13.47-.54,11.32,9l-8.32,3.24A16.31,16.31,0,0,1,1207,534.54Z"/>
      </g>
      <g>
        <path class="cls-6" d="M1310.52,537.8c.48-3.86-5.4-13.31-.33-22.06,3.07-5.29,7.69,5,9.15,9.29,1.65,4.81,1.9,9.8-.35,14.27"/>
        <path class="cls-6" d="M1274.53,572.11l.21.21a14.82,14.82,0,0,0,1.92,6.23l.08.75"/>
        <path class="cls-6" d="M1259.39,579.33l-.77-.65a13.61,13.61,0,0,0,2-6.15l0,0"/>
        <path class="cls-6" d="M1218.3,543.51c2.15-9.51-7.55-37.52-11.32-9a16.31,16.31,0,0,0,3,12.21"/>
        <path class="cls-6" d="M1242.55,739.71a21.47,21.47,0,0,0-5.27,15.56H1263c.67-6.27-.47-10.71-4.33-15.69"/>
        <path class="cls-6" d="M1288.91,739.78a21.58,21.58,0,0,1,5.19,15.49h-25.85c-.66-6.1.4-10.47,4-15.27"/>
        <path class="cls-6" d="M1241.72,653.81c-.9,35.15-2.34,49.81-3.23,85a24,24,0,0,0,4.06.94,51.51,51.51,0,0,0,16.11-.13c1.37-.21,2.81-.48,4.29-.81.07-29.53,0-34.58.08-64.1h6.55c-.52,29.42-.3,34.66-.82,64.09a16.88,16.88,0,0,0,3.47,1.23,34.22,34.22,0,0,0,16.68-.22c1.13-.28,2.31-.61,3.52-1-.08-7.1-1.6-56.91-1.91-85.07"/>
        <path class="cls-6" d="M1245.77,551.2c-.21-1.16-.53-2.33-.63-3.53-1.18-14.34,8.63-26.51,21.81-26a26,26,0,0,1,5.45.74c11,2.77,15.44,12.81,15.44,25.31a32.94,32.94,0,0,1-.17,3.32"/>
        <path class="cls-6" d="M1253.17,546.1c-.27.4-.56.81-.86,1.19a14.17,14.17,0,0,1-1,1.09"/>
        <path class="cls-6" d="M1251.33,548.38a12.07,12.07,0,0,0,1.2-1.31,5.82,5.82,0,0,0,.64-1c1.91-3.5,2.67-10.41,2.39-13.86,2.39,3.61,6.53,10.5,10.8,11.28,4.94.9,10.29-.5,14.94,1.42a11.64,11.64,0,0,1,6.15,5.54c.08.17.16.34.22.51a2.67,2.67,0,0,1,1.8.13c1.27.5,1.76,2,1.77,3.33a8.56,8.56,0,0,1-1.58,5,4.7,4.7,0,0,1-2,1.67,2.47,2.47,0,0,1-2.5-.33,21.43,21.43,0,0,1-10.66,11.35,18,18,0,0,1-7.47,1.61,17.58,17.58,0,0,1-6.39-1.24,22.91,22.91,0,0,1-12.15-11.68"/>
        <path class="cls-6" d="M1248.51,560.79a2.49,2.49,0,0,1-2.5.32,4.61,4.61,0,0,1-2-1.66,8.45,8.45,0,0,1-1.58-5c0-1.32.5-2.82,1.77-3.32a1.88,1.88,0,0,1,1.54.05,9,9,0,0,0,5.39-2.66"/>
        <path class="cls-6" d="M1210,546.75l-2.69,1s10.12,55.68,35.29,55.18l-2.88,50.72h53.48L1291.12,603c14-.19,20.67-5.34,27-19.69,7.57-17,3.73-43.46,3.73-43.46l-2.9-.53-8.47-1.5-2.56-.46c-1,10.65-4.21,44.93-17.37,44.75a9.67,9.67,0,0,1-4.11-1.07c-1-.92-1.9-1.22-2.37-2.87a1.58,1.58,0,0,0-2.25-1.09l-1,.53a32.31,32.31,0,0,1-4.09,1.71,25.78,25.78,0,0,1-17.35,0,30.88,30.88,0,0,1-4.91-2.22,1.57,1.57,0,0,0-2.25,1.09c-.47,1.64-1.36,1.92-2.37,2.82a13.55,13.55,0,0,1-4.86,3.19c-12.82,4-17.71-21-24.39-41.61l-2.31.91Z"/>
        <path class="cls-22" d="M1271.19,563.57a8.15,8.15,0,0,1-7.33,0"/>
        <path class="cls-6" d="M1248.51,560.79h0c.11.47,2.1,9.14-3.52,23.41"/>
        <path class="cls-6" d="M1285.19,560.76c0,6.1-1.2,12.62,5.4,21.32"/>
      </g>
    </g>
    <g>
      <g>
        <path class="cls-23" d="M661.51,668.6c-2,0-3.66-2.19-3.66-4.79v-14a5.6,5.6,0,0,1,1.17-3.49l5.19-6.3a3.23,3.23,0,0,1,2.5-1.29h25.56c2,0,3.67,2.14,3.67,4.78V657c0,2.18-1.18,4.12-2.81,4.64l-30.74,6.84,0,0A3,3,0,0,1,661.51,668.6Z"/>
        <path d="M692.27,640.23c1,0,2.17,1.34,2.17,3.28V657a3.34,3.34,0,0,1-1.71,3.2L662.12,667l-.11,0-.11,0a1.32,1.32,0,0,1-.39.06c-1,0-2.16-1.35-2.16-3.29v-14a4,4,0,0,1,.83-2.54l5.19-6.3a1.78,1.78,0,0,1,1.34-.74h25.56m0-3H666.71a4.76,4.76,0,0,0-3.66,1.84l-5.19,6.3a7,7,0,0,0-1.51,4.44v14c0,3.56,2.39,6.29,5.16,6.29a4.28,4.28,0,0,0,1.26-.19l30.75-6.84c2.3-.7,3.92-3.22,3.92-6.1V643.51c0-3.47-2.32-6.28-5.17-6.28Z"/>
      </g>
      <g>
        <path class="cls-23" d="M454,668.6a3,3,0,0,1-.83-.13l-.11,0-30.68-6.83c-1.63-.52-2.81-2.46-2.81-4.64V643.51c0-2.64,1.65-4.78,3.67-4.78h25.56a3.22,3.22,0,0,1,2.5,1.29l5.19,6.3a5.54,5.54,0,0,1,1.17,3.49v14a5.42,5.42,0,0,1-1.19,3.51A3.23,3.23,0,0,1,454,668.6Z"/>
        <path d="M448.76,640.23a1.78,1.78,0,0,1,1.34.74l5.19,6.3a4,4,0,0,1,.83,2.54v14c0,1.94-1.14,3.29-2.16,3.29a1.37,1.37,0,0,1-.39-.06l-.11,0-.11,0-30.61-6.81A3.34,3.34,0,0,1,421,657V643.51c0-1.94,1.15-3.28,2.17-3.28h25.56m0-3H423.2c-2.85,0-5.17,2.81-5.17,6.28V657c0,2.88,1.62,5.4,3.92,6.1l30.75,6.84a4.28,4.28,0,0,0,1.26.19c2.77,0,5.16-2.73,5.16-6.29v-14a7,7,0,0,0-1.51-4.44l-5.19-6.3a4.76,4.76,0,0,0-3.66-1.84Z"/>
      </g>
      <g>
        <rect x="444.19" y="737.34" width="38.09" height="38.09" rx="11.35"/>
        <path d="M470.92,738.84a9.87,9.87,0,0,1,9.86,9.85v15.38a9.87,9.87,0,0,1-9.86,9.86H455.54a9.86,9.86,0,0,1-9.85-9.86V748.69a9.86,9.86,0,0,1,9.85-9.85h15.38m0-3H455.54a12.85,12.85,0,0,0-12.85,12.85v15.38a12.85,12.85,0,0,0,12.85,12.86h15.38a12.86,12.86,0,0,0,12.86-12.86V748.69a12.85,12.85,0,0,0-12.86-12.85Z"/>
      </g>
      <g>
        <rect x="633.2" y="737.34" width="38.09" height="38.09" rx="11.35"/>
        <path d="M659.93,738.84a9.86,9.86,0,0,1,9.85,9.85v15.38a9.86,9.86,0,0,1-9.85,9.86H644.55a9.86,9.86,0,0,1-9.85-9.86V748.69a9.86,9.86,0,0,1,9.85-9.85h15.38m0-3H644.55a12.85,12.85,0,0,0-12.85,12.85v15.38a12.85,12.85,0,0,0,12.85,12.86h15.38a12.85,12.85,0,0,0,12.85-12.86V748.69a12.85,12.85,0,0,0-12.85-12.85Z"/>
      </g>
      <g>
        <path class="cls-23" d="M483.78,759h-31c-4.12,0-8.28,0-13.32,0-4.79,0-8-5.23-8-10.09,0-7.84-.31-17.41-.66-27.53-.39-11.5-.83-24.54-.83-36.92,0-6.34,16-29.67,22.16-38.12l.07-.1.06-.12c.21-.42,20.86-41.9,32.19-47.5,15.2-7.52,55.91-8.11,68-8.11l3.78,0v0h1.52s2,0,5.25,0c12.11,0,52.82.59,68,8.1,3.21,1.59,9.34,7.34,20.27,25.71,6.62,11.13,11.87,21.69,11.92,21.8l.06.11.07.11c6.17,8.45,22.16,31.78,22.16,38.12,0,12.31-.22,25.26-.42,36.69-.18,10.22-.34,19.87-.33,27.76a11.6,11.6,0,0,1-3.16,8,6.84,6.84,0,0,1-4.83,2.13Z"/>
        <path d="M552.46,592h2.28v.13l3-.06s2,0,5.22,0c12,0,52.45.58,67.36,8,9,4.46,25.8,35.31,31.51,46.83l.11.22.15.21c9.08,12.46,21.87,32.25,21.87,37.24,0,12.29-.22,25.23-.42,36.65-.18,10.23-.34,19.89-.33,27.8a10.06,10.06,0,0,1-2.72,6.9,5.25,5.25,0,0,1-3.77,1.69l-160.1,0H452.76c-4.12,0-8.27,0-13.32,0-3.83,0-6.49-4.53-6.49-8.59,0-7.86-.31-17.44-.66-27.58-.39-11.49-.83-24.51-.83-36.87,0-5,12.79-24.78,21.87-37.24l.15-.2.11-.23c5.71-11.51,22.49-42.37,31.52-46.83C500,592.54,540.43,592,552.46,592m0-3c-14.24,0-53.43.72-68.68,8.26-11.92,5.89-32.88,48.19-32.88,48.19s-22.44,30.78-22.44,39c0,23.17,1.51,47.63,1.49,64.44,0,5.64,3.85,11.59,9.48,11.6,5.05,0,9.21,0,13.33,0l31,0,193,0c5.64,0,9.49-6,9.49-11.6,0-16.82.75-41.28.75-64.44,0-8.22-22.44-39-22.44-39s-21-42.29-32.87-48.18C616.44,589.71,577.25,589,563,589c-3.31,0-5.27,0-5.27,0v0s-2,0-5.28,0Z"/>
      </g>
      <path class="cls-24" d="M557.74,661.84H657s-20.68-47.75-30.33-52.51c-15.21-7.53-68.89-6.7-68.89-6.7v0s-53.69-.83-68.9,6.7c-9.64,4.76-30.33,52.51-30.33,52.51l99.23,0Z"/>
      <path class="cls-25" d="M582.39,661.88c0-9.08,9.2-16.44,20.54-16.44s20.55,7.36,20.55,16.44Z"/>
      <g>
        <path class="cls-26" d="M473.76,718.32a23.82,23.82,0,0,1-2.53-.13c-6.4-.7-13.82-4.18-19.38-9.09-3.52-3.11-9.29-9.49-8.46-17.22C444.6,680.7,459.12,679,467.67,679a73.32,73.32,0,0,1,7.76.42c7.35.8,12.66,2.47,16.21,5.12,4.06,3,5.73,7.29,5.1,13.08A23.09,23.09,0,0,1,473.76,718.32Z"/>
        <path d="M467.67,677.54v3h0a73,73,0,0,1,7.6.41c7,.76,12.19,2.38,15.48,4.83,3.64,2.71,5.08,6.43,4.5,11.72a21.59,21.59,0,0,1-21.49,19.32,20.91,20.91,0,0,1-2.37-.13c-6.1-.66-13.21-4-18.54-8.71-5.62-5-8.52-10.78-8-15.94.43-4,2.75-6.85,7.1-8.81,3.89-1.76,9.32-2.69,15.68-2.69v-3m0,0c-12,0-24.57,3.15-25.77,14.18-1.46,13.54,15.63,26.49,29.17,28a24.36,24.36,0,0,0,2.69.14,24.66,24.66,0,0,0,24.48-22c1.46-13.53-9.11-18.38-22.65-19.85a74.66,74.66,0,0,0-7.92-.43Z"/>
      </g>
      <g>
        <path class="cls-27" d="M452.39,709.55l-.54-.45c-3.52-3.11-9.29-9.49-8.46-17.22,1-8.86,9.84-11.43,15.37-12.17-.43.92-1.29,2.35-2,3.47-2,3.25-4.41,7.29-4.94,11.14a46.12,46.12,0,0,0,.24,10.39A40.83,40.83,0,0,1,452.39,709.55Z"/>
        <path d="M455.89,681.76l-.38.65c-2,3.36-4.57,7.54-5.15,11.7a47.91,47.91,0,0,0,.23,10.74c0,.33.07.69.11,1-4.2-4.46-6.3-9.4-5.81-13.85.69-6.39,6.23-9.12,11-10.28m3.58-3.63-.45,0c-8.8,1.06-16.21,5.21-17.12,13.56-.73,6.77,3.18,13.39,9,18.5a3.71,3.71,0,0,0,2.06,1.19c2.43,0-.55-10,.41-16.89,1-7.4,10.23-16.39,6.14-16.39Z"/>
      </g>
      <g>
        <path class="cls-26" d="M641.71,718.32a23.09,23.09,0,0,1-23-20.66c-.63-5.79,1-10.07,5.1-13.08,3.55-2.65,8.86-4.32,16.21-5.12a73.32,73.32,0,0,1,7.76-.42c8.55,0,23.07,1.66,24.28,12.84.84,7.73-4.94,14.11-8.46,17.22-5.56,4.91-13,8.39-19.38,9.09a23.77,23.77,0,0,1-2.52.13Z"/>
        <path d="M647.8,680.54c6.37,0,11.79.93,15.69,2.69,4.34,2,6.67,4.85,7.1,8.81.55,5.16-2.35,11-8,15.94-5.33,4.71-12.44,8-18.54,8.71a20.87,20.87,0,0,1-2.36.13,21.59,21.59,0,0,1-21.5-19.32c-.72-6.62.9-14.48,20-16.55a72.64,72.64,0,0,1,7.59-.41m0-3a74.66,74.66,0,0,0-7.92.43c-13.53,1.47-24.11,6.32-22.64,19.85a24.64,24.64,0,0,0,24.48,22,24.31,24.31,0,0,0,2.68-.14c13.54-1.47,30.64-14.42,29.17-28-1.2-11-13.81-14.18-25.77-14.18Z"/>
      </g>
      <g>
        <path class="cls-27" d="M663.08,709.55a40.83,40.83,0,0,1,.3-4.84,46.71,46.71,0,0,0,.25-10.39c-.54-3.85-3-7.89-5-11.14-.68-1.12-1.54-2.55-2-3.47,5.52.74,14.4,3.31,15.36,12.17.84,7.73-4.94,14.11-8.46,17.22C663.41,709.29,663.23,709.43,663.08,709.55Z"/>
        <path d="M659.58,681.76c4.77,1.16,10.31,3.88,11,10.28.48,4.45-1.62,9.39-5.81,13.85,0-.35.06-.71.1-1a47.91,47.91,0,0,0,.23-10.74c-.58-4.16-3.11-8.34-5.14-11.7l-.39-.65M656,678.13c-4.09,0,5.11,9,6.14,16.39,1,6.93-2,16.89.41,16.89a3.71,3.71,0,0,0,2.06-1.19c5.78-5.11,9.69-11.73,9-18.5-.91-8.35-8.32-12.5-17.12-13.56l-.45,0Z"/>
      </g>
      <path class="cls-9" d="M557.74,736.35H591c6.8,0,12.31-7,12.31-15.51h0c0-8.56-5.51-15.5-12.31-15.5h-33.3v-.07H524.43c-6.8,0-12.31,6.94-12.31,15.5h0c0,8.56,5.51,15.5,12.31,15.5h33.31Z"/>
      <line class="cls-6" x1="512.12" y1="720.77" x2="603.35" y2="720.77"/>
      <line class="cls-6" x1="514.17" y1="712.2" x2="600.98" y2="712.2"/>
      <line class="cls-6" x1="513.65" y1="728.27" x2="601.78" y2="728.27"/>
      <line class="cls-16" x1="429.95" y1="748.85" x2="686.26" y2="748.85"/>
    </g>
    <g>
      <g>
        <path class="cls-28" d="M1018.79,517.38c-10.37,3.59-16.64,14.52-15.87,25.25a29.79,29.79,0,0,0,8.29,18.13c2.49,2.66,5.33,5.38,4.64,9.34a11.94,11.94,0,0,1-.76,2.47l.11-.08c1.34,5.15,9,6.59,13.27,7.24,4.44.67,7.47-1.21,10.54,1.78h0c-1.7-4.25-3-8-2.76-9.06.45-1.89,1.4-2.63,3.28-3a28.7,28.7,0,0,0,6.22-1.74,13.14,13.14,0,0,0,5.26-5.47c1.15-2.32,1.2-4.75,1.52-7.26a6.41,6.41,0,0,1,1.23-3.49c.74-.91,1.85-1.46,2.43-2.51,1.32-2.36-.84-3.62-2.51-4.77s-3.8-6.48-5.77-11.28c-1.39.38-2.85.76-4.37,1.16l-9.56,2.18-4.56,1.05c-.24,3.66,1.75,6.46-.48,10.2-1.56,2.61-3.1,6.13-12.92,9.23-3.69,1.17-8.4,3.14-12.2-9.67a23.64,23.64,0,0,1,.57-13.77,22.65,22.65,0,0,1,12.15-14.93,23.42,23.42,0,0,1,5.69-1.92A22.88,22.88,0,0,0,1018.79,517.38Zm23,23.57a2,2,0,1,1,2,1.9A2,2,0,0,1,1041.82,541Z"/>
        <path class="cls-19" d="M1004.41,533.32a23.64,23.64,0,0,0-.57,13.77c3.8,12.81,8.51,10.84,12.2,9.67,9.82-3.1,11.36-6.62,12.92-9.23,2.23-3.74.24-6.54.48-10.2l-25.2,5.75A22.29,22.29,0,0,1,1004.41,533.32Z"/>
        <path d="M1043.72,538.91a2,2,0,1,0,2,1.9A2,2,0,0,0,1043.72,538.91Z"/>
        <path class="cls-29" d="M1063.6,519.46,1043.49,524l0,0a22.14,22.14,0,0,0-8.1-6,20.58,20.58,0,0,0-5.85-1.7l-.23,0a21,21,0,0,0-5.54,0l-.32,0c-.32.05-.62.09-.92.15l-.25,0a23.42,23.42,0,0,0-5.69,1.92,22.65,22.65,0,0,0-12.15,14.93,22.29,22.29,0,0,0-.17,9.76l25.2-5.75,4.56-1.05,9.56-2.18c1.52-.4,3-.78,4.37-1.16.15,0,.29-.07.43-.12l.49-.13C1058.81,529.92,1064.75,527.3,1063.6,519.46Z"/>
        <path class="cls-30" d="M1012.17,754.92c.48,2.08.85,3.46,1,3.84l0,0s0,0,0,0,4.11,4.64,13.73,2.06l.45-.12.08-.19,0-.59.12-5.34A126.12,126.12,0,0,1,1012.17,754.92Z"/>
        <path class="cls-31" d="M1024,661.91c-5.81,0-15.32-.66-19.08-.91a29.83,29.83,0,0,0-1,7.21c0,5.25,1.26,34,2.29,56.94.74,16.21,1.37,29.48,1.37,29.48,1.27.12,2.84.22,4.61.29a126.12,126.12,0,0,0,15.4-.39l1.39-.13a59.73,59.73,0,0,0,7.62-1.29l.1-4,2.12-87.69C1034.48,661.67,1028.91,662,1024,661.91Z"/>
        <path class="cls-20" d="M1029,759.88a2.55,2.55,0,0,1-.51-1.16h0a4,4,0,0,0-1,1.14l0,.59-.08.19c.35-.1.7-.2,1.07-.33h0a1.42,1.42,0,0,0,.29.09l1.13.28A3.22,3.22,0,0,1,1029,759.88Z"/>
        <path class="cls-30" d="M1029,754.4c.25,3,.4,4.87.4,4.87s-.15.23-.37.61a3.22,3.22,0,0,0,.86.81l3.5.86a18.41,18.41,0,0,0,5-.81l.18-.28,1-10.48h-2.24l.09-1.29-.67.39-.1,4A59.73,59.73,0,0,1,1029,754.4Z"/>
        <path class="cls-29" d="M1047.73,639.43a136.61,136.61,0,0,0,13.86-6.12l-1.43-7.48-.69-3.63,0-.22s-5.78,1.51-11.79,3l-.18-.71c-.07-2.82-.14-6.06-.18-8.95,0-2.52-.06-4.8,0-6.35.06-6.89-3.26-22.62-8.19-27.49h0c-3.07-3-6.1-1.11-10.54-1.78-4.24-.65-11.93-2.09-13.27-7.24l-.11.08c-4.45,2.71-7.12,11.24-9.38,19.6-3.47,12.94-2.42,68.71-2.42,68.71l1.62.12c3.76.25,13.27.88,19.08.91,4.92,0,10.49-.24,14.81-.52,1.86-.12,3.49-.24,4.75-.34l.87-.08,1.78-.14c1.39-3.82,1.65-11.24,1.55-21.35Z"/>
        <path class="cls-20" d="M1049.88,766.7a89.06,89.06,0,0,0-13-4.22c-1.26-.34-2.48-.64-3.57-.93l-3.5-.86-1.13-.28a1.42,1.42,0,0,1-.29-.09h0c-.37.13-.72.23-1.07.33l-.45.12c-9.62,2.58-13.73-2.06-13.73-2.06s0,0,0,0l0,0c-2.83,2.14-5.6,12.77-1.41,18.34h40.47S1055.73,769.51,1049.88,766.7Z"/>
        <path class="cls-28" d="M1047.27,615.36c0,2.89.11,6.13.18,8.95l.18.71c6-1.53,11.79-3,11.79-3l0,.22h.06c5.28-2.5,5-6,11.3-8.21-.2-4-3.8-7.56-13.07-7.62-6.31,0-7.74,8-9.55,8.74A4.06,4.06,0,0,1,1047.27,615.36Z"/>
        <path class="cls-32" d="M1043.55,661.05c-1.26.1-2.89.22-4.75.34l-2.12,87.69.67-.39-.09,1.29h3.25a2.12,2.12,0,0,0,2.12-2.09l1.79-86.92Z"/>
        <path class="cls-20" d="M1059.19,766.7c-7.36-3.55-20.8-7-19.46-6.38-.48.16-1,.3-1.39.42a18.41,18.41,0,0,1-5,.81c1.09.29,2.31.59,3.57.93a89.06,89.06,0,0,1,13,4.22c5.85,2.81,2.31,10.4,2.31,10.4h9.3S1065,769.51,1059.19,766.7Z"/>
        <path class="cls-28" d="M1085.79,621.08c7.7-3.42,1.78-11.68-13.41-7.56-.56.15-1.07.3-1.55.47-6.27,2.19-6,5.71-11.3,8.21h-.06l.69,3.63,1.43,7.48.15.09a48.8,48.8,0,0,1,8.06-.6c19.18.29,9.8-3.55,15-5.88C1089.82,624.7,1083.47,622.1,1085.79,621.08Z"/>
      </g>
      <g>
        <path class="cls-6" d="M1038.34,760.74l.18-.28,1-10.48"/>
        <path class="cls-6" d="M1029,754.4c.25,3,.4,4.87.4,4.87s-.15.23-.37.61"/>
        <path class="cls-6" d="M1029.85,760.69a3.22,3.22,0,0,1-.86-.81,2.55,2.55,0,0,1-.51-1.16h0a4,4,0,0,0-1,1.14"/>
        <path class="cls-6" d="M1039.74,760.33h0c-.48.16-1,.3-1.39.42a18.41,18.41,0,0,1-5,.81"/>
        <path class="cls-6" d="M1052.19,777.1h9.3s3.55-7.6-2.3-10.41c-7.36-3.54-20.8-7-19.46-6.38"/>
        <path class="cls-6" d="M1027.57,754.53l-.12,5.34,0,.59-.08.19"/>
        <path class="cls-6" d="M1013.13,758.76c-.11-.38-.48-1.76-1-3.84"/>
        <path class="cls-6" d="M1026.9,760.77c-9.62,2.58-13.73-2.06-13.73-2.06s0,0,0,0l0,0c-2.83,2.14-5.6,12.77-1.41,18.34h40.47s3.54-7.59-2.31-10.4a89.06,89.06,0,0,0-13-4.22c-1.26-.34-2.48-.64-3.57-.93l-3.5-.86-1.13-.28a1.42,1.42,0,0,1-.29-.09h0c-.37.13-.72.23-1.07.33Z"/>
        <path class="cls-6" d="M1004.91,661a29.83,29.83,0,0,0-1,7.21c0,5.25,1.26,34,2.29,56.94.74,16.21,1.37,29.48,1.37,29.48"/>
        <path class="cls-6" d="M1007.56,754.63c1.27.12,2.84.22,4.61.29a126.12,126.12,0,0,0,15.4-.39l1.39-.13a59.73,59.73,0,0,0,7.62-1.29l.1-4,2.12-87.69"/>
        <path class="cls-6" d="M1039,581.52c-1.7-4.25-3-8-2.76-9.06.45-1.89,1.4-2.63,3.28-3a28.7,28.7,0,0,0,6.22-1.74,13.14,13.14,0,0,0,5.26-5.47c1.15-2.32,1.2-4.75,1.52-7.26a6.41,6.41,0,0,1,1.23-3.49c.74-.91,1.85-1.46,2.43-2.51,1.32-2.36-.84-3.62-2.51-4.77s-3.8-6.48-5.77-11.28"/>
        <path class="cls-6" d="M1022.25,516.47a22.88,22.88,0,0,0-3.46.91c-10.37,3.59-16.64,14.52-15.87,25.25a29.79,29.79,0,0,0,8.29,18.13c2.49,2.66,5.33,5.38,4.64,9.34a11.94,11.94,0,0,1-.76,2.47"/>
        <path class="cls-6" d="M1023.42,516.28c-.32.05-.62.09-.92.15"/>
        <path class="cls-6" d="M1070.83,614c-.2-4-3.8-7.56-13.07-7.62-6.31,0-7.74,8-9.55,8.74a4.06,4.06,0,0,1-.94.25"/>
        <path class="cls-6" d="M1043.55,661.05c-1.26.1-2.89.22-4.75.34-4.32.28-9.89.56-14.81.52-5.81,0-15.32-.66-19.08-.91l-1.62-.12s-1-55.77,2.42-68.71c2.26-8.36,4.93-16.89,9.38-19.6l.11-.08c1.34,5.15,9,6.59,13.27,7.24,4.44.67,7.47-1.21,10.54,1.78h0c4.93,4.87,8.25,20.6,8.19,27.49,0,1.55,0,3.83,0,6.35,0,2.89.11,6.13.18,8.95"/>
        <path class="cls-6" d="M1047.75,639.48c.1,10.11-.16,17.53-1.55,21.35l-1.78.14"/>
        <path class="cls-6" d="M1029.44,537.33c-.24,3.66,1.75,6.46-.48,10.2-1.56,2.61-3.1,6.13-12.92,9.23-3.69,1.17-8.4,3.14-12.2-9.67a23.64,23.64,0,0,1,.57-13.77"/>
        <path class="cls-6" d="M1004.24,543.08l25.2-5.75,4.56-1.05,9.56-2.18c1.52-.4,3-.78,4.37-1.16.15,0,.29-.07.43-.12l.49-.13c10-2.77,15.9-5.39,14.75-13.23L1043.49,524s0,0,0,0c-1.74,4.35-5.93,8.94-9.5,12.09"/>
        <path class="cls-6" d="M1023.74,516.24a21,21,0,0,1,5.54,0l.23,0a20.54,20.54,0,0,1,3.08.72,23.89,23.89,0,0,1,10.4,7.07"/>
        <path class="cls-6" d="M1004.24,543.08a22.29,22.29,0,0,1,.17-9.76,22.65,22.65,0,0,1,12.15-14.93,23.42,23.42,0,0,1,5.69-1.92l.25,0c.3-.06.6-.1.92-.15"/>
        <path class="cls-6" d="M1061.74,633.4a48.8,48.8,0,0,1,8.06-.6c19.18.29,9.8-3.55,15-5.88,5-2.22-1.37-4.82,1-5.84,7.7-3.42,1.78-11.68-13.41-7.56-.56.15-1.07.3-1.55.47-6.27,2.19-6,5.71-11.3,8.21"/>
        <path class="cls-6" d="M1055.15,614.49a10.34,10.34,0,0,1,6.44-4.46,9.12,9.12,0,0,1,3.44,0"/>
        <path class="cls-6" d="M1070.07,616.78a1.29,1.29,0,0,0,.32.3c1.74,1.13,5.13-3.51,11.47-2.06"/>
        <path class="cls-6" d="M1044.42,660.89V661l-1.79,86.92a2.12,2.12,0,0,1-2.12,2.09h-3.25"/>
        <path class="cls-6" d="M1018.92,594.14s-6.19,25.26-7.32,31.34c-1.84,9.83.53,17.66,14.16,18.33,7,.36,15.13-1.84,22-4.38a136.61,136.61,0,0,0,13.86-6.12l-1.43-7.48-.69-3.63,0-.22s-5.78,1.51-11.79,3c-2.24.57-4.5,1.15-6.51,1.64-2.35.58-4.35,1.06-5.53,1.32-5.33,1.17-8.84-.5-6.16-7.83a170.64,170.64,0,0,0,4.83-16.84"/>
      </g>
    </g>
    <g>
      <rect class="cls-11" x="342.11" y="507.17" width="12.15" height="248.13"/>
      <g>
        <path class="cls-29" d="M348.6,387.29A73.65,73.65,0,1,1,275,460.94,73.65,73.65,0,0,1,348.6,387.29Z"/>
        <path class="cls-33" d="M422.25,460.94a73.64,73.64,0,1,1-73.65-73.65A73.65,73.65,0,0,1,422.25,460.94Z"/>
      </g>
      <g>
        <circle class="cls-34" cx="348.6" cy="460.94" r="63.22"/>
        <circle class="cls-33" cx="348.6" cy="460.94" r="63.22"/>
      </g>
      <g>
        <path class="cls-35" d="M327,455.37c5.38.26,9.73,1.88,13.06,4.95a16.28,16.28,0,0,1,5,12.38c0,9.81-7.86,19.29-21.86,19.29-7.93,0-14.25-2.05-22.36-7.51l5.55-8.11c6.83,4.18,11.1,5.8,16.47,5.8,6.75,0,10.67-3.67,10.67-9.39s-4.52-9.13-11.26-9.13a19,19,0,0,0-6.92,1.11l-5-6.91,18.6-15.8H303.84V432.5h39v9.38Z"/>
        <path class="cls-35" d="M391.5,442.23c2.64,5.2,4,11.69,4,19.29s-1.37,14.08-4,19.29c-3.76,7.17-10,11.18-18.61,11.18s-14.85-4-18.61-11.18c-2.64-5.21-4-11.7-4-19.29s1.37-14.09,4-19.29c3.76-7.17,10-11.19,18.61-11.19S387.74,435.06,391.5,442.23Zm-27.06,4.61c-1.62,3.66-2.47,8.53-2.47,14.68s.85,11,2.47,14.68c1.79,4,4.61,6,8.45,6s6.66-2,8.45-6c1.62-3.67,2.48-8.54,2.48-14.68s-.86-11-2.48-14.68c-1.79-4-4.61-6-8.45-6S366.23,442.82,364.44,446.84Z"/>
      </g>
    </g>
    <g>
      <path class="cls-12" d="M1331.25,167.6c8.24,5.93,13.9,16.46,15.13,28.69a28.85,28.85,0,0,1-28.18-2.3c-8.24-5.62-13.55-16.87-15.38-28.77A27.91,27.91,0,0,1,1331.25,167.6Z"/>
      <path class="cls-6" d="M1302.82,165.22a27.91,27.91,0,0,1,28.43,2.38c8.24,5.93,13.9,16.46,15.13,28.69a28.85,28.85,0,0,1-28.18-2.3C1310,188.37,1304.65,177.12,1302.82,165.22Z"/>
    </g>
    <g>
      <g>
        <path class="cls-28" d="M1469.14,581.9c-3.82,3.44-7.51,5.86-5.89,8.22s4.06,6.84,9,7.67,8.75,1.58,11.27,3.68c.35-3.41,1.57-6.14,2.84-9.41a.09.09,0,0,1,0,0s-4.87-2.43-6.45-4.41S1474.66,580.18,1469.14,581.9Z"/>
        <path class="cls-36" d="M1534.24,619.31l.09.39c-2.3,14.57-7.57,10.74-4.07,59h44.64c0-14.79.11-29.23-.4-42.1-.69-17.32-2.5-31.79-7.25-40.44-3-5.53-7.23-8.68-13.1-8.68-9.14,0-15,7.45-24.64,10.89-.41.15-.82.29-1.25.42-16.94,5.27-26.39-2.88-41.18-8.84-.24.7-.49,1.37-.74,2a.09.09,0,0,0,0,0l-2.84,9.41a18.13,18.13,0,0,0-.09,2.69C1494.16,611.55,1513,623.2,1534.24,619.31Z"/>
        <path class="cls-28" d="M1516.19,558.89c-1.62,1.28-3.76,2.71-2.16,4.88.7,1,1.91,1.41,2.76,2.22a6.16,6.16,0,0,1,1.61,3.29c.56,2.41.85,4.77,2.27,6.92a13.51,13.51,0,0,0,6,4.87,13.8,13.8,0,0,0,4.35,1.06,3.83,3.83,0,0,1,3.13,1.49l.5.61c4.4-3.17,12.18-7.14,23.72-7.28v-.65l-.15-.07a6.52,6.52,0,0,1-4.59-2.21,5.77,5.77,0,0,1-1.74-5.29c.55-2.5,3-4.48,3.09-7a4.26,4.26,0,0,0-1.92-3.63,5,5,0,0,0-4.29-.49c-1.5.55-2.6,1.8-4.07,2.42a5.31,5.31,0,0,1-5.22-.66,4.4,4.4,0,0,1-1.51-4.69c.49-1.51,1.84-2.87,1.53-4.41a3.19,3.19,0,0,0-2-2.12,9.44,9.44,0,0,0-3-.6,32.71,32.71,0,0,1-6.87-1c-2.21-.69-4.17-1.7-5.07-3.7l-.12-.05c-.12.23-.23.47-.35.7a36.34,36.34,0,0,0-2.6,7.85C1518.9,554,1518.56,557,1516.19,558.89Zm8.53-1.93a1.82,1.82,0,1,1,1.89-1.76A1.82,1.82,0,0,1,1524.72,557Z"/>
        <path class="cls-19" d="M1522.41,542.79l.12.05c.9,2,2.86,3,5.07,3.7a32.71,32.71,0,0,0,6.87,1,9.44,9.44,0,0,1,3,.6,3.19,3.19,0,0,1,2,2.12c.31,1.54-1,2.9-1.53,4.41a4.4,4.4,0,0,0,1.51,4.69,5.31,5.31,0,0,0,5.22.66c1.47-.62,2.57-1.87,4.07-2.42a5,5,0,0,1,4.29.49,4.26,4.26,0,0,1,1.92,3.63c-.09,2.55-2.54,4.53-3.09,7a5.77,5.77,0,0,0,1.74,5.29,6.52,6.52,0,0,0,4.59,2.21l.15.07a23.86,23.86,0,0,1,3.59-5.06,27.81,27.81,0,0,0,6.91-18.37,23.59,23.59,0,0,0-1.18-6.88,25.09,25.09,0,0,0-7.65-11.26,24.34,24.34,0,0,0-10-5,24.71,24.71,0,0,0-17.18,2.06A25.38,25.38,0,0,0,1522.41,542.79Z"/>
        <path d="M1523,555.07a1.82,1.82,0,1,0,1.89-1.75A1.82,1.82,0,0,0,1523,555.07Z"/>
        <path class="cls-31" d="M1533,745.74c-7.72,3.22-9.27,5.42-8.08,9.53h36.17a12.81,12.81,0,0,0,.19-7.56c-1.13-4.3-1.46-5.33-1.46-8l-.39,0a30.77,30.77,0,0,1-15.55-.11S1540.73,742.52,1533,745.74Z"/>
        <path class="cls-31" d="M1530.25,588.14a28.46,28.46,0,0,0-.93,9.84l.19.43c9.62-3.44,15.5-10.89,24.64-10.89,5.87,0,10.09,3.15,13.1,8.68l.13-.07a20.28,20.28,0,0,1-1.13-2.32c1.43-10.75-4.91-16.83-4.91-16.83-1,0-2-.06-3,0-11.54.14-19.32,4.11-23.72,7.28A24.05,24.05,0,0,0,1530.25,588.14Z"/>
        <path class="cls-37" d="M1565.25,678.74h-29v.2l4.82,60.13a58,58,0,0,0,18.38.66l.39-.11v.07a36.55,36.55,0,0,0,3.66-.62l4.82-60.33Z"/>
        <path class="cls-19" d="M1560.51,534.24l-.49.49a25.09,25.09,0,0,1,7.65,11.26l.25-.07a13.92,13.92,0,0,0,2.06.58c6.42,1.28,12.72-2.56,14.07-8.56s-2.74-11.89-9.15-13.16A12.07,12.07,0,0,0,1560.51,534.24Z"/>
        <path class="cls-31" d="M1567.38,596.13l-.13.07c4.75,8.65,6.56,23.12,7.25,40.44,15.73,12.37,38.34,14.25,38.34,14.25,3.58-9.17,4.92-24.07,4.92-24.07C1583.36,619.91,1570.86,602.44,1567.38,596.13Z"/>
        <path d="M1613.42,651.55a1.43,1.43,0,0,1-.53.76l1.14.2c.81.14,1.65.28,2.37.37a.39.39,0,0,0,.15,0,1.11,1.11,0,0,0,.13-2.21c-.67-.08-1.47-.22-2.26-.36l-.62-.09C1613.68,650.67,1613.54,651.1,1613.42,651.55Z"/>
        <path d="M1614.89,646.23c-.17.72-.36,1.43-.56,2.15.34,0,.66.11,1,.18l2.1.42.24,0a1.1,1.1,0,0,0,.22-2.19c-.76-.17-1.45-.29-2.12-.42Z"/>
        <path d="M1615.84,642.38c-.16.71-.33,1.43-.51,2.14l3.33.78a1.11,1.11,0,1,0,.51-2.16Z"/>
        <path d="M1616.68,638.5c-.15.72-.3,1.45-.45,2.16a22.77,22.77,0,0,0,3.49.62h.1a1.1,1.1,0,0,0,.1-2.2A19.16,19.16,0,0,1,1616.68,638.5Z"/>
        <path d="M1617.41,634.68l-.39,2.17,2.9.71.27,0a1.13,1.13,0,0,0,1.09-.84,1.12,1.12,0,0,0-.83-1.34Z"/>
        <path d="M1618.1,630.54c-.12.74-.23,1.47-.35,2.19l3,.6.21,0a1.11,1.11,0,0,0,.23-2.19Z"/>
        <path d="M1618.31,625.79l0,.08a.3.3,0,0,1,.06.11.94.94,0,0,1,.12.22v0a.6.6,0,0,1,.06.22,2.46,2.46,0,0,1,0,.26,1.09,1.09,0,0,1,0,.18s0,.07,0,.11c0,.37-.1.72-.15,1.07a23.11,23.11,0,0,0,2.46.35h.12a1.1,1.1,0,0,0,.1-2.2A24.29,24.29,0,0,1,1618.31,625.79Z"/>
      </g>
      <g>
        <path class="cls-6" d="M1536.23,678.94l4.82,60.13a58,58,0,0,0,18.38.66l.39,0a36.55,36.55,0,0,0,3.66-.62l4.82-60.33"/>
        <line class="cls-6" x1="1565.25" y1="678.74" x2="1539.29" y2="678.94"/>
        <path class="cls-6" d="M1559.82,739.69v-.07l-.39.11a30.77,30.77,0,0,1-15.55-.11s-3.15,2.9-10.88,6.12-9.27,5.42-8.08,9.53h36.17a12.81,12.81,0,0,0,.19-7.56C1560.15,743.41,1559.82,742.38,1559.82,739.69Z"/>
        <path class="cls-6" d="M1486.33,592.06c-1.27,3.27-2.49,6-2.84,9.41a18.13,18.13,0,0,0-.09,2.69c10.76,7.39,29.56,19,50.84,15.15a51.21,51.21,0,0,0,18.39-7.37"/>
        <path class="cls-6" d="M1534.33,619.7c-2.3,14.57-7.57,10.74-4.07,59h44.64c0-14.79.11-29.23-.4-42.1-.69-17.32-2.5-31.79-7.25-40.44-3-5.53-7.23-8.68-13.1-8.68-9.14,0-15,7.45-24.64,10.89-.41.15-.82.29-1.25.42-16.94,5.27-26.39-2.88-41.18-8.84-.24.7-.49,1.37-.74,2"/>
        <path class="cls-6" d="M1486.34,592s-4.87-2.43-6.45-4.41-5.23-7.42-10.75-5.7c-3.82,3.44-7.51,5.86-5.89,8.22s4.06,6.84,9,7.67,8.75,1.58,11.27,3.68l2.84-9.41A.09.09,0,0,1,1486.34,592Z"/>
        <path class="cls-6" d="M1534.14,583.62a3.83,3.83,0,0,0-3.13-1.49,13.8,13.8,0,0,1-4.35-1.06,13.51,13.51,0,0,1-6-4.87c-1.42-2.15-1.71-4.51-2.27-6.92a6.16,6.16,0,0,0-1.61-3.29c-.85-.81-2.06-1.26-2.76-2.22-1.6-2.17.54-3.6,2.16-4.88,2.37-1.85,2.71-4.89,3.27-7.55a36.34,36.34,0,0,1,2.6-7.85c.12-.23.23-.47.35-.7a25.38,25.38,0,0,1,10.38-11A24.71,24.71,0,0,1,1550,529.7a24.34,24.34,0,0,1,10,5,25.09,25.09,0,0,1,7.65,11.26,23.59,23.59,0,0,1,1.18,6.88,27.81,27.81,0,0,1-6.91,18.37,23.86,23.86,0,0,0-3.59,5.06"/>
        <path class="cls-6" d="M1522.53,542.84c.9,2,2.86,3,5.07,3.7a32.71,32.71,0,0,0,6.87,1,9.44,9.44,0,0,1,3,.6,3.19,3.19,0,0,1,2,2.12c.31,1.54-1,2.9-1.53,4.41a4.4,4.4,0,0,0,1.51,4.69,5.31,5.31,0,0,0,5.22.66c1.47-.62,2.57-1.87,4.07-2.42a5,5,0,0,1,4.29.49,4.26,4.26,0,0,1,1.92,3.63c-.09,2.55-2.54,4.53-3.09,7a5.77,5.77,0,0,0,1.74,5.29,6.52,6.52,0,0,0,4.59,2.21"/>
        <path class="cls-6" d="M1560.51,534.24a12.07,12.07,0,0,1,14.39-9.46c6.41,1.27,10.51,7.16,9.15,13.16s-7.65,9.84-14.07,8.56a13.92,13.92,0,0,1-2.06-.58"/>
        <path class="cls-16" d="M1529.32,598a28.46,28.46,0,0,1,.93-9.84,24.05,24.05,0,0,1,4.39-3.91c4.4-3.17,12.18-7.14,23.72-7.28,1,0,2,0,3,0,0,0,6.34,6.08,4.91,16.83a20.28,20.28,0,0,0,1.13,2.32c3.48,6.31,16,23.78,50.38,30.69,0,0-1.34,14.9-4.92,24.07,0,0-22.61-1.88-38.34-14.25l-.33-.24"/>
      </g>
    </g>
    <g>
      <path class="cls-12" d="M1401.71,229.38a24.82,24.82,0,0,1-17.65,10.33,26.15,26.15,0,0,1,3.87-20.06c3.93-5.78,10.8-9.4,17.71-10.5A25.19,25.19,0,0,1,1401.71,229.38Z"/>
      <path class="cls-6" d="M1405.64,209.15a25.19,25.19,0,0,1-3.93,20.23,24.82,24.82,0,0,1-17.65,10.33,26.15,26.15,0,0,1,3.87-20.06C1391.86,213.87,1398.73,210.25,1405.64,209.15Z"/>
    </g>
    <g>
      <path class="cls-12" d="M1369.16,721.91a24.82,24.82,0,0,1,11.76,16.73,26.14,26.14,0,0,1-20.31-2.18c-6.09-3.44-10.26-10-11.94-16.78A25.21,25.21,0,0,1,1369.16,721.91Z"/>
      <path class="cls-6" d="M1348.67,719.68a25.21,25.21,0,0,1,20.49,2.23,24.82,24.82,0,0,1,11.76,16.73,26.14,26.14,0,0,1-20.31-2.18C1354.52,733,1350.35,726.48,1348.67,719.68Z"/>
    </g>
    <g>
      <path class="cls-12" d="M272.16,605.91a24.82,24.82,0,0,1,11.76,16.73,26.14,26.14,0,0,1-20.31-2.18c-6.09-3.44-10.26-10-11.94-16.78A25.21,25.21,0,0,1,272.16,605.91Z"/>
      <path class="cls-6" d="M251.67,603.68a25.21,25.21,0,0,1,20.49,2.23,24.82,24.82,0,0,1,11.76,16.73,26.14,26.14,0,0,1-20.31-2.18C257.52,617,253.35,610.48,251.67,603.68Z"/>
    </g>
    <g>
      <g>
        <path class="cls-29" d="M1288.58,536.19l-.38,7.88s-31,2.64-44.25.87v-8h1.24c7.45-.06,32.18-1.05,42-.79Z"/>
        <path class="cls-38" d="M1287.24,535.46v.69c-9.86-.26-34.59.73-42,.79v-.84s2.9-13.68,13.2-17.56a16.08,16.08,0,0,1,5.67-1,29.61,29.61,0,0,1,7.57.89A20.3,20.3,0,0,1,1287.24,535.46Z"/>
        <path class="cls-29" d="M1265.05,510.52c2.31-.13,8.69,1.37,6.62,7.69l-.05.2a29.61,29.61,0,0,0-7.57-.89,16.08,16.08,0,0,0-5.67,1l-.27-.83C1258.61,511.89,1262.44,510.66,1265.05,510.52Z"/>
      </g>
      <g>
        <path class="cls-6" d="M1287.24,535.46a20.3,20.3,0,0,0-15.62-17.05,29.61,29.61,0,0,0-7.57-.89,16.08,16.08,0,0,0-5.67,1c-10.3,3.88-13.2,17.56-13.2,17.56"/>
        <path class="cls-6" d="M1258.11,517.71c.5-5.82,4.33-7.05,6.94-7.19,2.31-.13,8.69,1.37,6.62,7.69"/>
        <path class="cls-6" d="M1287.23,536.15l1.35,0-.38,7.88s-31,2.64-44.25.87v-8h1.24C1252.64,536.88,1277.37,535.89,1287.23,536.15Z"/>
      </g>
    </g>
    <g>
      <path class="cls-39" d="M1718.92,454.26c4.33,14.28-6.1,177.78-7.33,199s-17.46,100.58-17.46,102.22H1794s-17.38-130.22-20.71-174.22c-7.34-57.33,11.91-151,20.16-161.66,6.75-8.75,40.6-8.76,74.56-52.54l-5.87-2.63s-21.86,25.6-27.82,25.54c-3,0-5.32-1.63-.41-11.86l-5.68-.23s-3.2,8.12-4.91,10.46c-3.12,4.26-11.5,13.09-21.73,15.13s2.91-32.64,16-39.91c13.4-7.46,41.53-24.09,50.73-26.36s44.42-3.73,102.17-15l-.48-5.2s-92.08,12.21-87.14,8.58c6.12-4.5,116.79-74.5,116.79-74.5l-4.5-7s-148.69,96-153.67,98.66c-4,2.15-22.73,11.07-25.13,5.48-3.12-7.27,27-51.54,43-70s67.51-69.19,67.51-69.19l-5.73-4.86L1866.34,262a2.52,2.52,0,0,1-4.34-1.49c-.93-9.74-2.88-29.29-3.74-32.89l-5.1,1.18s4.6,38.65,2.41,41.32c-1.47,1.79-44.13,57.43-51,72.5-6.67,14.66-24.1,52.56-26.5,57.16-2.84,5.44-29.3,69.58-32.17,66.31s-2.87-76.22.5-93.1c1.69-8.44,3.5-22.5,11.37-33.73,4.71-6.72,22.91-30.68,48.27-37.23l-1.54-6.13s-13.09,5.72-23.73,11-17.24,11.3-18.74,10.3,1.5-30.75,1.62-38.87l-4.65-.06s-11.76,57.34-14.32,57.27c-3.15-.09-8.28-30.46-6.55-47.87S1753,248.85,1764.7,228c11.22-20,54.39-96.36,52-101.46l-4.83.35s-36.75,64.69-43.62,75.5c-7,11.08-34.21,61.14-38.74,61-6.26-.16-19-72.12-21.68-97.19-3.44-31.73-11.28-73.69-11.28-73.69l-6.73.46s8.64,64,9.39,73.47c1.5,19,16.06,107.85,17.84,119.63,1.82,12,8.67,139.34,1.82,137.87-7-1.5-13.34-40.14-21.33-53.5-9.17-15.33-37.42-63.48-40.5-71-2.8-6.82-13.17-32.33-16.33-41.17,0,0-4.55,1.27-4.34,2.5,6.84,39.34,51.9,107.42,54.5,114.5,3,8.17,14.09,33.94,13.27,37.62s-35.93-33.28-45.86-42.86c-7-6.73-18.41-19.26-21.78-30.09-3.84-12.38-4.77-51.42-4.77-51.42l-2-137.87H1622s4.5,167.33-1.63,172.24-48.07-24.45-68.07-46.95c-12.75-14.34-37.9-71.29-37.9-71.29l-5.31,2.05s27.67,63.5,38,75.91c11,13.16,36.41,32.1,47.87,41.1s35.13,30.4,32.32,36.82c-2.17,4.95-8.7,10-29.46,4.5-26.56-7.09-45.86-12.91-51.59-12.5l-.82,7.09s27.87,5.41,36,7.86,20,6.55,29,6.55,18.64-3.33,24.13-.82c7.14,3.26,11.12,9.23,24.14,20.05C1671.17,403.58,1714.83,440.75,1718.92,454.26Z"/>
      <path class="cls-13" d="M1809.39,130.53a34.65,34.65,0,0,1,9.82-26.52A34,34,0,0,1,1845.38,94a35.72,35.72,0,0,1-9.66,26.27C1829.12,127.19,1819,130.55,1809.39,130.53Z"/>
      <path class="cls-13" d="M1880.64,255.24a31.22,31.22,0,0,1,27.12-8.11,36.18,36.18,0,0,1,24.08,17.53,32.16,32.16,0,0,1-26.83,8.08C1895.41,271.18,1886.52,264.08,1880.64,255.24Z"/>
      <path class="cls-13" d="M1888.05,173.51c11.47,1.68,19.39,9,21.1,19.52s-2.52,23.86-11.77,36c-11.21-1.88-19-9-21-19.27S1879.55,185.76,1888.05,173.51Z"/>
      <path class="cls-13" d="M1537,268.58c8.07,6.89,11.44,16.87,9,26.66s-10.45,19.1-21.81,25.06c-7.8-6.93-11.13-16.69-8.92-26.38S1526.19,275,1537,268.58Z"/>
      <path class="cls-13" d="M1596.6,372.63a31.26,31.26,0,0,1-15,23.68,35.62,35.62,0,0,1-29.21,2.7,32.2,32.2,0,0,1,14.84-23.47C1575.35,370.44,1586.54,369.92,1596.6,372.63Z"/>
      <path class="cls-13" d="M1686,417.44c-4.39,9.67-13.06,15.66-23.16,15.95s-21.26-4.83-30.14-14.15c4.51-9.42,13-15.32,22.89-15.85S1676.91,408.77,1686,417.44Z"/>
      <path class="cls-13" d="M1622.43,231.18c-5.45,5.74-12.77,7.46-19.54,4.54s-12.82-10.11-16.26-19.69c5.46-5.52,12.62-7.23,19.33-4.55S1618.66,222,1622.43,231.18Z"/>
      <path class="cls-13" d="M1847.1,281.18c-5.46,5.74-12.77,7.46-19.55,4.54s-12.82-10.11-16.26-19.69c5.47-5.52,12.63-7.23,19.34-4.55S1843.32,272,1847.1,281.18Z"/>
      <path class="cls-13" d="M1669.72,226.51c4.9,9.45,4.25,20-1.81,28.07s-17,13.69-29.9,14.88c-4.64-9.38-4-19.68,1.72-27.79S1657.2,228.3,1669.72,226.51Z"/>
      <path class="cls-13" d="M1648,104.34c5-7.49,12.93-10.94,21.17-9.15s16.53,8.45,22.35,18.31c-5.06,7.26-12.81,10.66-20.94,9.12S1654.1,113.69,1648,104.34Z"/>
      <path class="cls-13" d="M1679.79,273c7.35-6.3,16-7,23.06-1.82s12.46,15.79,14.4,28.93c-7.32,6-15.78,6.75-22.84,1.88S1682.19,285.74,1679.79,273Z"/>
      <path class="cls-13" d="M1858.71,369.34a22.53,22.53,0,0,1,17.74-14.66c8.09-1.21,17.3,1.68,24.91,8a23.17,23.17,0,0,1-17.53,14.55C1875.91,378.69,1866.48,375.18,1858.71,369.34Z"/>
      <path class="cls-13" d="M1511.46,209.53a24.2,24.2,0,0,1-9.44-21c.64-8,5.21-16,12.59-21.51a24.88,24.88,0,0,1,9.4,20.73C1523.59,195.72,1518.4,203.73,1511.46,209.53Z"/>
      <path class="cls-13" d="M1586.07,174.45c-1-10,3.33-18.88,11.57-23.66s19.92-5.52,31.73-1.77c.77,9.86-3.43,18.56-11.39,23.45S1597.78,177.56,1586.07,174.45Z"/>
      <path class="cls-13" d="M1758,282.53a25.86,25.86,0,0,1,10.82-20.76,30,30,0,0,1,24.27-4.21,26.62,26.62,0,0,1-10.67,20.59C1776,283,1766.63,284.13,1758,282.53Z"/>
      <path class="cls-13" d="M1745,158.64a25.86,25.86,0,0,1,22.18,7.52A30,30,0,0,1,1775,189.5a26.65,26.65,0,0,1-22-7.4C1747.29,176.46,1744.69,167.41,1745,158.64Z"/>
    </g>
  </g>
</svg>
