<svg xmlns="http://www.w3.org/2000/svg" viewBox="0 0 670 487.84">
  <defs>
    <style>
      .cls-1 {
        fill: #0072ce;
      }
    </style>
  </defs>
  <g id="Layer_1" data-name="Layer 1">
    <g>
      <path class="cls-1" d="M267.66,227.51l-10.84,31.95h-5.27l-10.84-31.95H245l5.26,15.84c1.44,4.23,2.79,8.32,4,12.46,1.17-4.09,2.48-8.19,3.87-12.42l5.27-15.88Z"/>
      <path class="cls-1" d="M287.51,244.07v15.39H284v-2.75c-1.49,2.25-4.19,3.47-7.52,3.47-4.32,0-7.92-1.8-7.92-6.21,0-5.18,4.77-6.71,10.31-7.7l4.95-.9v-1.12c0-2.79-2.12-4.37-5.18-4.37-2.83,0-4.68,1.08-7.29,3.74l-2.47-2.21a11.94,11.94,0,0,1,9.63-4.72C284.36,236.69,287.51,239.75,287.51,244.07Zm-3.69,7.11v-2.93l-4.05.81c-4.32.9-7.43,1.71-7.43,4.77,0,2,1.71,3.15,4.55,3.15C280.71,257,283.82,254.82,283.82,251.18ZM276.48,233H272.7v-4.63h3.78Zm8,0h-3.78v-4.63h3.78Z"/>
      <path class="cls-1" d="M311.45,244.07v15.39h-3.51v-2.75c-1.49,2.25-4.19,3.47-7.52,3.47-4.32,0-7.92-1.8-7.92-6.21,0-5.18,4.77-6.71,10.31-7.7l4.95-.9v-1.12c0-2.79-2.12-4.37-5.18-4.37-2.83,0-4.68,1.08-7.29,3.74l-2.47-2.21a11.94,11.94,0,0,1,9.63-4.72C308.3,236.69,311.45,239.75,311.45,244.07Zm-3.69,7.11v-2.93l-4.05.81c-4.32.9-7.43,1.71-7.43,4.77,0,2,1.71,3.15,4.55,3.15C304.65,257,307.76,254.82,307.76,251.18ZM300.42,233h-3.78v-4.63h3.78Zm8,0h-3.78v-4.63h3.78Z"/>
      <path class="cls-1" d="M330.08,237.72l-.72,3.24a10.74,10.74,0,0,0-2.88-.45c-3,0-5.18,2.57-5.18,7.07v11.88h-3.87V237.32h3.65v3.33a5.88,5.88,0,0,1,5.49-3.6A10.39,10.39,0,0,1,330.08,237.72Z"/>
      <path class="cls-1" d="M346.23,259.1a13.64,13.64,0,0,1-4.54.76c-4.23,0-5.72-2-5.72-5.53V240.24h-4.14v-2.92H336v-7.43h3.87v7.43h6v2.92h-6v13.64c0,2,.77,2.7,2.61,2.7a12.17,12.17,0,0,0,3.2-.54Z"/>
      <path class="cls-1" d="M368.1,237.32v22.14h-3.6v-2.75a7.49,7.49,0,0,1-6.7,3.38c-5.63,0-7.88-3.24-7.88-7.25V237.32h3.87V251.9c0,3.15,1.62,4.86,4.64,4.86,3.24,0,5.8-2,5.8-5.94v-13.5Z"/>
      <path class="cls-1" d="M390.78,239.93l-2.11,2.61c-2.88-2.21-4.59-2.7-7-2.7-3,0-4.86,1.39-4.86,3.28s1.89,2.39,5.94,3.29c5.76,1.3,8.37,2.88,8.37,6.79,0,4.1-3.51,6.89-8.86,6.89-3.92,0-6.71-1-10.22-4.14l2.3-2.52c3.28,2.74,5.26,3.46,8,3.46,2.88,0,5-1.3,5-3.51,0-2.43-2.65-3.1-6.21-3.87-5.89-1.26-8-2.56-8-6.25,0-3.87,3.46-6.57,8.59-6.57A13.06,13.06,0,0,1,390.78,239.93Z"/>
      <path class="cls-1" d="M415,255.5c-3.24,3.46-6,4.59-9.63,4.59-6.75,0-11-4.64-11-11.57s4.1-11.83,10.58-11.83,10,4.14,10,10.66c0,.45-.05,1.31-.09,1.71H398.25c.23,4.1,2.34,7.79,7.16,7.79,2.83,0,4.5-1,7.29-3.69Zm-16.65-9.32h12.78c-.18-3.82-2.34-6.39-6.21-6.39C401.31,239.79,398.93,242.09,398.34,246.18Z"/>
      <path class="cls-1" d="M439.52,227.51v31.95h-3.65V256a8.31,8.31,0,0,1-7.56,4c-5.67,0-9.76-4.63-9.76-11.65s4.18-11.66,9.85-11.66a8.24,8.24,0,0,1,7.25,3.56V227.51Zm-3.74,20.88c0-5.27-2.88-8.33-6.88-8.33-3.83,0-6.39,3.33-6.39,8.33s2.47,8.37,6.39,8.37S435.78,253.65,435.78,248.39Z"/>
    </g>
    <path class="cls-1" d="M342.22,467.79a1.51,1.51,0,0,1,1.49-1.51h0a1.48,1.48,0,0,1,1.51,1.48h0a1.5,1.5,0,0,1-1.48,1.52h0A1.5,1.5,0,0,1,342.22,467.79Zm-6.54,1.43a1.5,1.5,0,0,1-1.46-1.54h0a1.51,1.51,0,0,1,1.54-1.46h0a1.51,1.51,0,0,1,1.46,1.54h0a1.5,1.5,0,0,1-1.5,1.46h0Zm14.54-1.6a1.5,1.5,0,0,1,1.43-1.57h0a1.5,1.5,0,0,1,1.57,1.43h0a1.49,1.49,0,0,1-1.43,1.56h-.07A1.5,1.5,0,0,1,350.22,467.62Zm-22.58,1.26h0a1.5,1.5,0,0,1-1.41-1.59h0a1.5,1.5,0,0,1,1.59-1.41h0a1.49,1.49,0,0,1,1.4,1.59h0a1.48,1.48,0,0,1-1.49,1.41h-.09Zm30.57-1.73a1.5,1.5,0,0,1,1.37-1.62h0a1.51,1.51,0,0,1,1.62,1.37h0a1.5,1.5,0,0,1-1.37,1.62h-.13A1.5,1.5,0,0,1,358.21,467.15Zm-38.6,1.09h0a1.49,1.49,0,0,1-1.35-1.63h0a1.5,1.5,0,0,1,1.64-1.35h0a1.5,1.5,0,0,1,1.35,1.64h0a1.51,1.51,0,0,1-1.5,1.35h-.14Zm46.56-1.84a1.5,1.5,0,0,1,1.31-1.67h0a1.5,1.5,0,0,1,1.67,1.31h0a1.5,1.5,0,0,1-1.31,1.67h-.18A1.5,1.5,0,0,1,366.17,466.4Zm-54.56.92h0a1.51,1.51,0,0,1-1.29-1.69h0a1.5,1.5,0,0,1,1.69-1.28h0a1.48,1.48,0,0,1,1.28,1.68h0a1.49,1.49,0,0,1-1.48,1.3h-.2Zm62.49-2a1.51,1.51,0,0,1,1.25-1.71h0a1.5,1.5,0,0,1,1.72,1.25h0a1.49,1.49,0,0,1-1.25,1.71h0a.93.93,0,0,1-.23,0h0A1.51,1.51,0,0,1,374.1,465.35Zm-70.45.75a1.5,1.5,0,0,1-1.23-1.73h0a1.5,1.5,0,0,1,1.73-1.22h0a1.5,1.5,0,0,1,1.23,1.73h0a1.5,1.5,0,0,1-1.48,1.24h0A1.06,1.06,0,0,1,303.65,466.1ZM382,464a1.5,1.5,0,0,1,1.19-1.76h0a1.5,1.5,0,0,1,1.76,1.18h0a1.5,1.5,0,0,1-1.19,1.76h0a1.36,1.36,0,0,1-.29,0h0A1.51,1.51,0,0,1,382,464Zm-86.25.58a1.5,1.5,0,0,1-1.17-1.78h0a1.5,1.5,0,0,1,1.78-1.16h0a1.5,1.5,0,0,1,1.16,1.78h0a1.51,1.51,0,0,1-1.47,1.19h0Zm94.09-2.2a1.5,1.5,0,0,1,1.12-1.8h0a1.51,1.51,0,0,1,1.8,1.12h0a1.49,1.49,0,0,1-1.12,1.8h0a1.37,1.37,0,0,1-.34,0h0A1.49,1.49,0,0,1,389.83,462.4Zm-101.95.4a1.5,1.5,0,0,1-1.09-1.82h0a1.5,1.5,0,0,1,1.82-1.09h0a1.5,1.5,0,0,1,1.09,1.82h0a1.5,1.5,0,0,1-1.45,1.14h0A1.57,1.57,0,0,1,287.88,462.8Zm109.72-2.3a1.49,1.49,0,0,1,1-1.84h0a1.49,1.49,0,0,1,1.84,1h0a1.49,1.49,0,0,1-1.05,1.84h0a1.39,1.39,0,0,1-.4.06h0A1.49,1.49,0,0,1,397.6,460.5Zm-117.5.22a1.5,1.5,0,0,1-1-1.86h0a1.49,1.49,0,0,1,1.85-1h0a1.49,1.49,0,0,1,1,1.85h0a1.5,1.5,0,0,1-1.44,1.09h0A1.52,1.52,0,0,1,280.1,460.72Zm125.19-2.41a1.5,1.5,0,0,1,1-1.88h0a1.5,1.5,0,0,1,1.88,1h0a1.5,1.5,0,0,1-1,1.88h0a1.41,1.41,0,0,1-.45.07h0A1.5,1.5,0,0,1,405.29,458.31Zm-132.88,0a1.49,1.49,0,0,1-1-1.89h0a1.49,1.49,0,0,1,1.89-1h0a1.51,1.51,0,0,1,1,1.89h0a1.51,1.51,0,0,1-1.43,1h0A1.48,1.48,0,0,1,272.41,458.35Zm140.49-2.51a1.49,1.49,0,0,1,.92-1.91h0a1.49,1.49,0,0,1,1.91.91h0a1.49,1.49,0,0,1-.92,1.91h0a1.41,1.41,0,0,1-.49.09h0A1.52,1.52,0,0,1,412.9,455.84Zm-148.1-.13h0a1.5,1.5,0,0,1-.89-1.93h0a1.5,1.5,0,0,1,1.93-.89h0a1.5,1.5,0,0,1,.88,1.93h0a1.5,1.5,0,0,1-1.4,1h0A1.54,1.54,0,0,1,264.8,455.71Zm155.61-2.62a1.51,1.51,0,0,1,.85-1.95h0a1.5,1.5,0,0,1,1.94.85h0a1.49,1.49,0,0,1-.84,1.94h0a1.52,1.52,0,0,1-.55.1h0A1.51,1.51,0,0,1,420.41,453.09Zm-163.12-.31a1.5,1.5,0,0,1-.81-2h0a1.5,1.5,0,0,1,2-.81h0a1.49,1.49,0,0,1,.81,1.95h0a1.5,1.5,0,0,1-1.39.93h0A1.44,1.44,0,0,1,257.29,452.78Zm170.53-2.71a1.5,1.5,0,0,1,.77-2h0a1.51,1.51,0,0,1,2,.78h0a1.5,1.5,0,0,1-.77,2h0a1.44,1.44,0,0,1-.6.13h0A1.51,1.51,0,0,1,427.82,450.07Zm-177.92-.49h0a1.49,1.49,0,0,1-.74-2h0a1.49,1.49,0,0,1,2-.75h0a1.5,1.5,0,0,1,.75,2h0a1.51,1.51,0,0,1-1.37.88h0A1.51,1.51,0,0,1,249.9,449.58Zm185.21-2.8a1.51,1.51,0,0,1,.7-2h0a1.5,1.5,0,0,1,2,.7h0a1.51,1.51,0,0,1-.69,2h0a1.55,1.55,0,0,1-.66.15h0A1.52,1.52,0,0,1,435.11,446.78Zm-192.48-.66h0a1.51,1.51,0,0,1-.67-2h0a1.5,1.5,0,0,1,2-.67h0a1.5,1.5,0,0,1,.68,2h0a1.53,1.53,0,0,1-1.35.83h0A1.64,1.64,0,0,1,242.63,446.12Zm199.65-2.9a1.5,1.5,0,0,1,.62-2h0a1.51,1.51,0,0,1,2,.63h0a1.5,1.5,0,0,1-.62,2h0a1.64,1.64,0,0,1-.7.17h0A1.5,1.5,0,0,1,442.28,443.22Zm-206.78-.83h0a1.5,1.5,0,0,1-.6-2h0a1.5,1.5,0,0,1,2-.6h0a1.5,1.5,0,0,1,.6,2h0a1.5,1.5,0,0,1-1.32.78h0A1.5,1.5,0,0,1,235.5,442.39Zm213.81-3a1.49,1.49,0,0,1,.55-2h0a1.49,1.49,0,0,1,2.05.55h0a1.51,1.51,0,0,1-.55,2h0a1.59,1.59,0,0,1-.75.2h0A1.49,1.49,0,0,1,449.31,439.4Zm-220.81-1a1.5,1.5,0,0,1-.52-2.06h0a1.5,1.5,0,0,1,2.05-.52h0a1.5,1.5,0,0,1,.52,2.06h0a1.49,1.49,0,0,1-1.29.73h0A1.5,1.5,0,0,1,228.5,438.4Zm227.7-3.07a1.49,1.49,0,0,1,.47-2.06h0a1.5,1.5,0,0,1,2.07.47h0a1.5,1.5,0,0,1-.48,2.07h0a1.42,1.42,0,0,1-.79.23h0A1.48,1.48,0,0,1,456.2,435.33Zm-234.55-1.17h0a1.51,1.51,0,0,1-.45-2.08h0a1.51,1.51,0,0,1,2.08-.44h0a1.5,1.5,0,0,1,.44,2.07h0a1.48,1.48,0,0,1-1.26.69h0A1.5,1.5,0,0,1,221.65,434.16Z"/>
    <path class="cls-1" d="M144.14,348.32h0a1.5,1.5,0,0,1,.66-2h0a1.49,1.49,0,0,1,2,.66h0a1.49,1.49,0,0,1-.65,2h0a1.52,1.52,0,0,1-.68.17h0A1.49,1.49,0,0,1,144.14,348.32Zm-3.52-7.25a1.5,1.5,0,0,1,.73-2h0a1.5,1.5,0,0,1,2,.73h0a1.5,1.5,0,0,1-.73,2h0a1.41,1.41,0,0,1-.63.14h0A1.5,1.5,0,0,1,140.62,341.07Zm-3.25-7.37a1.5,1.5,0,0,1,.8-2h0a1.5,1.5,0,0,1,2,.8h0a1.48,1.48,0,0,1-.8,2h0a1.47,1.47,0,0,1-.58.12h0A1.49,1.49,0,0,1,137.37,333.7Zm-3-7.48h0a1.51,1.51,0,0,1,.87-1.94h0a1.51,1.51,0,0,1,1.94.88h0a1.5,1.5,0,0,1-.88,1.93h0a1.39,1.39,0,0,1-.53.1h0A1.51,1.51,0,0,1,134.39,326.22Zm-2.7-7.59a1.49,1.49,0,0,1,.94-1.9h0a1.49,1.49,0,0,1,1.9.94h0a1.49,1.49,0,0,1-.94,1.9h0a1.61,1.61,0,0,1-.48.08h0A1.5,1.5,0,0,1,131.69,318.63Zm-2.42-7.69a1.49,1.49,0,0,1,1-1.86h0a1.5,1.5,0,0,1,1.86,1h0a1.5,1.5,0,0,1-1,1.87h0a1.59,1.59,0,0,1-.43.06h0A1.49,1.49,0,0,1,129.27,310.94Zm-2.14-7.76a1.5,1.5,0,0,1,1.08-1.83h0a1.5,1.5,0,0,1,1.82,1.08h0a1.49,1.49,0,0,1-1.08,1.83h0a1.55,1.55,0,0,1-.37,0h0A1.5,1.5,0,0,1,127.13,303.18Zm-1.85-7.85a1.5,1.5,0,0,1,1.15-1.78h0a1.5,1.5,0,0,1,1.78,1.15h0a1.49,1.49,0,0,1-1.15,1.78h0a1.17,1.17,0,0,1-.32,0h0A1.49,1.49,0,0,1,125.28,295.33Zm-1.56-7.9a1.5,1.5,0,0,1,1.21-1.74h0a1.5,1.5,0,0,1,1.74,1.21h0a1.5,1.5,0,0,1-1.21,1.74h0a1.24,1.24,0,0,1-.27,0h0A1.49,1.49,0,0,1,123.72,287.43Zm-1.28-7.95a1.52,1.52,0,0,1,1.28-1.7h0a1.49,1.49,0,0,1,1.69,1.28h0a1.49,1.49,0,0,1-1.27,1.69h0l-.21,0h0A1.51,1.51,0,0,1,122.44,279.48Zm-1-8a1.51,1.51,0,0,1,1.34-1.65h0a1.51,1.51,0,0,1,1.65,1.34h0a1.52,1.52,0,0,1-1.34,1.65H123A1.5,1.5,0,0,1,121.46,271.48Zm-.69-8a1.5,1.5,0,0,1,1.4-1.59h0a1.48,1.48,0,0,1,1.59,1.39h0a1.49,1.49,0,0,1-1.39,1.6h-.1A1.5,1.5,0,0,1,120.77,263.45Zm-.4-8h0a1.51,1.51,0,0,1,1.45-1.55h0a1.5,1.5,0,0,1,1.55,1.45h0a1.5,1.5,0,0,1-1.45,1.55h0A1.5,1.5,0,0,1,120.37,255.41Zm1.39-6.55a1.51,1.51,0,0,1-1.5-1.51h0a1.5,1.5,0,0,1,1.51-1.49h0a1.5,1.5,0,0,1,1.49,1.51h0a1.5,1.5,0,0,1-1.5,1.49Zm.12-8a1.5,1.5,0,0,1-1.44-1.56h0a1.51,1.51,0,0,1,1.56-1.44h0a1.52,1.52,0,0,1,1.44,1.56h0a1.51,1.51,0,0,1-1.5,1.44h-.06Z"/>
    <path class="cls-1" d="M140.75,158.83a1.51,1.51,0,0,1-.74-2h0a1.49,1.49,0,0,1,2-.75h0a1.51,1.51,0,0,1,.75,2h0a1.51,1.51,0,0,1-1.37.88h0A1.5,1.5,0,0,1,140.75,158.83Zm3.4-7.25a1.5,1.5,0,0,1-.67-2h0a1.5,1.5,0,0,1,2-.67h0a1.5,1.5,0,0,1,.67,2h0a1.49,1.49,0,0,1-1.34.83h0A1.44,1.44,0,0,1,144.15,151.58Zm3.66-7.11a1.49,1.49,0,0,1-.6-2h0a1.5,1.5,0,0,1,2-.6h0a1.5,1.5,0,0,1,.59,2h0a1.49,1.49,0,0,1-1.31.79h0A1.44,1.44,0,0,1,147.81,144.47Zm3.91-7a1.51,1.51,0,0,1-.52-2.06h0a1.51,1.51,0,0,1,2.06-.52h0a1.51,1.51,0,0,1,.52,2.06h0a1.5,1.5,0,0,1-1.29.73h0A1.54,1.54,0,0,1,151.72,137.5Zm4.17-6.83a1.5,1.5,0,0,1-.45-2.07h0a1.5,1.5,0,0,1,2.08-.45h0a1.51,1.51,0,0,1,.44,2.08h0a1.48,1.48,0,0,1-1.26.68h0A1.5,1.5,0,0,1,155.89,130.67ZM160.3,124a1.51,1.51,0,0,1-.37-2.09h0a1.51,1.51,0,0,1,2.09-.37h0a1.5,1.5,0,0,1,.37,2.09h0a1.48,1.48,0,0,1-1.23.64h0A1.56,1.56,0,0,1,160.3,124Zm4.66-6.5a1.5,1.5,0,0,1-.3-2.1h0a1.49,1.49,0,0,1,2.1-.3h0a1.5,1.5,0,0,1,.3,2.1h0a1.52,1.52,0,0,1-1.2.6h0A1.52,1.52,0,0,1,165,117.5Zm4.89-6.34a1.49,1.49,0,0,1-.22-2.11h0a1.5,1.5,0,0,1,2.11-.22h0a1.51,1.51,0,0,1,.22,2.11h0a1.5,1.5,0,0,1-1.17.56h0A1.45,1.45,0,0,1,169.85,111.16ZM175,105a1.48,1.48,0,0,1-.14-2.11h0a1.49,1.49,0,0,1,2.11-.15h0a1.49,1.49,0,0,1,.14,2.12h0a1.48,1.48,0,0,1-1.13.51h0A1.46,1.46,0,0,1,175,105Zm5.33-6a1.5,1.5,0,0,1-.06-2.12h0a1.51,1.51,0,0,1,2.12-.07h0a1.5,1.5,0,0,1,.06,2.12h0a1.47,1.47,0,0,1-1.09.48h0A1.51,1.51,0,0,1,180.29,99.05Zm5.55-5.77a1.49,1.49,0,0,1,0-2.12h0a1.51,1.51,0,0,1,2.12,0h0a1.51,1.51,0,0,1,0,2.13h0a1.56,1.56,0,0,1-1.06.43h0A1.48,1.48,0,0,1,185.84,93.28Zm5.75-5.56a1.51,1.51,0,0,1,.08-2.12h0a1.49,1.49,0,0,1,2.11.09h0a1.49,1.49,0,0,1-.08,2.12h0a1.5,1.5,0,0,1-1,.4h0A1.5,1.5,0,0,1,191.59,87.72Zm5.95-5.35a1.49,1.49,0,0,1,.16-2.11h0a1.49,1.49,0,0,1,2.11.16h0a1.5,1.5,0,0,1-.16,2.12h0a1.5,1.5,0,0,1-1,.36h0A1.47,1.47,0,0,1,197.54,82.37Zm6.13-5.13a1.5,1.5,0,0,1,.24-2.1h0a1.5,1.5,0,0,1,2.11.24h0a1.5,1.5,0,0,1-.24,2.11h0a1.46,1.46,0,0,1-.93.32h0A1.5,1.5,0,0,1,203.67,77.24Zm6.32-4.9a1.5,1.5,0,0,1,.32-2.1h0a1.5,1.5,0,0,1,2.1.32h0a1.5,1.5,0,0,1-.32,2.1h0a1.48,1.48,0,0,1-.89.29h0A1.51,1.51,0,0,1,210,72.34Zm6.5-4.67a1.51,1.51,0,0,1,.39-2.09h0A1.51,1.51,0,0,1,219,66h0a1.5,1.5,0,0,1-.4,2.08h0a1.46,1.46,0,0,1-.84.26h0A1.51,1.51,0,0,1,216.49,67.67Zm6.66-4.43a1.5,1.5,0,0,1,.47-2.07h0a1.5,1.5,0,0,1,2.07.47h0a1.51,1.51,0,0,1-.47,2.07h0a1.57,1.57,0,0,1-.8.23h0A1.49,1.49,0,0,1,223.15,63.24ZM230,59.05a1.49,1.49,0,0,1,.54-2h0a1.5,1.5,0,0,1,2.05.54h0a1.5,1.5,0,0,1-.54,2.05h0a1.5,1.5,0,0,1-.76.21h0A1.49,1.49,0,0,1,230,59.05Zm7-3.94a1.5,1.5,0,0,1,.62-2h0a1.5,1.5,0,0,1,2,.62h0a1.5,1.5,0,0,1-.62,2h0a1.46,1.46,0,0,1-.7.18h0A1.5,1.5,0,0,1,236.93,55.11ZM244,51.43a1.5,1.5,0,0,1,.69-2h0a1.51,1.51,0,0,1,2,.69h0a1.51,1.51,0,0,1-.7,2h0a1.51,1.51,0,0,1-.65.15h0A1.49,1.49,0,0,1,244,51.43Z"/>
    <path class="cls-1" d="M540,158.49a1.5,1.5,0,0,1,.75-2h0a1.5,1.5,0,0,1,2,.74h0a1.51,1.51,0,0,1-.75,2h0a1.5,1.5,0,0,1-.62.13h0A1.51,1.51,0,0,1,540,158.49Zm-3.41-7.18a1.51,1.51,0,0,1,.68-2h0a1.49,1.49,0,0,1,2,.68h0a1.5,1.5,0,0,1-.67,2h0a1.63,1.63,0,0,1-.67.15h0A1.51,1.51,0,0,1,536.55,151.31Zm-3.66-7.05a1.49,1.49,0,0,1,.6-2h0a1.49,1.49,0,0,1,2,.6h0a1.49,1.49,0,0,1-.6,2h0a1.44,1.44,0,0,1-.72.19h0A1.49,1.49,0,0,1,532.89,144.26ZM529,137.35a1.5,1.5,0,0,1,.53-2h0a1.49,1.49,0,0,1,2,.53h0a1.49,1.49,0,0,1-.52,2h0a1.54,1.54,0,0,1-.77.21h0A1.49,1.49,0,0,1,529,137.35Zm-4.17-6.76a1.49,1.49,0,0,1,.45-2.07h0a1.49,1.49,0,0,1,2.07.45h0a1.49,1.49,0,0,1-.45,2.07h0a1.5,1.5,0,0,1-.81.24h0A1.49,1.49,0,0,1,524.79,130.59Zm-4.42-6.6a1.51,1.51,0,0,1,.38-2.09h0a1.51,1.51,0,0,1,2.09.37h0a1.51,1.51,0,0,1-.38,2.09h0a1.5,1.5,0,0,1-.85.27h0A1.5,1.5,0,0,1,520.37,124Zm-4.65-6.44a1.5,1.5,0,0,1,.3-2.1h0a1.49,1.49,0,0,1,2.1.3h0a1.5,1.5,0,0,1-.3,2.1h0a1.52,1.52,0,0,1-.9.3h0A1.49,1.49,0,0,1,515.72,117.55Zm-4.89-6.27h0a1.5,1.5,0,0,1,.23-2.11h0a1.51,1.51,0,0,1,2.11.22h0a1.5,1.5,0,0,1-.23,2.11h0a1.45,1.45,0,0,1-.94.34h0A1.5,1.5,0,0,1,510.83,111.28Zm-5.1-6.09a1.49,1.49,0,0,1,.14-2.11h0a1.5,1.5,0,0,1,2.12.14h0a1.5,1.5,0,0,1-.15,2.12h0a1.46,1.46,0,0,1-1,.37h0A1.49,1.49,0,0,1,505.73,105.19ZM500.4,99.3a1.5,1.5,0,0,1,.07-2.12h0a1.49,1.49,0,0,1,2.12.07h0a1.49,1.49,0,0,1-.07,2.12h0a1.5,1.5,0,0,1-1,.4h0A1.51,1.51,0,0,1,500.4,99.3Zm-5.53-5.7a1.49,1.49,0,0,1,0-2.12h0a1.5,1.5,0,0,1,2.12,0h0a1.5,1.5,0,0,1,0,2.12h0a1.49,1.49,0,0,1-1.07.44h0A1.48,1.48,0,0,1,494.87,93.6Zm-5.74-5.5A1.5,1.5,0,0,1,489,86h0a1.51,1.51,0,0,1,2.12-.08h0a1.5,1.5,0,0,1,.09,2.12h0a1.51,1.51,0,0,1-1.11.48h0A1.47,1.47,0,0,1,489.13,88.1Zm-5.94-5.28A1.51,1.51,0,0,1,483,80.7h0a1.51,1.51,0,0,1,2.12-.16h0a1.5,1.5,0,0,1,.16,2.12h0a1.52,1.52,0,0,1-1.14.52h0A1.52,1.52,0,0,1,483.19,82.82Zm-6.12-5.07a1.49,1.49,0,0,1-.23-2.1h0a1.49,1.49,0,0,1,2.1-.24h0a1.5,1.5,0,0,1,.24,2.11h0a1.48,1.48,0,0,1-1.17.56h0A1.52,1.52,0,0,1,477.07,77.75Zm-6.3-4.84a1.5,1.5,0,0,1-.31-2.09h0a1.5,1.5,0,0,1,2.1-.32h0a1.51,1.51,0,0,1,.31,2.1h0a1.49,1.49,0,0,1-1.21.61h0A1.49,1.49,0,0,1,470.77,72.91Zm-6.47-4.6a1.51,1.51,0,0,1-.39-2.09h0a1.51,1.51,0,0,1,2.09-.39h0a1.51,1.51,0,0,1,.39,2.09h0a1.51,1.51,0,0,1-1.24.65h0A1.57,1.57,0,0,1,464.3,68.31Zm-6.63-4.37a1.51,1.51,0,0,1-.47-2.07h0a1.51,1.51,0,0,1,2.07-.47h0a1.51,1.51,0,0,1,.47,2.07h0a1.51,1.51,0,0,1-1.27.7h0A1.48,1.48,0,0,1,457.67,63.94Zm-6.79-4.13h0a1.5,1.5,0,0,1-.54-2.05h0a1.5,1.5,0,0,1,2.05-.54h0a1.49,1.49,0,0,1,.54,2.05h0a1.5,1.5,0,0,1-1.3.75h0A1.5,1.5,0,0,1,450.88,59.81ZM444,55.94h0a1.5,1.5,0,0,1-.62-2h0a1.5,1.5,0,0,1,2-.62h0a1.5,1.5,0,0,1,.62,2h0a1.5,1.5,0,0,1-1.33.8h0A1.46,1.46,0,0,1,444,55.94Zm-7.07-3.62a1.49,1.49,0,0,1-.69-2h0a1.49,1.49,0,0,1,2-.68h0a1.48,1.48,0,0,1,.69,2h0a1.5,1.5,0,0,1-1.35.84h0A1.51,1.51,0,0,1,436.88,52.32Z"/>
    <path class="cls-1" d="M534,353.36a1.5,1.5,0,0,1-.61-2h0a1.5,1.5,0,0,1,2-.61h0a1.5,1.5,0,0,1,.61,2h0a1.51,1.51,0,0,1-1.32.79h0A1.53,1.53,0,0,1,534,353.36Zm3.71-7.09a1.49,1.49,0,0,1-.69-2h0a1.5,1.5,0,0,1,2-.69h0a1.5,1.5,0,0,1,.68,2h0a1.5,1.5,0,0,1-1.34.84h0A1.4,1.4,0,0,1,537.74,346.27Zm3.44-7.22a1.49,1.49,0,0,1-.76-2h0a1.5,1.5,0,0,1,2-.75h0a1.49,1.49,0,0,1,.76,2h0a1.52,1.52,0,0,1-1.37.89h0A1.5,1.5,0,0,1,541.18,339.05Zm3.18-7.34a1.5,1.5,0,0,1-.83-1.95h0a1.5,1.5,0,0,1,2-.83h0a1.5,1.5,0,0,1,.83,1.95h0a1.5,1.5,0,0,1-1.39.94h0A1.36,1.36,0,0,1,544.36,331.71Zm2.9-7.45a1.5,1.5,0,0,1-.9-1.92h0a1.5,1.5,0,0,1,1.92-.9h0a1.5,1.5,0,0,1,.9,1.92h0a1.5,1.5,0,0,1-1.41,1h0A1.52,1.52,0,0,1,547.26,324.26Zm2.63-7.55a1.5,1.5,0,0,1-1-1.89h0a1.5,1.5,0,0,1,1.89-1h0a1.51,1.51,0,0,1,1,1.89h0a1.51,1.51,0,0,1-1.43,1h0A1.47,1.47,0,0,1,549.89,316.71Zm2.35-7.64a1.51,1.51,0,0,1-1-1.85h0a1.5,1.5,0,0,1,1.85-1h0a1.5,1.5,0,0,1,1,1.85h0a1.49,1.49,0,0,1-1.44,1.09h0A1.92,1.92,0,0,1,552.24,309.07Zm2.07-7.73a1.51,1.51,0,0,1-1.11-1.81h0a1.52,1.52,0,0,1,1.81-1.11h0a1.51,1.51,0,0,1,1.11,1.81h0a1.5,1.5,0,0,1-1.46,1.15h0A1.45,1.45,0,0,1,554.31,301.34Zm1.78-7.79a1.51,1.51,0,0,1-1.17-1.77h0a1.52,1.52,0,0,1,1.77-1.18h0a1.5,1.5,0,0,1,1.17,1.77h0a1.51,1.51,0,0,1-1.47,1.21h0Zm1.5-7.86a1.49,1.49,0,0,1-1.23-1.72h0a1.5,1.5,0,0,1,1.72-1.24h0a1.5,1.5,0,0,1,1.24,1.72h0a1.51,1.51,0,0,1-1.48,1.26h0Zm1.21-7.9a1.51,1.51,0,0,1-1.3-1.68h0a1.5,1.5,0,0,1,1.68-1.3h0a1.5,1.5,0,0,1,1.3,1.68h0A1.51,1.51,0,0,1,559,277.8h-.19Zm.92-8a1.5,1.5,0,0,1-1.36-1.63h0a1.51,1.51,0,0,1,1.63-1.36h0a1.51,1.51,0,0,1,1.36,1.63h0a1.51,1.51,0,0,1-1.49,1.37h-.14Zm.63-8a1.5,1.5,0,0,1-1.42-1.58h0a1.51,1.51,0,0,1,1.58-1.42h0a1.51,1.51,0,0,1,1.42,1.58h0a1.5,1.5,0,0,1-1.5,1.42h-.08Zm.34-8a1.51,1.51,0,0,1-1.47-1.53h0a1.5,1.5,0,0,1,1.53-1.47h0a1.5,1.5,0,0,1,1.47,1.53h0a1.49,1.49,0,0,1-1.5,1.47h0Zm-1.46-9.47h0a1.5,1.5,0,0,1,1.47-1.53h0a1.51,1.51,0,0,1,1.53,1.48h0a1.5,1.5,0,0,1-1.48,1.52h0A1.49,1.49,0,0,1,559.23,244.41Z"/>
    <g>
      <path d="M474.36,373.83H469V389H466.8V373.83h-5.35V372h12.91Z"/>
      <path d="M486.29,380.79V389h-1.88v-1.46a4.57,4.57,0,0,1-4,1.84c-2.31,0-4.23-1-4.23-3.31,0-2.76,2.54-3.57,5.5-4.1l2.64-.48v-.6c0-1.49-1.13-2.33-2.76-2.33s-2.5.58-3.89,2l-1.32-1.17a6.37,6.37,0,0,1,5.14-2.52C484.61,376.86,486.29,378.49,486.29,380.79Zm-2,3.79V383l-2.16.44c-2.31.48-4,.91-4,2.54,0,1.08.91,1.68,2.42,1.68C482.66,387.68,484.32,386.53,484.32,384.58Z"/>
      <path d="M496.22,377.41l-.38,1.73a5.52,5.52,0,0,0-1.54-.24c-1.58,0-2.76,1.36-2.76,3.76V389h-2.06V377.19h1.94V379a3.14,3.14,0,0,1,2.93-1.92A5.55,5.55,0,0,1,496.22,377.41Z"/>
      <path d="M502.27,383.07l-2.14,2.14V389h-2.06V372h2.06v11l5.5-5.74h2.52l-4.49,4.56,4.85,7.25h-2.3Z"/>
      <path d="M519.93,377.19V389H518v-1.46a4,4,0,0,1-3.57,1.8c-3,0-4.2-1.73-4.2-3.87v-8.28h2.06V385a2.28,2.28,0,0,0,2.47,2.59,2.92,2.92,0,0,0,3.1-3.17v-7.2Z"/>
      <path d="M532,378.58,530.9,380a5.4,5.4,0,0,0-3.72-1.44c-1.61,0-2.59.74-2.59,1.75s1,1.27,3.17,1.75c3.07.7,4.46,1.54,4.46,3.62s-1.87,3.68-4.73,3.68a7.45,7.45,0,0,1-5.45-2.21l1.23-1.35c1.75,1.47,2.81,1.85,4.25,1.85s2.69-.69,2.69-1.87-1.42-1.66-3.32-2.06c-3.14-.68-4.29-1.37-4.29-3.34s1.84-3.5,4.58-3.5A7,7,0,0,1,532,378.58Z"/>
      <path d="M454.43,420.7c1.15,0,1.51-.67,1.51-2V406H458v12.72c0,2.4-1,3.7-3.33,3.7a7.83,7.83,0,0,1-2.28-.36l.4-1.59A6.18,6.18,0,0,0,454.43,420.7Zm3.6-17H456v-2.47H458Z"/>
      <path d="M470.82,409.59v8.21H469v-1.46a4.6,4.6,0,0,1-4,1.84c-2.31,0-4.23-1-4.23-3.31,0-2.76,2.55-3.57,5.5-4.1l2.64-.48v-.6c0-1.49-1.13-2.33-2.76-2.33s-2.5.58-3.89,2l-1.32-1.17a6.37,6.37,0,0,1,5.14-2.52C469.14,405.66,470.82,407.29,470.82,409.59Zm-2,3.79v-1.56l-2.16.44c-2.3.48-4,.91-4,2.54,0,1.08.91,1.68,2.42,1.68C467.19,416.48,468.85,415.33,468.85,413.38Z"/>
      <path d="M478,420.7c1.15,0,1.51-.67,1.51-2V406h2.06v12.72c0,2.4-1,3.7-3.33,3.7a7.83,7.83,0,0,1-2.28-.36l.41-1.59A6.12,6.12,0,0,0,478,420.7Zm3.6-17h-2.07v-2.47h2.07Z"/>
      <path d="M494.51,406V417.8h-1.92v-1.46a4,4,0,0,1-3.58,1.8c-3,0-4.2-1.73-4.2-3.87V406h2.06v7.78a2.28,2.28,0,0,0,2.47,2.59,2.92,2.92,0,0,0,3.1-3.17V406Z"/>
      <path d="M499.86,417.8h-2.07v-17h2.07Z"/>
      <path d="M513.49,406v11.55c0,3.09-2.11,4.89-5.35,4.89a9.09,9.09,0,0,1-5.36-1.75l1-1.51a7.68,7.68,0,0,0,4.29,1.51,3,3,0,0,0,3.34-3.31v-1.61a4.24,4.24,0,0,1-3.77,1.9c-3.07,0-5.18-2.5-5.18-6s2.11-6,5.18-6a4.24,4.24,0,0,1,3.89,2.08V406Zm-2,5.67c0-2.48-1.4-4.25-3.48-4.25s-3.41,1.77-3.41,4.25,1.25,4.24,3.41,4.24S511.5,414.15,511.5,411.66Z"/>
      <path d="M526.38,406V417.8h-1.92v-1.46a4,4,0,0,1-3.58,1.8c-3,0-4.2-1.73-4.2-3.87V406h2.06v7.78a2.28,2.28,0,0,0,2.48,2.59,2.92,2.92,0,0,0,3.09-3.17V406Z"/>
      <path d="M538.47,407.38l-1.13,1.4a5.37,5.37,0,0,0-3.72-1.44c-1.6,0-2.59.74-2.59,1.75s1,1.27,3.17,1.75c3.07.7,4.46,1.54,4.46,3.62s-1.87,3.68-4.72,3.68a7.44,7.44,0,0,1-5.45-2.21l1.22-1.35c1.75,1.47,2.81,1.85,4.25,1.85s2.69-.69,2.69-1.87-1.42-1.66-3.31-2.06c-3.15-.68-4.3-1.37-4.3-3.34s1.85-3.5,4.58-3.5A7,7,0,0,1,538.47,407.38Z"/>
    </g>
    <g>
      <path d="M495,189.22c0,3.72-2.13,5.79-6.43,5.79s-6.41-2.07-6.41-5.79V177.61h2.21V189.1c0,2.6,1.46,4,4.2,4s4.2-1.36,4.2-4V177.61H495Z"/>
      <path d="M507.35,184.23l-1.13,1.39a5.41,5.41,0,0,0-3.72-1.44c-1.6,0-2.59.75-2.59,1.76s1,1.27,3.17,1.75c3.07.69,4.46,1.53,4.46,3.62s-1.87,3.67-4.72,3.67a7.43,7.43,0,0,1-5.45-2.2l1.22-1.35c1.75,1.47,2.81,1.85,4.25,1.85s2.69-.7,2.69-1.87-1.42-1.66-3.31-2.07c-3.15-.67-4.3-1.36-4.3-3.33s1.85-3.51,4.58-3.51A7,7,0,0,1,507.35,184.23Z"/>
      <path d="M519.64,186.44v8.21h-1.87v-1.47a4.59,4.59,0,0,1-4,1.85c-2.3,0-4.22-1-4.22-3.31,0-2.76,2.54-3.58,5.49-4.1l2.64-.48v-.6c0-1.49-1.13-2.33-2.76-2.33s-2.49.57-3.89,2L509.7,185a6.42,6.42,0,0,1,5.14-2.52C518,182.5,519.64,184.14,519.64,186.44Zm-2,3.79v-1.56l-2.16.43c-2.3.48-4,.92-4,2.55,0,1.08.91,1.68,2.43,1.68C516,193.33,517.67,192.18,517.67,190.23Z"/>
      <path d="M525,194.65H522.9v-17H525Z"/>
      <path d="M538.77,177.61v17h-1.95v-1.83a4.42,4.42,0,0,1-4,2.14c-3,0-5.21-2.47-5.21-6.22s2.24-6.21,5.26-6.21a4.36,4.36,0,0,1,3.86,1.89v-6.81Zm-2,11.13c0-2.8-1.54-4.44-3.68-4.44s-3.4,1.78-3.4,4.44,1.32,4.47,3.4,4.47S536.78,191.55,536.78,188.74Z"/>
      <path d="M551.66,182.84v11.81h-1.92v-1.47a4,4,0,0,1-3.58,1.8c-3,0-4.2-1.72-4.2-3.86v-8.28H544v7.78a2.28,2.28,0,0,0,2.48,2.59,2.92,2.92,0,0,0,3.09-3.17v-7.2Z"/>
      <path d="M563.75,184.23l-1.13,1.39a5.41,5.41,0,0,0-3.72-1.44c-1.6,0-2.59.75-2.59,1.76s1,1.27,3.17,1.75c3.07.69,4.46,1.53,4.46,3.62s-1.87,3.67-4.72,3.67a7.43,7.43,0,0,1-5.45-2.2l1.22-1.35c1.75,1.47,2.81,1.85,4.25,1.85s2.69-.7,2.69-1.87-1.42-1.66-3.31-2.07c-3.15-.67-4.3-1.36-4.3-3.33s1.85-3.51,4.58-3.51A7,7,0,0,1,563.75,184.23Z"/>
      <path d="M575.92,182.84l-4.1,11.81H569.2l-4.08-11.81h2.16l1.46,4.34c.75,2.28,1.35,4.18,1.8,5.81.46-1.63,1.06-3.53,1.8-5.81l1.47-4.34Z"/>
      <path d="M587.32,186.44v8.21h-1.87v-1.47a4.59,4.59,0,0,1-4,1.85c-2.31,0-4.23-1-4.23-3.31,0-2.76,2.55-3.58,5.5-4.1l2.64-.48v-.6c0-1.49-1.13-2.33-2.76-2.33s-2.5.57-3.89,2L577.38,185a6.42,6.42,0,0,1,5.14-2.52C585.64,182.5,587.32,184.14,587.32,186.44Zm-2,3.79v-1.56l-2.16.43c-2.3.48-4,.92-4,2.55,0,1.08.91,1.68,2.43,1.68C583.7,193.33,585.35,192.18,585.35,190.23Zm-3.91-9.72h-2V178h2Zm4.25,0h-2V178h2Z"/>
      <path d="M600.09,186.44v8.21h-1.87v-1.47a4.61,4.61,0,0,1-4,1.85c-2.31,0-4.23-1-4.23-3.31,0-2.76,2.55-3.58,5.5-4.1l2.64-.48v-.6c0-1.49-1.13-2.33-2.76-2.33s-2.5.57-3.89,2L590.15,185a6.4,6.4,0,0,1,5.14-2.52C598.41,182.5,600.09,184.14,600.09,186.44Zm-2,3.79v-1.56l-2.16.43c-2.3.48-4,.92-4,2.55,0,1.08.91,1.68,2.42,1.68C596.46,193.33,598.12,192.18,598.12,190.23Zm-3.91-9.72h-2V178h2Zm4.25,0h-2V178h2Z"/>
      <path d="M610,183.06l-.38,1.72a5.92,5.92,0,0,0-1.54-.24c-1.58,0-2.76,1.37-2.76,3.77v6.34h-2.06V182.84h1.94v1.78a3.14,3.14,0,0,1,2.93-1.92A5.32,5.32,0,0,1,610,183.06Z"/>
      <path d="M620.44,184.23l-1.13,1.39a5.44,5.44,0,0,0-3.72-1.44c-1.61,0-2.59.75-2.59,1.76s1,1.27,3.17,1.75c3.07.69,4.46,1.53,4.46,3.62S618.76,195,615.9,195a7.44,7.44,0,0,1-5.45-2.2l1.23-1.35c1.75,1.47,2.81,1.85,4.25,1.85s2.68-.7,2.68-1.87-1.41-1.66-3.31-2.07C612.16,188.67,611,188,611,186s1.84-3.51,4.58-3.51A7,7,0,0,1,620.44,184.23Z"/>
      <path d="M632.73,182.84v11.81h-1.92v-1.47a4,4,0,0,1-3.58,1.8c-3,0-4.2-1.72-4.2-3.86v-8.28h2.06v7.78a2.28,2.28,0,0,0,2.48,2.59,2.92,2.92,0,0,0,3.09-3.17v-7.2Z"/>
      <path d="M644.82,184.23l-1.13,1.39a5.41,5.41,0,0,0-3.72-1.44c-1.6,0-2.59.75-2.59,1.76s1,1.27,3.17,1.75c3.07.69,4.46,1.53,4.46,3.62s-1.87,3.67-4.72,3.67a7.43,7.43,0,0,1-5.45-2.2l1.22-1.35c1.75,1.47,2.81,1.85,4.25,1.85s2.69-.7,2.69-1.87-1.42-1.66-3.31-2.07c-3.15-.67-4.3-1.36-4.3-3.33s1.85-3.51,4.58-3.51A7,7,0,0,1,644.82,184.23Z"/>
      <path d="M519.58,226.35c1.15,0,1.51-.67,1.51-2V211.64h2.07v12.72c0,2.4-1,3.7-3.34,3.7a7.89,7.89,0,0,1-2.28-.36l.41-1.59A6.12,6.12,0,0,0,519.58,226.35Zm3.6-17h-2.06v-2.47h2.06Z"/>
      <path d="M536,215.24v8.21H534.1V222a4.59,4.59,0,0,1-4,1.85c-2.3,0-4.22-1-4.22-3.31,0-2.76,2.54-3.58,5.49-4.1l2.64-.48v-.6c0-1.49-1.12-2.33-2.76-2.33s-2.49.57-3.88,2L526,213.82a6.35,6.35,0,0,1,5.13-2.52C534.29,211.3,536,212.94,536,215.24ZM534,219v-1.56l-2.16.43c-2.3.48-4,.92-4,2.55,0,1.08.92,1.68,2.43,1.68C532.35,222.13,534,221,534,219Z"/>
      <path d="M554.19,215.24v8.21h-1.87V222a4.61,4.61,0,0,1-4,1.85c-2.31,0-4.23-1-4.23-3.31,0-2.76,2.55-3.58,5.5-4.1l2.64-.48v-.6c0-1.49-1.13-2.33-2.76-2.33s-2.5.57-3.89,2l-1.32-1.18a6.39,6.39,0,0,1,5.14-2.52C552.51,211.3,554.19,212.94,554.19,215.24Zm-2,3.79v-1.56l-2.16.43c-2.3.48-4,.92-4,2.55,0,1.08.91,1.68,2.42,1.68C550.56,222.13,552.22,221,552.22,219Z"/>
      <path d="M566.62,211.64l-4.1,11.81H559.9l-4.08-11.81H558l1.46,4.34c.75,2.28,1.35,4.18,1.8,5.81.46-1.63,1.06-3.53,1.8-5.81l1.47-4.34Z"/>
      <path d="M578,215.24v8.21h-1.87V222a4.59,4.59,0,0,1-4,1.85c-2.3,0-4.22-1-4.22-3.31,0-2.76,2.54-3.58,5.5-4.1l2.64-.48v-.6c0-1.49-1.13-2.33-2.76-2.33s-2.5.57-3.89,2l-1.32-1.18a6.35,6.35,0,0,1,5.13-2.52C576.36,211.3,578,212.94,578,215.24Zm-2,3.79v-1.56l-2.16.43c-2.31.48-4,.92-4,2.55,0,1.08.91,1.68,2.42,1.68C574.42,222.13,576.08,221,576.08,219Z"/>
      <path d="M587.45,223.26a7.23,7.23,0,0,1-2.42.4c-2.26,0-3-1.08-3-2.95V213.2h-2.21v-1.56H582v-4H584v4h3.2v1.56H584v7.27c0,1.06.41,1.44,1.4,1.44a6.19,6.19,0,0,0,1.7-.29Z"/>
      <path d="M599.12,211.64v11.81H597.2V222a4,4,0,0,1-3.58,1.8c-3,0-4.2-1.72-4.2-3.86v-8.28h2.06v7.78A2.28,2.28,0,0,0,594,222a2.92,2.92,0,0,0,3.1-3.17v-7.2Z"/>
      <path d="M611.21,213l-1.13,1.39a5.41,5.41,0,0,0-3.72-1.44c-1.61,0-2.59.75-2.59,1.76s1,1.27,3.17,1.75c3.07.69,4.46,1.53,4.46,3.62s-1.87,3.67-4.73,3.67a7.42,7.42,0,0,1-5.44-2.2l1.22-1.35c1.75,1.47,2.81,1.85,4.25,1.85s2.69-.7,2.69-1.87-1.42-1.66-3.32-2.07c-3.14-.67-4.29-1.36-4.29-3.33s1.85-3.51,4.58-3.51A7,7,0,0,1,611.21,213Z"/>
    </g>
    <g>
      <path d="M270.42,30.39l-3.05,3.14v5.64h-2.21v-17h2.21v8.71l8.31-8.71h2.76l-6.51,6.72,6.84,10.32h-2.52Z"/>
      <path d="M282.73,39.17h-2.06v-17h2.06Z"/>
      <path d="M288.08,25H286V22.56h2.06Zm0,14.14H286V27.36h2.06Z"/>
      <path d="M301.57,37.06a6.45,6.45,0,0,1-5.14,2.45c-3.6,0-5.85-2.48-5.85-6.17S292.76,27,296.22,27s5.33,2.2,5.33,5.68c0,.24,0,.7-.05.92h-8.86c.12,2.18,1.25,4.15,3.82,4.15,1.51,0,2.4-.55,3.89-2Zm-8.88-5h6.82c-.1-2-1.25-3.41-3.31-3.41S293,29.91,292.69,32.09Z"/>
      <path d="M314,31.08v8.09h-2.06V31.73c0-1.94-1-2.95-2.71-2.95a3,3,0,0,0-3.05,3.07v7.32h-2.07V27.36h1.95v1.51A4.24,4.24,0,0,1,309.78,27,3.84,3.84,0,0,1,314,31.08Z"/>
      <path d="M327.71,22.13v17h-1.95V37.35a4.43,4.43,0,0,1-4,2.13c-3,0-5.21-2.47-5.21-6.21s2.23-6.22,5.26-6.22a4.37,4.37,0,0,1,3.86,1.9V22.13Zm-2,11.14c0-2.81-1.54-4.44-3.68-4.44s-3.41,1.77-3.41,4.44S320,37.73,322,37.73,325.72,36.07,325.72,33.27Z"/>
      <path d="M333,25h-2.07V22.56H333Zm0,14.14h-2.07V27.36H333Z"/>
      <path d="M340.4,33.24l-2.13,2.14v3.79H336.2v-17h2.07v11l5.49-5.74h2.52l-4.49,4.56,4.85,7.25h-2.3Z"/>
      <path d="M358.23,37.06a6.43,6.43,0,0,1-5.13,2.45c-3.6,0-5.86-2.48-5.86-6.17S349.43,27,352.88,27s5.33,2.2,5.33,5.68a9.12,9.12,0,0,1,0,.92h-8.85c.12,2.18,1.24,4.15,3.81,4.15,1.51,0,2.4-.55,3.89-2Zm-8.88-5h6.82c-.1-2-1.25-3.41-3.31-3.41S349.67,29.91,349.35,32.09Z"/>
      <path d="M369.73,28.75l-1.13,1.4a5.38,5.38,0,0,0-3.72-1.44c-1.61,0-2.59.74-2.59,1.75s1,1.27,3.17,1.75c3.07.7,4.46,1.54,4.46,3.62s-1.87,3.68-4.73,3.68a7.39,7.39,0,0,1-5.44-2.21L361,36c1.75,1.47,2.81,1.85,4.25,1.85s2.69-.69,2.69-1.87-1.42-1.66-3.32-2.06c-3.14-.68-4.29-1.37-4.29-3.34s1.85-3.5,4.58-3.5A7,7,0,0,1,369.73,28.75Z"/>
      <path d="M376.55,33.24l-2.14,2.14v3.79h-2.06v-17h2.06v11l5.5-5.74h2.52l-4.49,4.56,4.85,7.25h-2.31Z"/>
      <path d="M393.32,28.75l-1.13,1.4a5.37,5.37,0,0,0-3.72-1.44c-1.61,0-2.59.74-2.59,1.75s1,1.27,3.17,1.75c3.07.7,4.46,1.54,4.46,3.62s-1.87,3.68-4.73,3.68a7.39,7.39,0,0,1-5.44-2.21L384.56,36c1.75,1.47,2.81,1.85,4.25,1.85s2.69-.69,2.69-1.87-1.42-1.66-3.31-2.06c-3.15-.68-4.3-1.37-4.3-3.34s1.85-3.5,4.58-3.5A7,7,0,0,1,393.32,28.75Z"/>
      <path d="M405.61,27.36V39.17h-1.92V37.71a4,4,0,0,1-3.58,1.8c-3,0-4.2-1.73-4.2-3.87V27.36H398v7.78a2.27,2.27,0,0,0,2.47,2.59,2.92,2.92,0,0,0,3.1-3.17v-7.2Z"/>
      <path d="M417.71,28.75l-1.13,1.4a5.4,5.4,0,0,0-3.72-1.44c-1.61,0-2.6.74-2.6,1.75s1,1.27,3.17,1.75c3.08.7,4.47,1.54,4.47,3.62s-1.87,3.68-4.73,3.68a7.4,7.4,0,0,1-5.45-2.21L409,36c1.75,1.47,2.8,1.85,4.24,1.85s2.69-.69,2.69-1.87-1.41-1.66-3.31-2.06c-3.15-.68-4.3-1.37-4.3-3.34s1.85-3.5,4.59-3.5A7,7,0,0,1,417.71,28.75Z"/>
      <path d="M272.4,70.88c1.15,0,1.51-.68,1.51-2V56.16H276V68.88c0,2.4-1,3.7-3.34,3.7a7.56,7.56,0,0,1-2.28-.36l.41-1.58A6.55,6.55,0,0,0,272.4,70.88Zm3.6-17h-2.06V51.36H276Z"/>
      <path d="M288.79,59.76V68h-1.87V66.51a4.58,4.58,0,0,1-4,1.84c-2.3,0-4.22-1-4.22-3.31,0-2.76,2.54-3.57,5.49-4.1l2.64-.48v-.6c0-1.49-1.12-2.33-2.76-2.33s-2.49.58-3.88,2l-1.32-1.17A6.35,6.35,0,0,1,284,55.83C287.11,55.83,288.79,57.46,288.79,59.76Zm-2,3.79V62l-2.16.44c-2.3.48-4,.91-4,2.54,0,1.08.92,1.68,2.43,1.68C285.17,66.65,286.82,65.5,286.82,63.55Z"/>
      <path d="M306.31,57.55,305.18,59a5.37,5.37,0,0,0-3.72-1.44c-1.6,0-2.59.74-2.59,1.75s1,1.27,3.17,1.75c3.07.7,4.46,1.54,4.46,3.62s-1.87,3.68-4.72,3.68a7.4,7.4,0,0,1-5.45-2.21l1.22-1.35c1.75,1.47,2.81,1.85,4.25,1.85s2.69-.69,2.69-1.87-1.42-1.66-3.31-2.06c-3.15-.68-4.3-1.37-4.3-3.34s1.85-3.5,4.58-3.5A7,7,0,0,1,306.31,57.55Z"/>
      <path d="M319.94,62.07c0,3.69-2.4,6.24-5.83,6.24s-5.86-2.55-5.86-6.24,2.41-6.24,5.86-6.24S319.94,58.37,319.94,62.07Zm-4.22-9.53c.6,0,.77-.58.77-1.27h1.29c0,1.63-.74,2.66-1.94,2.66s-2.35-1.25-3.41-1.25c-.57,0-.82.58-.82,1.23H310.3c0-1.64.86-2.64,2.13-2.64S314.74,52.54,315.72,52.54Zm-5.35,9.53c0,2.66,1.46,4.51,3.74,4.51s3.72-1.85,3.72-4.51-1.44-4.52-3.72-4.52S310.37,59.4,310.37,62.07Z"/>
      <path d="M333.62,62.07c0,3.74-2.2,6.21-5.2,6.21a4.4,4.4,0,0,1-4-2.09V68h-1.94v-17h2.06v6.89a4.43,4.43,0,0,1,3.92-2C331.46,55.85,333.62,58.32,333.62,62.07Zm-2.11,0c0-2.67-1.34-4.47-3.41-4.47s-3.67,1.66-3.67,4.47,1.56,4.44,3.67,4.44S331.51,64.73,331.51,62.07Z"/>
      <path d="M342.91,56.38l-.38,1.73a5.52,5.52,0,0,0-1.54-.24c-1.58,0-2.76,1.36-2.76,3.76V68h-2.06V56.16h1.94v1.78A3.14,3.14,0,0,1,341,56,5.55,5.55,0,0,1,342.91,56.38Z"/>
      <path d="M354.07,59.76V68H352.2V66.51a4.58,4.58,0,0,1-4,1.84c-2.3,0-4.22-1-4.22-3.31,0-2.76,2.54-3.57,5.49-4.1l2.64-.48v-.6c0-1.49-1.13-2.33-2.76-2.33s-2.49.58-3.89,2l-1.32-1.17a6.39,6.39,0,0,1,5.14-2.52C352.39,55.83,354.07,57.46,354.07,59.76Zm-2,3.79V62l-2.16.44c-2.3.48-4,.91-4,2.54,0,1.08.91,1.68,2.43,1.68C350.45,66.65,352.1,65.5,352.1,63.55Z"/>
      <path d="M359.4,68h-2.07v-17h2.07Z"/>
      <path d="M364.75,53.83h-2.06V51.36h2.06Zm0,14.14h-2.06V56.16h2.06Z"/>
      <path d="M372.17,62,370,64.18V68H368v-17H370v11l5.5-5.74h2.52l-4.49,4.56L378.41,68H376.1Z"/>
      <path d="M384.36,62l-2.14,2.14V68h-2.06v-17h2.06v11l5.5-5.74h2.52l-4.49,4.56L390.6,68h-2.31Z"/>
      <path d="M402,56.16V68H400.1V66.51a4,4,0,0,1-3.57,1.8c-3,0-4.21-1.73-4.21-3.87V56.16h2.07v7.78a2.27,2.27,0,0,0,2.47,2.59,2.92,2.92,0,0,0,3.1-3.17v-7.2Z"/>
      <path d="M414.12,57.55,413,59a5.4,5.4,0,0,0-3.72-1.44c-1.61,0-2.59.74-2.59,1.75s1,1.27,3.17,1.75c3.07.7,4.46,1.54,4.46,3.62s-1.87,3.68-4.73,3.68a7.4,7.4,0,0,1-5.45-2.21l1.23-1.35c1.75,1.47,2.8,1.85,4.25,1.85s2.68-.69,2.68-1.87-1.41-1.66-3.31-2.06c-3.14-.68-4.3-1.37-4.3-3.34s1.85-3.5,4.59-3.5A7,7,0,0,1,414.12,57.55Z"/>
    </g>
    <g>
      <path d="M27.7,179.45H18.58V185h8.5v1.85h-8.5v6h9.34v1.85H16.37v-17H27.7Z"/>
      <path d="M40.9,192.54A6.48,6.48,0,0,1,35.76,195c-3.6,0-5.85-2.47-5.85-6.16s2.18-6.32,5.64-6.32,5.33,2.21,5.33,5.69c0,.24,0,.7-.05.91H32c.12,2.19,1.25,4.16,3.82,4.16,1.51,0,2.4-.56,3.89-2Zm-8.88-5h6.82c-.1-2-1.25-3.41-3.32-3.41S32.33,185.38,32,187.57Z"/>
      <path d="M52.32,184.23l-1.12,1.39a5.44,5.44,0,0,0-3.72-1.44c-1.61,0-2.6.75-2.6,1.76s1,1.27,3.17,1.75c3.07.69,4.47,1.53,4.47,3.62S50.64,195,47.79,195a7.43,7.43,0,0,1-5.45-2.2l1.22-1.35c1.76,1.47,2.81,1.85,4.25,1.85s2.69-.7,2.69-1.87-1.42-1.66-3.31-2.07c-3.15-.67-4.3-1.36-4.3-3.33s1.85-3.51,4.59-3.51A7,7,0,0,1,52.32,184.23Z"/>
      <path d="M71.24,186.42v8.23H69.17V187c0-1.7-.74-2.73-2.35-2.73a2.7,2.7,0,0,0-2.71,3v7.42H62V187c0-1.7-.74-2.73-2.35-2.73a2.69,2.69,0,0,0-2.69,3v7.42H54.94V182.84h1.94v1.42a3.7,3.7,0,0,1,3.39-1.76,3.58,3.58,0,0,1,3.41,1.92,4.06,4.06,0,0,1,3.62-1.92A3.63,3.63,0,0,1,71.24,186.42Z"/>
      <path d="M84,186.44v8.21H82.13v-1.47a4.59,4.59,0,0,1-4,1.85c-2.3,0-4.22-1-4.22-3.31,0-2.76,2.54-3.58,5.49-4.1l2.64-.48v-.6c0-1.49-1.12-2.33-2.75-2.33s-2.5.57-3.89,2L74.07,185a6.38,6.38,0,0,1,5.13-2.52C82.32,182.5,84,184.14,84,186.44Zm-2,3.79v-1.56l-2.16.43c-2.3.48-4,.92-4,2.55,0,1.08.92,1.68,2.43,1.68C80.38,193.33,82,192.18,82,190.23Zm-3.91-9.72h-2V178h2Zm4.25,0h-2V178h2Z"/>
      <path d="M93.94,183.06l-.38,1.72a6,6,0,0,0-1.54-.24c-1.58,0-2.76,1.37-2.76,3.77v6.34H87.2V182.84h1.94v1.78a3.13,3.13,0,0,1,2.93-1.92A5.36,5.36,0,0,1,93.94,183.06Z"/>
      <path d="M106.13,182.84v11.54c0,3.1-2.11,4.9-5.35,4.9a9,9,0,0,1-5.35-1.75l1-1.51a7.71,7.71,0,0,0,4.29,1.51,3,3,0,0,0,3.34-3.31v-1.61a4.26,4.26,0,0,1-3.77,1.89c-3.07,0-5.18-2.49-5.18-6s2.11-6,5.18-6a4.24,4.24,0,0,1,3.89,2.09v-1.75Zm-2,5.66c0-2.47-1.39-4.24-3.48-4.24s-3.41,1.77-3.41,4.24,1.25,4.25,3.41,4.25S104.14,191,104.14,188.5Z"/>
      <path d="M111.41,180.51h-2.06V178h2.06Zm0,14.14h-2.06V182.84h2.06Z"/>
      <path d="M125.81,188.72c0,3.77-2.18,6.24-5.21,6.24a4.38,4.38,0,0,1-3.91-1.9V199h-2.06V182.84h1.94v1.82a4.44,4.44,0,0,1,4-2.13C123.63,182.53,125.81,185,125.81,188.72Zm-2.11,0c0-2.64-1.32-4.44-3.41-4.44s-3.67,1.66-3.67,4.44,1.56,4.46,3.67,4.46S123.7,191.41,123.7,188.72Z"/>
      <path d="M137.93,186.44v8.21h-1.87v-1.47a4.59,4.59,0,0,1-4,1.85c-2.31,0-4.23-1-4.23-3.31,0-2.76,2.55-3.58,5.5-4.1l2.64-.48v-.6c0-1.49-1.13-2.33-2.76-2.33s-2.5.57-3.89,2L128,185a6.42,6.42,0,0,1,5.14-2.52C136.25,182.5,137.93,184.14,137.93,186.44Zm-2,3.79v-1.56l-2.16.43c-2.3.48-4,.92-4,2.55,0,1.08.91,1.68,2.43,1.68C134.31,193.33,136,192.18,136,190.23Zm-3.91-9.72h-2V178h2Zm4.25,0h-2V178h2Z"/>
      <path d="M147.87,183.06l-.39,1.72a5.91,5.91,0,0,0-1.53-.24c-1.59,0-2.76,1.37-2.76,3.77v6.34h-2.07V182.84h1.95v1.78A3.11,3.11,0,0,1,146,182.7,5.38,5.38,0,0,1,147.87,183.06Z"/>
      <path d="M159.29,186.44v8.21h-1.87v-1.47a4.59,4.59,0,0,1-4,1.85c-2.3,0-4.22-1-4.22-3.31,0-2.76,2.54-3.58,5.49-4.1l2.64-.48v-.6c0-1.49-1.13-2.33-2.76-2.33s-2.49.57-3.89,2L149.35,185a6.42,6.42,0,0,1,5.14-2.52C157.61,182.5,159.29,184.14,159.29,186.44Zm-2,3.79v-1.56l-2.16.43c-2.3.48-4,.92-4,2.55,0,1.08.91,1.68,2.43,1.68C155.67,193.33,157.32,192.18,157.32,190.23Z"/>
      <path d="M171.36,184.23l-1.13,1.39a5.43,5.43,0,0,0-3.72-1.44c-1.6,0-2.59.75-2.59,1.76s1,1.27,3.17,1.75c3.07.69,4.46,1.53,4.46,3.62s-1.87,3.67-4.73,3.67a7.42,7.42,0,0,1-5.44-2.2l1.22-1.35c1.75,1.47,2.81,1.85,4.25,1.85s2.69-.7,2.69-1.87-1.42-1.66-3.31-2.07c-3.15-.67-4.3-1.36-4.3-3.33s1.85-3.51,4.58-3.51A7,7,0,0,1,171.36,184.23Z"/>
      <path d="M183.65,182.84v11.81h-1.92v-1.47a4,4,0,0,1-3.58,1.8c-3,0-4.2-1.72-4.2-3.86v-8.28H176v7.78a2.27,2.27,0,0,0,2.47,2.59,2.92,2.92,0,0,0,3.1-3.17v-7.2Z"/>
      <path d="M195.75,184.23l-1.13,1.39a5.44,5.44,0,0,0-3.72-1.44c-1.61,0-2.6.75-2.6,1.76s1,1.27,3.17,1.75c3.08.69,4.47,1.53,4.47,3.62s-1.87,3.67-4.73,3.67a7.43,7.43,0,0,1-5.45-2.2l1.23-1.35c1.75,1.47,2.8,1.85,4.24,1.85s2.69-.7,2.69-1.87-1.41-1.66-3.31-2.07c-3.15-.67-4.3-1.36-4.3-3.33s1.85-3.51,4.59-3.51A7,7,0,0,1,195.75,184.23Z"/>
      <path d="M26.52,226.35c1.16,0,1.51-.67,1.51-2V211.64H30.1v12.72c0,2.4-1,3.7-3.34,3.7a8,8,0,0,1-2.28-.36l.41-1.59A6.17,6.17,0,0,0,26.52,226.35Zm3.6-17H28.06v-2.47h2.06Z"/>
      <path d="M42.92,215.24v8.21H41V222a4.58,4.58,0,0,1-4,1.85c-2.31,0-4.23-1-4.23-3.31,0-2.76,2.55-3.58,5.5-4.1l2.64-.48v-.6c0-1.49-1.13-2.33-2.76-2.33s-2.5.57-3.89,2L33,213.82a6.37,6.37,0,0,1,5.14-2.52C41.24,211.3,42.92,212.94,42.92,215.24ZM41,219v-1.56l-2.16.43c-2.31.48-4,.92-4,2.55,0,1.08.91,1.68,2.42,1.68C39.29,222.13,41,221,41,219Z"/>
      <path d="M58.06,223.26a7.23,7.23,0,0,1-2.42.4c-2.26,0-3-1.08-3-2.95V213.2H50.38v-1.56h2.21v-4h2.06v4h3.19v1.56H54.65v7.27c0,1.06.41,1.44,1.39,1.44a6.19,6.19,0,0,0,1.71-.29Z"/>
      <path d="M70.37,221.34a6.46,6.46,0,0,1-5.13,2.44c-3.6,0-5.86-2.47-5.86-6.16s2.18-6.32,5.64-6.32,5.33,2.21,5.33,5.69c0,.24,0,.7,0,.91H61.44c.12,2.19,1.25,4.16,3.82,4.16,1.51,0,2.4-.56,3.89-2Zm-8.88-5h6.82c-.1-2-1.25-3.41-3.31-3.41S61.8,214.18,61.49,216.37Z"/>
      <path d="M82.49,215.24v8.21H80.62V222a4.59,4.59,0,0,1-4,1.85c-2.3,0-4.22-1-4.22-3.31,0-2.76,2.54-3.58,5.49-4.1l2.64-.48v-.6c0-1.49-1.12-2.33-2.76-2.33s-2.49.57-3.89,2l-1.32-1.18a6.39,6.39,0,0,1,5.14-2.52C80.81,211.3,82.49,212.94,82.49,215.24Zm-2,3.79v-1.56l-2.16.43c-2.3.48-4,.92-4,2.55,0,1.08.92,1.68,2.43,1.68C78.87,222.13,80.52,221,80.52,219Z"/>
      <path d="M96.2,206.41v17h-2v-1.83a4.43,4.43,0,0,1-4,2.14c-3,0-5.21-2.47-5.21-6.22s2.23-6.21,5.26-6.21a4.37,4.37,0,0,1,3.86,1.89v-6.81Zm-2,11.13c0-2.8-1.53-4.44-3.67-4.44s-3.41,1.78-3.41,4.44S88.44,222,90.53,222,94.2,220.35,94.2,217.54Z"/>
      <path d="M115.71,215.22v8.23h-2.07v-7.66c0-1.7-.74-2.74-2.35-2.74a2.71,2.71,0,0,0-2.71,3v7.42h-2.06v-7.66c0-1.7-.75-2.74-2.36-2.74a2.7,2.7,0,0,0-2.69,3v7.42H99.41V211.64h2v1.41a3.69,3.69,0,0,1,3.38-1.75,3.58,3.58,0,0,1,3.41,1.92,4,4,0,0,1,3.62-1.92A3.63,3.63,0,0,1,115.71,215.22Z"/>
      <path d="M121,209.31H118.9v-2.47H121Zm0,14.14H118.9V211.64H121Z"/>
      <path d="M133.06,213l-1.13,1.39a5.44,5.44,0,0,0-3.72-1.44c-1.61,0-2.59.75-2.59,1.76s1,1.27,3.17,1.75c3.07.69,4.46,1.53,4.46,3.62s-1.87,3.67-4.73,3.67a7.44,7.44,0,0,1-5.45-2.2l1.23-1.35c1.75,1.47,2.81,1.85,4.25,1.85s2.69-.7,2.69-1.87-1.42-1.66-3.32-2.07c-3.14-.67-4.29-1.36-4.29-3.33s1.84-3.51,4.58-3.51A7,7,0,0,1,133.06,213Z"/>
      <path d="M145.56,215.36v8.09H143.5V216c0-1.95-1-3-2.71-3a3,3,0,0,0-3,3.08v7.32h-2.07v-17h2.07V213a4.28,4.28,0,0,1,3.6-1.68A3.86,3.86,0,0,1,145.56,215.36Z"/>
      <path d="M150.82,209.31h-2.07v-2.47h2.07Zm0,14.14h-2.07V211.64h2.07Z"/>
      <path d="M170.33,215.22v8.23h-2.06v-7.66c0-1.7-.75-2.74-2.36-2.74a2.71,2.71,0,0,0-2.71,3v7.42h-2.06v-7.66c0-1.7-.75-2.74-2.35-2.74a2.7,2.7,0,0,0-2.69,3v7.42H154V211.64H156v1.41a3.69,3.69,0,0,1,3.38-1.75,3.58,3.58,0,0,1,3.41,1.92,4,4,0,0,1,3.62-1.92A3.63,3.63,0,0,1,170.33,215.22Z"/>
      <path d="M183.19,211.64v11.81h-1.92V222a4,4,0,0,1-3.57,1.8c-3,0-4.2-1.72-4.2-3.86v-8.28h2.06v7.78A2.28,2.28,0,0,0,178,222a2.92,2.92,0,0,0,3.1-3.17v-7.2Z"/>
    </g>
    <g>
      <path d="M149.32,379.33l-3,3.15v5.64h-2.21v-17h2.21v8.71l8.3-8.71h2.76l-6.5,6.72,6.84,10.32h-2.52Z"/>
      <path d="M170.06,382.21c0,3.7-2.4,6.24-5.83,6.24s-5.86-2.54-5.86-6.24,2.4-6.24,5.86-6.24S170.06,378.52,170.06,382.21Zm-9.58,0c0,2.67,1.47,4.52,3.75,4.52s3.72-1.85,3.72-4.52-1.44-4.51-3.72-4.51S160.48,379.55,160.48,382.21Z"/>
      <path d="M183.67,382.21c0,3.7-2.4,6.24-5.84,6.24s-5.85-2.54-5.85-6.24,2.4-6.24,5.85-6.24S183.67,378.52,183.67,382.21Zm-9.58,0c0,2.67,1.47,4.52,3.74,4.52s3.73-1.85,3.73-4.52-1.45-4.51-3.73-4.51S174.09,379.55,174.09,382.21Z"/>
      <path d="M195,377.7l-1.13,1.39a5.41,5.41,0,0,0-3.71-1.44c-1.61,0-2.6.75-2.6,1.75s1,1.28,3.17,1.76c3.07.69,4.47,1.53,4.47,3.62s-1.88,3.67-4.73,3.67a7.43,7.43,0,0,1-5.45-2.2l1.22-1.35c1.75,1.47,2.81,1.85,4.25,1.85s2.69-.7,2.69-1.87-1.42-1.66-3.31-2.07c-3.15-.67-4.3-1.36-4.3-3.33s1.85-3.51,4.59-3.51A7,7,0,0,1,195,377.7Z"/>
      <path d="M204.09,387.93a7.23,7.23,0,0,1-2.42.4c-2.26,0-3-1.08-3-2.95v-7.51h-2.21v-1.56h2.21v-4h2.06v4h3.19v1.56h-3.19v7.27c0,1.06.41,1.44,1.39,1.44a6.19,6.19,0,0,0,1.71-.29Z"/>
      <path d="M216.74,382.21c0,3.7-2.4,6.24-5.83,6.24s-5.86-2.54-5.86-6.24,2.4-6.24,5.86-6.24S216.74,378.52,216.74,382.21Zm-9.58,0c0,2.67,1.47,4.52,3.75,4.52s3.72-1.85,3.72-4.52-1.44-4.51-3.72-4.51S207.16,379.55,207.16,382.21Zm2.57-8.23h-2v-2.47h2Zm4.25,0h-2v-2.47h2Z"/>
      <path d="M230.32,382.21c0,3.7-2.4,6.24-5.83,6.24s-5.86-2.54-5.86-6.24S221,376,224.49,376,230.32,378.52,230.32,382.21Zm-9.57,0c0,2.67,1.46,4.52,3.74,4.52s3.72-1.85,3.72-4.52-1.44-4.51-3.72-4.51S220.75,379.55,220.75,382.21Zm2.56-8.23h-2v-2.47h2Zm4.25,0h-2v-2.47h2Z"/>
      <path d="M124.39,419.82c1.15,0,1.51-.67,1.51-2V405.11H128v12.72c0,2.4-1,3.7-3.33,3.7a7.83,7.83,0,0,1-2.28-.36l.41-1.59A6.12,6.12,0,0,0,124.39,419.82Zm3.6-17h-2.07v-2.47H128Z"/>
      <path d="M140.78,408.71v8.21h-1.87v-1.47a4.59,4.59,0,0,1-4,1.85c-2.3,0-4.22-1-4.22-3.31,0-2.76,2.54-3.58,5.49-4.11l2.64-.48v-.6c0-1.48-1.12-2.32-2.76-2.32s-2.49.57-3.89,2l-1.32-1.18a6.39,6.39,0,0,1,5.14-2.52C139.1,404.77,140.78,406.4,140.78,408.71Zm-2,3.79v-1.56l-2.16.43c-2.3.48-4,.91-4,2.55,0,1.08.92,1.68,2.43,1.68C137.16,415.6,138.81,414.45,138.81,412.5Z"/>
      <path d="M151.48,402.78h-2.06v-2.47h2.06Zm0,14.14h-2.06V405.11h2.06Z"/>
      <path d="M163.58,406.5l-1.13,1.39a5.43,5.43,0,0,0-3.72-1.44c-1.61,0-2.59.75-2.59,1.75s1,1.28,3.17,1.76c3.07.69,4.46,1.53,4.46,3.62s-1.87,3.67-4.73,3.67a7.42,7.42,0,0,1-5.44-2.2l1.22-1.35c1.75,1.47,2.81,1.85,4.25,1.85s2.69-.7,2.69-1.87-1.42-1.66-3.32-2.07c-3.14-.67-4.29-1.37-4.29-3.33s1.85-3.51,4.58-3.51A7,7,0,0,1,163.58,406.5Z"/>
      <path d="M176.52,414.8a6.46,6.46,0,0,1-5.14,2.45c-3.6,0-5.86-2.47-5.86-6.17s2.19-6.31,5.64-6.31,5.33,2.21,5.33,5.69a8.76,8.76,0,0,1-.05.91h-8.85c.12,2.19,1.25,4.16,3.81,4.16,1.52,0,2.4-.56,3.89-2Zm-8.88-5h6.81c-.09-2-1.25-3.41-3.31-3.41S168,407.65,167.64,409.84Z"/>
      <path d="M188,406.5l-1.13,1.39a5.41,5.41,0,0,0-3.72-1.44c-1.6,0-2.59.75-2.59,1.75s1,1.28,3.17,1.76c3.07.69,4.46,1.53,4.46,3.62s-1.87,3.67-4.72,3.67a7.43,7.43,0,0,1-5.45-2.2l1.22-1.35c1.75,1.47,2.81,1.85,4.25,1.85s2.69-.7,2.69-1.87-1.42-1.66-3.31-2.07c-3.15-.67-4.3-1.37-4.3-3.33s1.85-3.51,4.58-3.51A7,7,0,0,1,188,406.5Z"/>
      <path d="M200.92,414.8a6.43,6.43,0,0,1-5.13,2.45c-3.6,0-5.86-2.47-5.86-6.17s2.18-6.31,5.64-6.31,5.33,2.21,5.33,5.69a8.76,8.76,0,0,1-.05.91H192c.12,2.19,1.25,4.16,3.82,4.16,1.51,0,2.4-.56,3.89-2Zm-8.88-5h6.82c-.1-2-1.25-3.41-3.31-3.41S192.36,407.65,192,409.84Z"/>
      <path d="M205.53,402.78h-2.06v-2.47h2.06Zm0,14.14h-2.06V405.11h2.06Z"/>
      <path d="M217.63,406.5l-1.13,1.39a5.44,5.44,0,0,0-3.72-1.44c-1.61,0-2.59.75-2.59,1.75s1,1.28,3.17,1.76c3.07.69,4.46,1.53,4.46,3.62s-1.87,3.67-4.73,3.67a7.43,7.43,0,0,1-5.45-2.2l1.23-1.35c1.75,1.47,2.8,1.85,4.24,1.85s2.69-.7,2.69-1.87-1.41-1.66-3.31-2.07c-3.14-.67-4.3-1.37-4.3-3.33s1.85-3.51,4.59-3.51A7,7,0,0,1,217.63,406.5Z"/>
      <path d="M229.8,405.11l-4.11,11.81h-2.62L219,405.11h2.17l1.46,4.34c.74,2.28,1.34,4.18,1.8,5.81.45-1.63,1.06-3.53,1.8-5.81l1.46-4.34Z"/>
      <path d="M241.44,405.11v11.81h-1.93v-1.47a4,4,0,0,1-3.57,1.8c-3,0-4.2-1.72-4.2-3.86v-8.28h2.06v7.78a2.28,2.28,0,0,0,2.47,2.59,2.92,2.92,0,0,0,3.1-3.17v-7.2Z"/>
      <path d="M253.53,406.5l-1.13,1.39a5.43,5.43,0,0,0-3.72-1.44c-1.61,0-2.59.75-2.59,1.75s1,1.28,3.17,1.76c3.07.69,4.46,1.53,4.46,3.62s-1.87,3.67-4.73,3.67a7.42,7.42,0,0,1-5.44-2.2l1.22-1.35c1.75,1.47,2.81,1.85,4.25,1.85s2.69-.7,2.69-1.87-1.42-1.66-3.32-2.07c-3.14-.67-4.29-1.37-4.29-3.33s1.85-3.51,4.58-3.51A7,7,0,0,1,253.53,406.5Z"/>
    </g>
  </g>
</svg>
