{
  "name": "S42-pargid",
  "title": "Планируемая зеленая сеть передвижения",
  "year": "2035",
  "caption": "",
  "maxBounds": [
    [
      24.4,
      59.25
    ],
    [
      25.145,
      59.65
    ]
  ],
  "clickRadius": 2,
  "sources": [
    "S42-pargid-alad.geojson",
    "S42-pargid-liikumised.geojson"
  ],
  "popup": {
    "template": "{% for key, data in sources %}{% if data.nimi_ru %}<b>{{data.nimi_ru if loop.first}}</b>{% endif %}{% endfor %}"
  },
  "legend": [
    [
      {
        "color": "rgb(51, 171, 97, 0.6)",
        "text": "Зеленая зона"
      },
      {
        "icon": "green_line_fat",
        "text": "Походная трасса"
      }
    ]
  ]
}