<svg id="Layer_1" data-name="Layer 1" xmlns="http://www.w3.org/2000/svg" viewBox="0 0 3000 2250">
  <defs>
    <style>
      .cls-1 {
        fill: #33ac56;
      }

      .cls-18, .cls-19, .cls-2, .cls-22, .cls-31 {
        fill: none;
      }

      .cls-18, .cls-19, .cls-2, .cls-20, .cls-22, .cls-24 {
        stroke: #000;
      }

      .cls-18, .cls-2, .cls-20, .cls-24, .cls-31 {
        stroke-linecap: round;
      }

      .cls-18, .cls-19, .cls-2, .cls-20, .cls-24, .cls-31 {
        stroke-linejoin: round;
      }

      .cls-2, .cls-20, .cls-22, .cls-24, .cls-31 {
        stroke-width: 10px;
      }

      .cls-3 {
        fill: #66c180;
      }

      .cls-4 {
        fill: #8b5e3c;
      }

      .cls-5 {
        fill: #ff5965;
      }

      .cls-20, .cls-6 {
        fill: #666;
      }

      .cls-7 {
        fill: #f1f1f1;
      }

      .cls-8 {
        fill: #e5e5e5;
      }

      .cls-9 {
        fill: #999;
      }

      .cls-10 {
        fill: #989898;
      }

      .cls-11 {
        fill: #8c8c8c;
      }

      .cls-12 {
        fill: #99c7ed;
      }

      .cls-13 {
        fill: #cce3f6;
      }

      .cls-14 {
        fill: #b2b2b2;
      }

      .cls-15 {
        fill: #ffeda8;
      }

      .cls-16 {
        fill: #00972c;
      }

      .cls-17 {
        fill: #ffd126;
      }

      .cls-18, .cls-19 {
        stroke-width: 8px;
      }

      .cls-21 {
        fill: #338fdb;
      }

      .cls-22 {
        stroke-miterlimit: 10;
      }

      .cls-23, .cls-24 {
        fill: #f7f7f7;
      }

      .cls-25 {
        fill: #333;
      }

      .cls-26 {
        fill: #dcb8a6;
      }

      .cls-27 {
        fill: #66abe4;
      }

      .cls-28 {
        fill: #ffc1c5;
      }

      .cls-29 {
        fill: #a27e63;
      }

      .cls-30 {
        fill: #ffe47d;
      }

      .cls-31 {
        stroke: #1d1d1b;
      }
    </style>
  </defs>
  <g>
    <g>
      <rect class="cls-1" x="159.4" y="1675.31" width="2681.2" height="376.75"/>
      <rect class="cls-2" x="159.4" y="1675.31" width="2681.2" height="376.75"/>
    </g>
    <g>
      <g>
        <path class="cls-3" d="M2743.1,1510a17.47,17.47,0,1,1-22.95-23c-10.47,3.57-23.55-3.85-25.42-14.88-2-11.55,9-23.39,20.64-22.37A25.55,25.55,0,0,1,2697,1432c-2.25-8.66.95-18.59,8.1-24s17.83-5.65,25-.32c-4.08-4.29-8.26-8.72-10.46-14.22s-2-12.38,2-16.72c3.42-3.66,8.92-4.79,13.86-4s9.45,3.27,13.72,5.9l.21-.4c-2-4.78-4.07-9.66-4.52-14.83s1-10.77,4.87-14.18a12.4,12.4,0,0,1,19.39,4.16c.26-7.2,3.36-14.41,8.94-19s13.63-6.19,20.3-3.45a21.91,21.91,0,0,1,11,10.9,35.74,35.74,0,0,1,3.18,15.41c3.41-5.09,7.6-10.66,13.69-11.34,4.65-.53,9.28,2.19,11.84,6.11s3.27,8.81,2.85,13.47a56.87,56.87,0,0,1-3.09,12.73c4.06-2.48,8.35-4.73,13-5.49,4.94-.8,10.44.33,13.86,4,4,4.34,4.21,11.22,2,16.72s-6.38,9.93-10.46,14.22c7.18-5.33,17.88-5.07,25,.32s10.35,15.32,8.1,24a25.54,25.54,0,0,1-18.36,17.79c11.67-1,22.61,10.82,20.65,22.37-1.87,11-15,18.45-25.43,14.88a17.47,17.47,0,1,1-22.94,23c2.11,5.07,4.17,10.28,4.25,15.76.09,5.71-2.47,11.85-7.62,14.31s-11.8.52-16.19-3.32-7.1-9.2-9.71-14.41c-.52,6.51-1.29,13.17-4.3,19a21.36,21.36,0,0,1-2.78,4.13c-3.17,3.78-7.6,6.49-12.49,6.57a11.38,11.38,0,0,1-1.31-.06,11.66,11.66,0,0,1-1.32.06,16.47,16.47,0,0,1-11.3-5.26,22,22,0,0,1-4-5.44c-3-5.8-3.78-12.46-4.3-19-2.61,5.21-5.32,10.57-9.71,14.41s-10.92,5.83-16.19,3.32-7.72-8.6-7.63-14.31C2738.93,1520.27,2741,1515.06,2743.1,1510Z"/>
        <path class="cls-4" d="M2819.94,1674.44h-54.29a522.42,522.42,0,0,0,15-127.7,16.47,16.47,0,0,0,11.3,5.26,11.66,11.66,0,0,0,1.32-.06,11.38,11.38,0,0,0,1.31.06c4.89-.08,9.32-2.79,12.49-6.57C2806.64,1589.43,2810.6,1636.68,2819.94,1674.44Z"/>
      </g>
      <g>
        <path class="cls-2" d="M2780.64,1546.74a522.42,522.42,0,0,1-15,127.7h54.29c-9.34-37.76-13.3-85-12.88-129"/>
        <path class="cls-2" d="M2843.14,1509.34l.25.61s0,0,0,0a17.47,17.47,0,1,0,22.94-23c10.48,3.57,23.56-3.85,25.43-14.88,2-11.55-9-23.39-20.65-22.37a25.54,25.54,0,0,0,18.36-17.79c2.25-8.66-.95-18.59-8.1-24s-17.83-5.65-25-.32c4.08-4.29,8.26-8.72,10.46-14.22s2-12.38-2-16.72c-3.42-3.66-8.92-4.79-13.86-4-4.68.76-9,3-13,5.49a56.87,56.87,0,0,0,3.09-12.73c.42-4.66-.29-9.55-2.85-13.47s-7.19-6.64-11.84-6.11c-6.09.68-10.28,6.25-13.69,11.34a35.74,35.74,0,0,0-3.18-15.41,21.91,21.91,0,0,0-11-10.9c-6.67-2.74-14.73-1.12-20.3,3.45s-8.68,11.79-8.94,19a12.4,12.4,0,0,0-19.39-4.16c-3.91,3.41-5.32,9-4.87,14.18s2.5,10,4.52,14.83l-.21.4c-4.27-2.63-8.77-5.1-13.72-5.9s-10.44.33-13.86,4c-4,4.34-4.21,11.22-2,16.72s6.38,9.93,10.46,14.22c-7.18-5.33-17.88-5.07-25,.32s-10.35,15.32-8.1,24a25.55,25.55,0,0,0,18.35,17.79c-11.65-1-22.6,10.82-20.64,22.37,1.87,11,14.95,18.45,25.42,14.88a17.47,17.47,0,1,0,22.95,23"/>
        <path class="cls-2" d="M2743.37,1509.34c-.08.21-.17.43-.27.65-2.11,5.07-4.17,10.28-4.26,15.76-.09,5.71,2.48,11.85,7.63,14.31s11.79.52,16.19-3.32,7.1-9.2,9.71-14.41c.52,6.51,1.29,13.17,4.3,19a22,22,0,0,0,4,5.44,16.47,16.47,0,0,0,11.3,5.26,11.66,11.66,0,0,0,1.32-.06,11.38,11.38,0,0,0,1.31.06c4.89-.08,9.32-2.79,12.49-6.57a21.36,21.36,0,0,0,2.78-4.13c3-5.8,3.78-12.46,4.3-19,2.61,5.21,5.33,10.57,9.71,14.41s10.92,5.83,16.19,3.32,7.71-8.6,7.62-14.31c-.08-5.48-2.14-10.69-4.25-15.76"/>
      </g>
    </g>
    <g>
      <g>
        <polygon class="cls-5" points="2766.09 621.19 1158.6 621.25 1117.81 621.25 1117.81 593.06 2801.86 593 2801.86 621.18 2766.09 621.19"/>
        <polygon class="cls-5" points="2779.87 1449.35 2779.87 1545.51 2767.76 1545.51 2766.13 1545.51 2766.12 1449.35 2767.76 1449.35 2779.87 1449.35"/>
        <path class="cls-6" d="M2766.13,1624.91v49.45l-385.66,0v-49.45h1.88l383.43,0Z"/>
        <path class="cls-7" d="M2766.13,1545.51v79.4h-.35l-383.43,0h-1.88V1450.64h-155v174.29L1712,1625V1450.5l19.32,0,.14-14.34-102.1-47.79-78.11,50.44.29,11.39h.31v.43L1550.28,1625H1158.63l0-1002.35v-1.38l1607.49,0,0,828.16Zm-40.33-360.15V1128H2717v-72.15H2539.66v72.15h-8v57.31Zm0,197.78v-57.31H2717v-72.15h-177.3v72.15h-8v57.32Zm-.21,197.79v-57.32H2717v-72.15H2532.16v72.15h-.49v57.32Zm0-593.36V930.25H2717V858.1H2539.66v72.15h-8v57.32Zm0-197.79V732.46H2717V660.32H2539.65v72.15h-8v57.32Zm-236.15,754.29v-92.25h-88.12v92.25h88.13Zm0-197.79V1254h-88.13v92.24h88.13Zm0-197.79v-92.24h-88.13v92.25h88.12Zm-10.72-395.57V660.67h-77.41v92.24h77.42ZM2468,950.71V858.46h-66.73v92.25H2468ZM2344.34,1346.8v-314h-93.72v314ZM2195.48,752.93V660.68h-88.15v92.24Zm-3,791.15v-92.25h-85.16v92.25Zm0-197.79V1254h-85.16v92.24Zm0-197.79v-92.24h-85.16v92.25h85.16ZM2065.07,1581v-57.32h-8v-72.15H1879.74v72.15h-8.56V1581Zm0-197.79v-57.32h-8V1253.7H1879.73v72.15h-8.56v57.32Zm0-197.79v-57.32h-8v-72.15H1879.72v72.15h-8.57v57.32Zm0-197.79V930.28h-8V858.13H1879.72v72.15h-8.56V987.6Zm-243.37,556.5v-92.25h-88.15v92.24Zm0-197.79v-92.24h-88.14v92.25Zm0-197.78v-92.25h-86.21l-1.94,92.25h88.15Zm0-197.79V858.48h-88.15v92.24h88.15Zm0-197.79V660.7H1733.5V753Zm-145.84,593.88v-314h-93.72v314Zm0-355V658.49h-93.72V991.77ZM1527,1544.1v-92.24h-88.15v92.24Zm0-197.79v-92.24h-88.15v92.25Zm0-197.78v-92.25h-88.15v92.25Zm0-197.79V858.49h-88.15v92.24ZM1527,753V660.71H1438.8V753Zm-130.4,828v-57.32h-8v-72.15H1211.21v72.15h-8.57V1581Zm0-197.79v-57.32h-8v-72.14H1211.29v72.15h-8.83l.6,57.32Zm0-197.78v-57.32h-8v-72.15H1211.2v72.15h-8.15l-.59,57.32Zm0-197.79V930.3h-8V858.15H1211.19v72.15h-8.57v57.32Zm0-197.79V732.51h-8V660.36H1211.19v72.15h-8.56v57.32Z"/>
        <polygon class="cls-5" points="2725.8 1128.04 2725.8 1185.36 2531.66 1185.37 2531.66 1128.05 2539.66 1128.05 2670.24 1128.04 2716.99 1128.04 2725.8 1128.04"/>
        <polygon class="cls-5" points="2725.78 1325.83 2725.78 1383.14 2531.66 1383.15 2531.66 1325.83 2539.67 1325.83 2670.25 1325.83 2716.97 1325.83 2725.78 1325.83"/>
        <polygon class="cls-5" points="2725.56 1523.61 2725.57 1580.93 2531.67 1580.94 2531.67 1523.62 2532.16 1523.62 2670.25 1523.62 2717 1523.61 2725.56 1523.61"/>
        <polygon class="cls-5" points="2725.54 930.25 2725.55 987.57 2531.65 987.58 2531.65 930.26 2539.66 930.26 2670.23 930.25 2716.98 930.25 2725.54 930.25"/>
        <polygon class="cls-5" points="2725.54 732.47 2725.54 789.78 2531.64 789.79 2531.64 732.47 2539.65 732.47 2670.22 732.47 2716.97 732.47 2725.54 732.47"/>
        <path class="cls-8" d="M2717,1521.54v2.07h-46.75v-72.15H2717Z"/>
        <path class="cls-8" d="M2717,1128v.08h-46.75v-72.15H2717Z"/>
        <path class="cls-8" d="M2717,928.18v2.07h-46.75V858.1H2717Z"/>
        <path class="cls-8" d="M2717,730.4v2.07h-46.75V660.32H2717Z"/>
        <path class="cls-8" d="M2717,1253.68v72.15h-46.72v-72.15Z"/>
        <path class="cls-8" d="M2670.25,1521.51v2.11H2532.16v-72.15h138.09v70Z"/>
        <path class="cls-8" d="M2670.25,1325.32v.51H2539.67v-72.15h130.57v71.64Z"/>
        <path class="cls-8" d="M2670.24,1125.93V1128H2539.66V1055.9h130.58v70Z"/>
        <path class="cls-8" d="M2670.23,928.14v2.11H2539.66V858.11h130.57v70Z"/>
        <path class="cls-8" d="M2670.22,730.36v2.11H2539.65V660.32h130.57v70Z"/>
        <path class="cls-8" d="M2489.38,1451.82v92.25h-52v-92.25Z"/>
        <path class="cls-8" d="M2489.38,1254v92.25h-52V1254Z"/>
        <path class="cls-8" d="M2489.37,1056.25v92.24h-52v-92.24Z"/>
        <path class="cls-8" d="M2478.64,660.67v92.25h-41.32V660.67Z"/>
        <path class="cls-8" d="M2468,858.46v92.25h-30.63V858.46Z"/>
        <path class="cls-8" d="M2437.36,1540.52v3.55h-36.1v-92.25h36.09v88.7Z"/>
        <path class="cls-8" d="M2437.35,1342.74v3.54h-36.1V1254h36.09v88.7Z"/>
        <path class="cls-8" d="M2437.34,1145v3.54h-36.09v-92.25h36.1V1145Z"/>
        <path class="cls-8" d="M2437.33,947.16v3.55h-36.09V858.46h36.1v88.7Z"/>
        <path class="cls-8" d="M2437.33,749.38v3.54h-36.1V660.68h36.09v88.71Z"/>
        <path class="cls-9" d="M2380.47,1624.93v49.45h-96.53V1450.64h96.52Zm-25.57-65.64v-85.81h-44.23v85.81Z"/>
        <rect class="cls-10" x="2310.67" y="1473.48" width="44.23" height="85.81"/>
        <path class="cls-6" d="M2344.34,1244V1346.8h-93.72V1244h93.72Z"/>
        <path class="cls-6" d="M2344.34,1132.17V1244h-93.72V1132.17h93.72Z"/>
        <path class="cls-6" d="M2344.33,1032.84v99.33h-93.72v-99.33Z"/>
        <polygon class="cls-9" points="2225.46 1624.93 2225.45 1450.64 2283.94 1450.64 2283.94 1451.4 2283.94 1673.44 2283.94 1674.38 2225.46 1674.38 2225.46 1624.93"/>
        <path class="cls-6" d="M2225.46,1624.93v49.45l-513.51,0V1625Z"/>
        <rect class="cls-8" x="2107.32" y="660.68" width="88.15" height="92.25"/>
        <rect class="cls-8" x="2107.35" y="1451.83" width="85.16" height="92.25"/>
        <rect class="cls-8" x="2107.35" y="1254.05" width="85.16" height="92.25"/>
        <path class="cls-8" d="M2192.5,1056.26v92.24h-33.11v-92.24Z"/>
        <path class="cls-8" d="M2159.39,1145v3.54h-52v-92.25h52V1145Z"/>
        <polygon class="cls-5" points="2065.07 1523.64 2065.07 1580.96 1871.18 1580.96 1871.18 1523.64 1879.74 1523.64 1926.49 1523.64 2057.06 1523.64 2065.07 1523.64"/>
        <polygon class="cls-5" points="2065.07 1325.85 2065.07 1383.17 1871.17 1383.18 1871.17 1325.86 1879.73 1325.86 1926.48 1325.86 2057.05 1325.85 2065.07 1325.85"/>
        <polygon class="cls-5" points="2065.06 1128.06 2065.06 1185.38 1871.16 1185.39 1871.16 1128.07 1879.73 1128.07 1926.47 1128.07 2057.05 1128.06 2065.06 1128.06"/>
        <polygon class="cls-5" points="2065.05 930.28 2065.05 987.59 1871.16 987.6 1871.16 930.28 1879.72 930.28 1926.47 930.28 2057.04 930.28 2065.05 930.28"/>
        <path class="cls-8" d="M2057.06,1522.37v1.27H1926.49v-72.15h130.57Z"/>
        <path class="cls-8" d="M2057.06,1324.58v1.27H1926.48v-72.15h130.57Z"/>
        <path class="cls-8" d="M2057.05,1126.79v1.27H1926.47v-72.15h130.58Z"/>
        <path class="cls-8" d="M2057,929v1.27H1926.47V858.13H2057Z"/>
        <path class="cls-8" d="M1926.49,1521.53v2.11h-46.75v-72.15h46.75v70Z"/>
        <path class="cls-8" d="M1926.48,1323.75v2.11h-46.75v-72.15h46.75v70Z"/>
        <path class="cls-8" d="M1926.47,1126v2.11h-46.74v-72.15h46.75v70Z"/>
        <path class="cls-8" d="M1926.47,928.17v2.11h-46.75V858.13h46.74v70Z"/>
        <rect class="cls-8" x="1733.53" y="1451.85" width="88.15" height="92.25"/>
        <rect class="cls-8" x="1733.53" y="1254.06" width="88.15" height="92.25"/>
        <path class="cls-8" d="M1821.67,1056.27v92.25h-36.09v-92.25Z"/>
        <path class="cls-8" d="M1821.66,858.48v92.25h-36.09V858.48Z"/>
        <rect class="cls-8" x="1733.51" y="660.7" width="88.15" height="92.25"/>
        <path class="cls-8" d="M1785.58,1145v3.55h-52.06l1.94-92.25h50.11V1145Z"/>
        <path class="cls-8" d="M1785.57,947.19v3.54h-52.06V858.49h52v88.71Z"/>
        <polygon class="cls-5" points="1731.4 1436.2 1731.26 1450.54 1711.94 1450.5 1613.88 1450.34 1551.79 1450.24 1551.48 1450.24 1551.19 1438.85 1629.3 1388.41 1731.4 1436.2"/>
        <path class="cls-9" d="M1712,1625v49.45h-98.06V1450.34l98.06.16V1625Zm-27.11-65.69v-85.82h-44.23v85.82Z"/>
        <rect class="cls-10" x="1640.61" y="1473.44" width="44.23" height="85.81"/>
        <path class="cls-9" d="M1675.82,1244v102.82H1582.1V1244h93.72Z"/>
        <path class="cls-9" d="M1675.81,1132.19V1244H1582.1V1132.2h93.72Z"/>
        <path class="cls-9" d="M1675.81,1032.86v99.33h-93.72v-99.34Z"/>
        <path class="cls-9" d="M1675.8,882.62V991.77h-93.72V882.62h93.72Z"/>
        <path class="cls-9" d="M1675.8,763.93V882.62h-93.72V763.93h93.72Z"/>
        <path class="cls-9" d="M1675.8,658.49V763.93h-93.72V658.49Z"/>
        <polygon class="cls-9" points="1613.88 1673.4 1613.88 1674.41 1549.85 1674.41 1549.85 1672.95 1550.28 1624.96 1551.79 1450.67 1551.79 1450.24 1613.88 1450.34 1613.88 1451.36 1613.88 1673.4"/>
        <path class="cls-6" d="M1550.28,1625l-.43,48v1.46H1158.64V1625h391.65Z"/>
        <rect class="cls-8" x="1438.83" y="1451.86" width="88.15" height="92.25"/>
        <rect class="cls-8" x="1438.82" y="1254.07" width="88.15" height="92.25"/>
        <rect class="cls-8" x="1438.82" y="1056.28" width="88.15" height="92.25"/>
        <rect class="cls-8" x="1438.81" y="858.5" width="88.15" height="92.25"/>
        <rect class="cls-8" x="1438.8" y="660.71" width="88.15" height="92.25"/>
        <polygon class="cls-5" points="1396.55 1523.66 1396.55 1580.98 1202.66 1580.99 1202.65 1523.67 1211.22 1523.67 1257.96 1523.67 1388.54 1523.66 1396.55 1523.66"/>
        <polygon class="cls-5" points="1396.54 1325.88 1396.54 1383.19 1203.06 1383.2 1202.46 1325.88 1211.29 1325.88 1388.53 1325.88 1396.54 1325.88"/>
        <polygon class="cls-5" points="1396.54 1128.09 1396.54 1185.41 1202.46 1185.41 1203.05 1128.09 1211.2 1128.09 1257.95 1128.09 1388.53 1128.09 1396.54 1128.09"/>
        <polygon class="cls-5" points="1396.53 930.3 1396.53 987.62 1202.63 987.63 1202.63 930.31 1211.2 930.31 1257.94 930.3 1388.52 930.3 1396.53 930.3"/>
        <polygon class="cls-5" points="1396.52 732.51 1396.52 789.83 1202.63 789.84 1202.63 732.52 1211.19 732.52 1257.94 732.52 1388.51 732.51 1396.52 732.51"/>
        <path class="cls-8" d="M1388.54,1522.39v1.27H1258v-72.15h130.58Z"/>
        <polygon class="cls-8" points="1388.53 1324.61 1388.53 1325.88 1211.29 1325.88 1211.29 1253.73 1388.53 1253.72 1388.53 1324.61"/>
        <path class="cls-8" d="M1388.53,1126.82v1.27H1258v-72.15h130.57Z"/>
        <path class="cls-8" d="M1388.52,929v1.27H1257.94V858.16h130.58Z"/>
        <path class="cls-8" d="M1388.51,731.24v1.27H1257.94V660.37h130.58Z"/>
        <path class="cls-8" d="M1258,1521.56v2.11h-46.75v-72.15H1258v70Z"/>
        <path class="cls-8" d="M1258,1127.17v.92H1211.2v-72.15H1258v71.23Z"/>
        <path class="cls-8" d="M1257.94,928.2v2.11H1211.2V858.16h46.75v70Z"/>
        <path class="cls-8" d="M1257.94,730.41v2.11h-46.75V660.37h46.74v70Z"/>
      </g>
      <g>
        <polyline class="cls-2" points="2766.09 621.17 2766.09 621.19 2766.12 1449.35 2766.13 1545.51 2766.13 1624.91 2766.13 1674.37 2380.47 1674.38 2283.94 1674.38 2225.46 1674.38 1711.95 1674.4 1613.88 1674.41 1549.85 1674.41 1158.64 1674.42 1158.63 1624.97 1158.6 622.62"/>
        <polyline class="cls-2" points="2225.46 1674.88 2225.46 1674.38 2225.46 1624.93 2225.45 1450.64 2283.94 1450.64 2380.46 1450.64 2380.47 1624.93 2380.47 1674.38 2380.47 1674.87"/>
        <polyline class="cls-2" points="2250.6 658.47 2344.32 658.47 2344.33 991.74 2250.61 991.75"/>
        <path class="cls-2" d="M2250.71,882.6h89.4"/>
        <polygon class="cls-2" points="2344.34 1243.98 2344.34 1346.8 2250.62 1346.8 2250.62 1243.98 2250.61 1132.17 2250.61 1032.84 2344.33 1032.84 2344.34 1132.17 2344.34 1243.98"/>
        <path class="cls-2" d="M2251.6,1132.17H2341"/>
        <path class="cls-2" d="M2250.72,1244h89.4"/>
        <polyline class="cls-2" points="1879.71 706.83 1879.71 660.35 2057.03 660.34 2057.03 721.92"/>
        <path class="cls-2" d="M1926.46,661.94v68.44"/>
        <rect class="cls-2" x="2107.32" y="660.68" width="88.15" height="92.25"/>
        <polygon class="cls-2" points="2057.04 930.28 2065.05 930.28 2065.05 987.59 1871.16 987.6 1871.16 930.28 1879.72 930.28 1926.47 930.28 2057.04 930.28"/>
        <polyline class="cls-2" points="1879.72 928.21 1879.72 858.13 1926.46 858.13 2057.04 858.13 2057.04 929.01"/>
        <path class="cls-2" d="M1926.46,859.73v68.44"/>
        <polygon class="cls-2" points="2057.05 1128.06 2065.06 1128.06 2065.06 1185.38 1871.16 1185.39 1871.16 1128.07 1879.73 1128.07 1926.47 1128.07 2057.05 1128.06"/>
        <polyline class="cls-2" points="1879.73 1126 1879.72 1055.92 1926.47 1055.92 2057.05 1055.91 2057.05 1126.79"/>
        <path class="cls-2" d="M1926.47,1057.52V1126"/>
        <polygon class="cls-2" points="2159.39 1056.26 2107.34 1056.26 2107.34 1148.51 2159.39 1148.5 2192.5 1148.5 2192.49 1056.26 2159.39 1056.26"/>
        <path class="cls-2" d="M2159.39,1057.51V1145"/>
        <polygon class="cls-2" points="2057.05 1325.85 2065.07 1325.85 2065.07 1383.17 1871.17 1383.18 1871.17 1325.86 1879.73 1325.86 1926.48 1325.86 2057.05 1325.85"/>
        <polyline class="cls-2" points="1879.73 1323.79 1879.73 1253.71 1926.48 1253.71 2057.05 1253.7 2057.05 1324.58"/>
        <path class="cls-2" d="M1926.48,1255.3v68.45"/>
        <rect class="cls-2" x="2107.35" y="1254.05" width="85.16" height="92.25"/>
        <polygon class="cls-2" points="2057.06 1523.64 2065.07 1523.64 2065.07 1580.96 1871.18 1580.96 1871.18 1523.64 1879.74 1523.64 1926.49 1523.64 2057.06 1523.64"/>
        <polyline class="cls-2" points="1879.74 1521.58 1879.74 1451.49 1926.48 1451.49 2057.06 1451.49 2057.06 1522.37"/>
        <path class="cls-2" d="M1926.49,1453.09v68.44"/>
        <rect class="cls-2" x="2107.35" y="1451.83" width="85.16" height="92.25"/>
        <polyline class="cls-2" points="1551.79 1450.67 1550.28 1624.96 1549.85 1672.95"/>
        <polyline class="cls-2" points="1711.95 1674.89 1711.95 1674.4 1711.95 1624.95 1711.94 1450.66"/>
        <line class="cls-2" x1="1613.88" y1="1451.36" x2="1613.89" y2="1673.4"/>
        <rect class="cls-2" x="1640.61" y="1473.44" width="44.23" height="85.81"/>
        <polygon class="cls-2" points="1711.94 1450.5 1731.26 1450.54 1731.4 1436.2 1629.3 1388.41 1551.19 1438.85 1551.48 1450.24 1551.79 1450.24 1613.88 1450.34 1711.94 1450.5"/>
        <polygon class="cls-2" points="1675.8 882.62 1675.81 991.77 1582.09 991.77 1582.08 882.62 1582.08 763.93 1582.08 658.49 1675.8 658.49 1675.8 763.93 1675.8 882.62"/>
        <path class="cls-2" d="M1583.06,763.93h89.38"/>
        <path class="cls-2" d="M1582.19,882.62h89.39"/>
        <polygon class="cls-2" points="1675.82 1244.01 1675.82 1346.82 1582.1 1346.82 1582.1 1244.01 1582.09 1132.2 1582.09 1032.86 1675.81 1032.86 1675.81 1132.19 1675.82 1244.01"/>
        <path class="cls-2" d="M1583.08,1132.2h89.37"/>
        <path class="cls-2" d="M1582.2,1244h89.4"/>
        <polygon class="cls-2" points="2539.65 732.47 2531.64 732.47 2531.64 789.79 2725.54 789.78 2725.54 732.47 2716.97 732.47 2670.22 732.47 2539.65 732.47"/>
        <polyline class="cls-2" points="2716.97 730.4 2716.97 660.32 2670.22 660.32 2539.65 660.32 2539.65 731.2"/>
        <path class="cls-2" d="M2670.22,661.91v68.45"/>
        <polygon class="cls-2" points="2437.32 660.67 2478.64 660.67 2478.65 752.92 2437.33 752.92 2401.23 752.92 2401.23 660.67 2437.32 660.67"/>
        <path class="cls-2" d="M2437.32,661.92v87.46"/>
        <polygon class="cls-2" points="2539.66 930.26 2531.65 930.26 2531.65 987.58 2725.55 987.57 2725.54 930.25 2716.98 930.25 2670.23 930.25 2539.66 930.26"/>
        <polyline class="cls-2" points="2716.98 928.18 2716.98 858.1 2670.23 858.1 2539.66 858.11 2539.66 928.99"/>
        <path class="cls-2" d="M2670.23,859.7v68.44"/>
        <polygon class="cls-2" points="2437.33 858.46 2467.96 858.46 2467.96 950.71 2437.33 950.71 2401.24 950.71 2401.24 858.46 2437.33 858.46"/>
        <path class="cls-2" d="M2437.33,859.71v87.45"/>
        <polygon class="cls-2" points="2716.99 1128.04 2725.8 1128.04 2725.8 1185.36 2531.66 1185.37 2531.66 1128.05 2539.66 1128.05 2670.24 1128.04 2716.99 1128.04"/>
        <polyline class="cls-2" points="2716.99 1127.96 2716.99 1055.89 2670.24 1055.89 2539.66 1055.9 2539.66 1126.78"/>
        <path class="cls-2" d="M2670.24,1057.49v68.44"/>
        <path class="cls-2" d="M2670.24,1253.94v71.38"/>
        <polygon class="cls-2" points="2437.34 1056.25 2489.37 1056.25 2489.37 1148.49 2437.34 1148.49 2401.24 1148.49 2401.24 1056.25 2437.34 1056.25"/>
        <path class="cls-2" d="M2437.34,1057.5V1145"/>
        <polygon class="cls-2" points="2716.97 1325.83 2725.78 1325.83 2725.78 1383.14 2531.66 1383.15 2531.66 1325.83 2539.67 1325.83 2670.25 1325.83 2716.97 1325.83"/>
        <polyline class="cls-2" points="2539.67 1324.56 2539.67 1253.68 2670.24 1253.68 2716.97 1253.68 2716.97 1325.83"/>
        <polygon class="cls-2" points="2437.34 1254.04 2489.38 1254.03 2489.38 1346.28 2437.35 1346.28 2401.25 1346.28 2401.25 1254.04 2437.34 1254.04"/>
        <path class="cls-2" d="M2437.34,1255.31v87.43"/>
        <polygon class="cls-2" points="2532.16 1523.62 2531.67 1523.62 2531.67 1580.94 2725.57 1580.93 2725.56 1523.61 2717 1523.61 2670.25 1523.62 2532.16 1523.62"/>
        <polyline class="cls-2" points="2717 1521.55 2717 1451.46 2670.25 1451.47 2532.16 1451.47 2532.16 1522.35"/>
        <path class="cls-2" d="M2670.25,1453.06v68.45"/>
        <polygon class="cls-2" points="2437.35 1451.82 2489.39 1451.82 2489.39 1544.07 2437.36 1544.07 2401.26 1544.07 2401.26 1451.82 2437.35 1451.82"/>
        <path class="cls-2" d="M2437.35,1453.09v87.43"/>
        <polygon class="cls-2" points="1388.51 732.51 1396.52 732.51 1396.52 789.83 1202.63 789.84 1202.63 732.52 1211.19 732.52 1257.94 732.52 1388.51 732.51"/>
        <polyline class="cls-2" points="1211.19 730.45 1211.19 660.37 1257.93 660.37 1388.51 660.36 1388.51 731.24"/>
        <path class="cls-2" d="M1257.93,662v68.44"/>
        <rect class="cls-2" x="1733.51" y="660.7" width="88.15" height="92.25"/>
        <polygon class="cls-2" points="1785.57 858.49 1733.51 858.49 1733.51 950.73 1785.57 950.73 1821.66 950.73 1821.66 858.48 1785.57 858.49"/>
        <path class="cls-2" d="M1785.56,859.73v87.46"/>
        <polygon class="cls-2" points="1785.57 1056.27 1735.46 1056.27 1733.52 1148.52 1785.58 1148.52 1821.67 1148.52 1821.67 1056.27 1785.57 1056.27"/>
        <path class="cls-2" d="M1785.57,1057.52V1145"/>
        <rect class="cls-2" x="1733.53" y="1254.06" width="88.15" height="92.25"/>
        <rect class="cls-2" x="1733.53" y="1451.85" width="88.15" height="92.25"/>
        <rect class="cls-2" x="1438.8" y="660.71" width="88.15" height="92.25"/>
        <polygon class="cls-2" points="1388.52 930.3 1396.53 930.3 1396.53 987.62 1202.63 987.63 1202.63 930.31 1211.2 930.31 1257.94 930.3 1388.52 930.3"/>
        <polyline class="cls-2" points="1211.2 928.24 1211.19 858.16 1257.94 858.15 1388.52 858.15 1388.52 929.03"/>
        <path class="cls-2" d="M1257.94,859.75V928.2"/>
        <rect class="cls-2" x="1438.81" y="858.5" width="88.15" height="92.25"/>
        <polygon class="cls-2" points="1388.53 1128.09 1396.54 1128.09 1396.54 1185.41 1202.46 1185.41 1203.05 1128.09 1211.2 1128.09 1257.95 1128.09 1388.53 1128.09"/>
        <polyline class="cls-2" points="1211.2 1127.95 1211.2 1055.94 1257.95 1055.94 1388.52 1055.94 1388.53 1126.82"/>
        <path class="cls-2" d="M1258,1057.54v69.63"/>
        <rect class="cls-2" x="1438.82" y="1056.28" width="88.15" height="92.25"/>
        <polygon class="cls-2" points="1388.53 1325.88 1396.54 1325.88 1396.54 1383.19 1203.06 1383.2 1202.46 1325.88 1211.29 1325.88 1388.53 1325.88"/>
        <polyline class="cls-2" points="1388.53 1324.61 1388.53 1253.72 1211.29 1253.73 1211.29 1325.88"/>
        <rect class="cls-2" x="1438.82" y="1254.07" width="88.15" height="92.25"/>
        <polygon class="cls-2" points="1388.54 1523.66 1396.55 1523.66 1396.55 1580.98 1202.66 1580.99 1202.65 1523.67 1211.22 1523.67 1257.96 1523.67 1388.54 1523.66"/>
        <polyline class="cls-2" points="1211.22 1521.6 1211.21 1451.52 1257.96 1451.52 1388.54 1451.51 1388.54 1522.39"/>
        <path class="cls-2" d="M1258,1453.11v68.45"/>
        <rect class="cls-2" x="1438.83" y="1451.86" width="88.15" height="92.25"/>
        <path class="cls-2" d="M2382.35,1624.93l383.43,0"/>
        <path class="cls-2" d="M1711.91,1625h0l513.51,0h.08"/>
        <path class="cls-2" d="M1160.15,1625h389.16"/>
        <polyline class="cls-2" points="2767.76 1449.35 2779.87 1449.35 2779.87 1545.51 2767.76 1545.51"/>
        <polygon class="cls-2" points="1158.6 621.25 1117.81 621.25 1117.81 593.06 2801.86 593 2801.86 621.18 2766.09 621.19 1158.6 621.25"/>
        <line class="cls-2" x1="2283.94" y1="1451.4" x2="2283.94" y2="1673.44"/>
        <rect class="cls-2" x="2310.67" y="1473.48" width="44.23" height="85.81"/>
      </g>
    </g>
    <g>
      <path class="cls-3" d="M1538.28,1608.64c15.71,17.23,19.42,44.35,9,65.21l-359,.57c-15.17-19.38-9.09-37,.14-50a44.7,44.7,0,0,1,41.85-18c-6.43-17.84-4.63-39.27,8.62-52.79a48.9,48.9,0,0,1,50.82-11.94c-1.35-29.69,28.91-58.39,58.65-59.79s58,24.37,59.44,54.11c6.91-17,27.21-26.64,45.18-23.1s32.55,18.81,37.23,36.52.13,37.18-10.2,52.27C1501.72,1593.29,1522.58,1591.41,1538.28,1608.64Z"/>
      <path class="cls-2" d="M1547.25,1673.85c10.45-20.86,6.74-48-9-65.21s-36.56-15.35-58.26-6.87c10.33-15.09,14.88-34.55,10.2-52.27s-19.25-33-37.23-36.52-38.27,6.13-45.18,23.1c-1.44-29.74-29.74-55.51-59.44-54.11s-60,30.1-58.65,59.79a48.9,48.9,0,0,0-50.82,11.94c-13.25,13.52-15.05,35-8.62,52.79a44.7,44.7,0,0,0-41.85,18c-9.23,13-15.31,30.57-.14,50Z"/>
    </g>
    <g>
      <g>
        <path class="cls-1" d="M1040.37,1541.64c-10.6,7.66-23.81,11.77-36.86,10.59l-.15,0c-23.31-2.18-44.08-21-48.47-44-11.28,15.42-31.87,23.34-50.52,19.45s-34.42-19.4-38.57-38,3.47-39.33,18.68-50.81c-17.54-3.86-31.46-19.51-34.68-37.18s3.82-36.53,16.74-49,31.24-18.74,49.2-18.36c-16.64-17.68-20.82-46-10-67.72s36.27-34.33,60.41-31.64c2.89-26.65,30.21-48.08,56.78-44.53s47.32,31.47,43.06,57.92c15.31-9.43,42.35-1.8,52,11.56,12.79,17.61,12.6,38.84,8.45,58.47,17.59-4.09,37.41,5.32,45.37,21.57s3.26,37.68-10.79,49.09c18.51,5.6,31.5,25.58,29.1,44.77s-19.88,35.36-39.22,36.25c10.15,14.53,9.55,35.33-.37,50s-28.18,22.91-45.89,22-34.5-10.5-45.45-24.43A54,54,0,0,1,1040.37,1541.64Z"/>
        <path class="cls-4" d="M1061.82,1674.44H985.33c12.7-41.83,16-89.06,18-122.07l0-.16.15,0c13,1.18,26.26-2.93,36.86-10.59A498.75,498.75,0,0,0,1061.82,1674.44Z"/>
      </g>
      <g>
        <path class="cls-2" d="M1003.34,1552.37c-2,33-5.31,80.24-18,122.07h76.49a498.75,498.75,0,0,1-21.45-132.8,2.62,2.62,0,0,1,0-.28"/>
        <path class="cls-2" d="M966.18,1234.92c2.89-26.65,30.21-48.08,56.78-44.53s47.32,31.47,43.06,57.92c15.31-9.43,42.35-1.8,52,11.56,12.79,17.61,12.6,38.84,8.45,58.47,17.59-4.09,37.41,5.32,45.37,21.57s3.26,37.68-10.79,49.09c18.51,5.6,31.5,25.58,29.1,44.77s-19.88,35.36-39.22,36.25c10.15,14.53,9.55,35.33-.37,50s-28.18,22.91-45.89,22-34.5-10.5-45.45-24.43a54,54,0,0,1-18.9,24.05c-10.6,7.66-23.81,11.77-36.86,10.59l-.15,0c-23.31-2.18-44.08-21-48.47-44-11.28,15.42-31.87,23.34-50.52,19.45s-34.42-19.4-38.57-38,3.47-39.33,18.68-50.81c-17.54-3.86-31.46-19.51-34.68-37.18s3.82-36.53,16.74-49,31.24-18.74,49.2-18.36c-16.64-17.68-20.82-46-10-67.72s36.27-34.33,60.41-31.64"/>
      </g>
    </g>
    <g id="maja_2" data-name="maja 2">
      <g>
        <g>
          <polygon class="cls-11" points="917.77 1036 946.8 1117.97 917.77 1117.97 724.79 1117.65 724.79 1116.26 632.31 1036.31 632.57 1036 818.72 1036 917.77 1036"/>
          <polygon class="cls-11" points="497.03 1036 497.29 1036.31 404.81 1116.26 404.81 1117.65 211.84 1117.97 182.8 1117.97 211.84 1036 310.88 1036 497.03 1036"/>
          <polygon class="cls-12" points="622.14 1641.08 564.26 1641.08 564.26 1531.43 565.34 1531.43 622.57 1531.43 622.57 1641.08 622.52 1641.21 622.14 1641.08"/>
          <rect class="cls-12" x="507.03" y="1531.43" width="57.23" height="109.64"/>
          <path class="cls-7" d="M565.71,1131.63h-1.82a32.72,32.72,0,0,1,0-65.43h1.82a32.72,32.72,0,0,1,0,65.43Z"/>
          <path class="cls-13" d="M563.89,1131.63h1.82a32.72,32.72,0,0,0,0-65.43h-1.82a32.72,32.72,0,0,0,0,65.43ZM917.77,1118v37.55H211.83V1118l193-.32,31.67,0L564.8,1009l128.32,108.64,31.67,0Z"/>
          <rect class="cls-12" x="796.15" y="1576.93" width="71.12" height="17.13"/>
          <rect class="cls-12" x="796.15" y="1339.95" width="71.12" height="17.13"/>
          <polygon class="cls-7" points="859.38 1488.26 859.38 1576.69 804.48 1576.69 804.48 1488.26 805.43 1488.26 858.32 1488.26 859.38 1488.26"/>
          <polygon class="cls-7" points="859.38 1450.32 859.38 1488.26 858.32 1488.26 805.43 1488.26 804.48 1488.26 804.48 1450.32 859.38 1450.32"/>
          <polygon class="cls-7" points="859.38 1248.9 859.38 1339.71 804.48 1339.71 804.48 1248.9 805.43 1248.9 858.32 1248.9 859.38 1248.9"/>
          <polygon class="cls-7" points="859.38 1213.34 859.38 1248.9 858.32 1248.9 805.43 1248.9 804.48 1248.9 804.48 1213.34 859.38 1213.34"/>
          <polygon class="cls-11" points="818.72 981.35 818.72 1036 726.43 1035.74 726.43 981.13 818.72 981.35"/>
          <rect class="cls-12" x="680.02" y="1576.93" width="71.12" height="17.13"/>
          <rect class="cls-12" x="706.71" y="1312.95" width="17.12" height="71.12" transform="translate(-636.93 2056.78) rotate(-89.7)"/>
          <polygon class="cls-7" points="743.61 1213.47 743.43 1249.05 742.37 1249.04 689.49 1248.78 688.54 1248.78 688.72 1213.2 743.61 1213.47"/>
          <polygon class="cls-7" points="743.43 1249.05 742.99 1339.85 688.1 1339.58 688.54 1248.78 689.49 1248.78 742.37 1249.04 743.43 1249.05"/>
          <polygon class="cls-7" points="743.26 1488.26 743.26 1576.69 688.36 1576.69 688.36 1488.26 689.31 1488.26 742.2 1488.26 743.26 1488.26"/>
          <polygon class="cls-7" points="743.26 1450.32 743.26 1488.26 742.2 1488.26 689.31 1488.26 688.36 1488.26 688.36 1450.32 743.26 1450.32"/>
          <path class="cls-13" d="M449.58,1576.93H378.46v17.12h71.12ZM333.46,1340H262.34v17.12h71.12Zm-63.24-.24h54.9V1213.34h-54.9v126.37Zm597.05.24H796.15v17.12h71.12Zm-417.69,0H378.46v17.12h71.12Zm354.9-.24h54.9V1213.34h-54.9v126.37Zm-534.26,237h54.9V1450.32h-54.9v126.37Zm116.13,0h54.9V1450.32h-54.9v126.37Zm364.8.24H680v17.12h71.13ZM743,1339.85l.44-90.8.18-35.58-54.89-.27-.18,35.58-.44,90.8Zm-356.64-.14h54.9V1213.34h-54.9v126.37Zm-52.89,237.22H262.34v17.12h71.12Zm471-.24h54.9V1450.32h-54.9v126.37Zm-53.6-236.56-71.12-.36-.09,17.13,71.12.34Zm116.39,236.8H796.15v17.12h71.12Zm-178.91-.24h54.9V1450.32h-54.9v126.37Zm229.41-421.17v519.17H713.32v-.46l-90.8-33,.05-.13V1531.43h8.64V1508H498.39v23.42H507v109.65h-.95v10.36H493.65v10.36H481.22v12.89H211.83V1155.52H917.77Zm-315.09,253.6,1-195.65-76.9-.27-1,195.66Z"/>
          <polygon class="cls-14" points="724.79 1116.26 724.79 1117.65 693.12 1117.61 564.8 1008.97 436.48 1117.61 404.81 1117.65 404.81 1116.26 497.29 1036.31 564.8 977.93 632.31 1036.31 724.79 1116.26"/>
          <polygon class="cls-14" points="713.32 1674.23 713.32 1674.69 481.22 1674.69 481.22 1674.23 481.22 1661.8 493.65 1661.8 493.65 1651.44 506.08 1651.44 506.08 1641.08 507.03 1641.08 564.26 1641.08 622.14 1641.08 622.52 1641.21 713.32 1674.23"/>
          <polygon class="cls-13" points="631.21 1508.01 631.21 1531.43 622.57 1531.43 622.57 1531.29 565.34 1531.24 564.26 1531.24 507.03 1531.29 507.03 1531.43 498.39 1531.43 498.39 1508.01 564.26 1508.01 565.34 1508.01 631.21 1508.01"/>
          <polygon class="cls-7" points="603.64 1213.47 602.68 1409.13 525.78 1408.86 526.74 1213.2 603.64 1213.47"/>
          <rect class="cls-12" x="378.46" y="1576.93" width="71.12" height="17.13"/>
          <rect class="cls-12" x="378.46" y="1339.95" width="71.12" height="17.13"/>
          <polygon class="cls-7" points="441.25 1488.26 441.25 1576.69 386.35 1576.69 386.35 1488.26 387.41 1488.26 440.3 1488.26 441.25 1488.26"/>
          <polygon class="cls-7" points="441.25 1450.32 441.25 1488.26 440.3 1488.26 387.41 1488.26 386.35 1488.26 386.35 1450.32 441.25 1450.32"/>
          <polygon class="cls-7" points="441.25 1248.9 441.25 1339.71 386.35 1339.71 386.35 1248.9 387.41 1248.9 440.3 1248.9 441.25 1248.9"/>
          <polygon class="cls-7" points="441.25 1213.34 441.25 1248.9 440.3 1248.9 387.41 1248.9 386.35 1248.9 386.35 1213.34 441.25 1213.34"/>
          <polygon class="cls-11" points="403.17 981.13 403.17 1035.74 310.88 1036 310.88 981.35 403.17 981.13"/>
          <rect class="cls-12" x="262.34" y="1576.93" width="71.12" height="17.13"/>
          <rect class="cls-12" x="262.34" y="1339.95" width="71.12" height="17.13"/>
          <polygon class="cls-7" points="325.12 1488.26 325.12 1576.69 270.22 1576.69 270.22 1488.26 271.29 1488.26 324.18 1488.26 325.12 1488.26"/>
          <polygon class="cls-7" points="325.12 1450.32 325.12 1488.26 324.18 1488.26 271.29 1488.26 270.22 1488.26 270.22 1450.32 325.12 1450.32"/>
          <polygon class="cls-7" points="325.12 1248.9 325.12 1339.71 270.22 1339.71 270.22 1248.9 271.29 1248.9 324.18 1248.9 325.12 1248.9"/>
          <polygon class="cls-7" points="325.12 1213.34 325.12 1248.9 324.18 1248.9 271.29 1248.9 270.22 1248.9 270.22 1213.34 325.12 1213.34"/>
        </g>
        <g>
          <polyline class="cls-2" points="632.57 1036 818.72 1036 917.77 1036 946.8 1117.97 917.77 1117.97"/>
          <line class="cls-2" x1="564.8" y1="1008.97" x2="693.12" y2="1117.61"/>
          <polygon class="cls-2" points="859.38 1248.9 859.38 1339.71 804.48 1339.71 804.48 1248.9 804.48 1213.34 859.38 1213.34 859.38 1248.9"/>
          <rect class="cls-2" x="796.15" y="1339.95" width="71.12" height="17.13"/>
          <polygon class="cls-2" points="743.43 1249.05 742.99 1339.85 688.1 1339.58 688.54 1248.78 688.72 1213.2 743.61 1213.47 743.43 1249.05"/>
          <rect class="cls-2" x="706.71" y="1312.95" width="17.12" height="71.12" transform="translate(-636.72 2057.17) rotate(-89.72)"/>
          <polygon class="cls-2" points="859.38 1488.26 859.38 1576.69 804.48 1576.69 804.48 1488.26 804.48 1450.32 859.38 1450.32 859.38 1488.26"/>
          <rect class="cls-2" x="796.15" y="1576.93" width="71.12" height="17.13"/>
          <polygon class="cls-2" points="743.26 1488.26 743.26 1576.69 688.36 1576.69 688.36 1488.26 688.36 1450.32 743.26 1450.32 743.26 1488.26"/>
          <polyline class="cls-2" points="565.34 1531.24 622.57 1531.29 622.57 1531.43 622.57 1641.08"/>
          <polyline class="cls-2" points="565.34 1508.01 631.21 1508.01 631.21 1531.43 622.57 1531.43 565.34 1531.43"/>
          <polyline class="cls-2" points="564.26 1531.24 564.26 1531.43 564.26 1641.08"/>
          <line class="cls-2" x1="564.8" y1="1155.52" x2="917.65" y2="1155.52"/>
          <path class="cls-2" d="M565.71,1066.2a32.72,32.72,0,0,1,0,65.43"/>
          <rect class="cls-2" x="680.02" y="1576.93" width="71.12" height="17.13"/>
          <line class="cls-2" x1="805.43" y1="1248.9" x2="858.32" y2="1248.9"/>
          <line class="cls-2" x1="689.49" y1="1248.78" x2="742.37" y2="1249.04"/>
          <polygon class="cls-2" points="602.68 1409.13 525.78 1408.86 526.74 1213.2 603.64 1213.47 602.68 1409.13"/>
          <line class="cls-2" x1="805.43" y1="1488.25" x2="858.32" y2="1488.25"/>
          <line class="cls-2" x1="689.31" y1="1488.25" x2="742.2" y2="1488.25"/>
          <polyline class="cls-2" points="564.8 977.93 632.31 1036.31 724.79 1116.26"/>
          <polygon class="cls-2" points="818.72 981.35 726.43 981.13 726.43 1035.74 818.72 1036 818.72 981.35"/>
          <polyline class="cls-2" points="436.48 1117.61 404.81 1117.65 211.84 1117.97 211.84 1155.52 211.84 1674.69 481.22 1674.69 713.32 1674.69 917.77 1674.69 917.77 1155.52 917.77 1117.97 724.79 1117.65 693.12 1117.61"/>
          <polyline class="cls-2" points="497.03 1036 310.88 1036 211.84 1036 182.8 1117.97 211.84 1117.97"/>
          <line class="cls-2" x1="564.8" y1="1008.97" x2="436.48" y2="1117.61"/>
          <polygon class="cls-2" points="270.22 1248.9 270.22 1339.71 325.12 1339.71 325.12 1248.9 325.12 1213.34 270.22 1213.34 270.22 1248.9"/>
          <rect class="cls-2" x="262.34" y="1339.95" width="71.12" height="17.13"/>
          <polygon class="cls-2" points="386.35 1248.9 386.35 1339.71 441.25 1339.71 441.25 1248.9 441.25 1213.34 386.35 1213.34 386.35 1248.9"/>
          <rect class="cls-2" x="378.46" y="1339.95" width="71.12" height="17.13"/>
          <polygon class="cls-2" points="270.22 1488.26 270.22 1576.69 325.12 1576.69 325.12 1488.26 325.12 1450.32 270.22 1450.32 270.22 1488.26"/>
          <rect class="cls-2" x="262.34" y="1576.93" width="71.12" height="17.13"/>
          <polygon class="cls-2" points="386.35 1488.26 386.35 1576.69 441.25 1576.69 441.25 1488.26 441.25 1450.32 386.35 1450.32 386.35 1488.26"/>
          <polyline class="cls-2" points="565.34 1531.24 564.26 1531.24 507.03 1531.29 507.03 1531.43 507.03 1641.08"/>
          <polyline class="cls-2" points="565.34 1508.01 564.26 1508.01 498.39 1508.01 498.39 1531.43 507.03 1531.43 564.26 1531.43 565.34 1531.43"/>
          <line class="cls-2" x1="564.8" y1="1155.52" x2="211.96" y2="1155.52"/>
          <path class="cls-2" d="M563.89,1066.2a32.72,32.72,0,0,0,0,65.43"/>
          <rect class="cls-2" x="378.46" y="1576.93" width="71.12" height="17.13"/>
          <line class="cls-2" x1="324.18" y1="1248.9" x2="271.28" y2="1248.9"/>
          <line class="cls-2" x1="440.3" y1="1248.9" x2="387.41" y2="1248.9"/>
          <line class="cls-2" x1="598.3" y1="1274.91" x2="531.41" y2="1274.91"/>
          <line class="cls-2" x1="600.3" y1="1342.91" x2="531.41" y2="1342.91"/>
          <line class="cls-2" x1="324.18" y1="1488.25" x2="271.28" y2="1488.25"/>
          <line class="cls-2" x1="440.3" y1="1488.25" x2="387.41" y2="1488.25"/>
          <polyline class="cls-2" points="564.8 977.93 497.29 1036.31 404.81 1116.26"/>
          <polygon class="cls-2" points="310.88 981.35 403.17 981.13 403.17 1035.74 310.88 1036 310.88 981.35"/>
          <polyline class="cls-2" points="713.32 1674.23 622.52 1641.21 622.14 1641.08 564.26 1641.08 507.03 1641.08 506.08 1641.08 506.08 1651.44 493.65 1651.44 493.65 1661.8 481.22 1661.8 481.22 1674.23"/>
        </g>
      </g>
    </g>
    <g>
      <path class="cls-3" d="M439.13,1622.81c12.49,13.72,13.61,36,5.29,52.64H161.92c-12.09-15.42-8.64-29.7-1.29-40A35.59,35.59,0,0,1,194,1621.1a40.31,40.31,0,0,1,50.9-51.84c-1.08-23.64,19.43-46.17,43.1-47.28s46.17,19.39,47.32,43.07c5.5-13.51,21.65-21.21,36-18.39s25.91,15,29.63,29.08.11,29.59-8.11,41.6C410,1610.59,426.63,1609.09,439.13,1622.81Z"/>
      <path class="cls-2" d="M444.42,1675.45c8.32-16.61,7.2-38.92-5.29-52.64s-29.11-12.22-46.38-5.47c8.22-12,11.84-27.5,8.11-41.6s-15.32-26.26-29.63-29.08-30.46,4.88-36,18.39c-1.15-23.68-23.68-44.19-47.32-43.07s-44.18,23.64-43.1,47.28A40.31,40.31,0,0,0,194,1621.1a35.59,35.59,0,0,0-33.32,14.31c-7.35,10.34-10.8,24.62,1.29,40Z"/>
    </g>
    <g>
      <g>
        <path class="cls-4" d="M475.06,1926.12,443,1988.91h795.45l-32.09-62.79c-4.53-8.86-15.27-14.65-27.2-14.65H502.26C490.34,1911.47,479.59,1917.26,475.06,1926.12Z"/>
        <path class="cls-2" d="M475.06,1926.12c4.53-8.86,15.28-14.65,27.2-14.65h676.87c11.93,0,22.67,5.79,27.2,14.65l32.09,62.79H443Z"/>
      </g>
      <g>
        <g>
          <path class="cls-3" d="M498.51,1701.67c0,.41,0,37.3,8.87,86.79,6.78,37.85,19.88,81.81,25.76,100.68.77-.07,1.54-.12,2.32-.13-.52-8.66-1.18-22.4-1.3-37.81C529.46,1794.79,516.6,1743.16,498.51,1701.67Z"/>
          <path class="cls-15" d="M533.14,1889.14a35.71,35.71,0,0,0-32.63,35.58c0,19.73,71.43,19.73,71.43,0a35.72,35.72,0,0,0-33-35.61c-.9,3.16-1.85,6.3-2.82,9.41C536.12,1898.52,535,1895.07,533.14,1889.14Z"/>
          <path class="cls-3" d="M535.33,1811.6c-1,13-1.28,26.88-1.17,39.6q1.55,18.58,1.88,37.8h.18c.92,0,1.82,0,2.72.11,15.3-53.24,21-113,11.87-156.54C550.81,1732.57,538.44,1772,535.33,1811.6Z"/>
          <path class="cls-3" d="M535.46,1889c-.78,0-1.55.06-2.32.13,1.84,5.93,3,9.38,3,9.38S535.82,1895,535.46,1889Z"/>
          <path class="cls-16" d="M534.16,1851.2c.12,15.41.78,29.15,1.3,37.81H536Q535.71,1869.82,534.16,1851.2Z"/>
          <path class="cls-16" d="M536,1889h-.58c.36,6,.66,9.51.66,9.51Q536.12,1893.74,536,1889Z"/>
          <path class="cls-3" d="M536.22,1889H536q.08,4.74.08,9.52c1-3.11,1.92-6.25,2.82-9.41C538,1889,537.14,1889,536.22,1889Z"/>
          <path class="cls-3" d="M591.8,1701.67c0,.41,0,37.3,8.88,86.79,6.77,37.85,19.87,81.81,25.75,100.68.77-.07,1.55-.12,2.33-.13-.52-8.66-1.18-22.4-1.31-37.81C622.76,1794.79,609.89,1743.16,591.8,1701.67Z"/>
          <path class="cls-15" d="M626.43,1889.14a35.71,35.71,0,0,0-32.63,35.58c0,19.73,71.43,19.73,71.43,0a35.71,35.71,0,0,0-33-35.61q-1.37,4.74-2.83,9.41S628.28,1895.07,626.43,1889.14Z"/>
          <path class="cls-3" d="M628.63,1811.6c-1,13-1.28,26.88-1.18,39.6q1.54,18.58,1.88,37.8h.19c.91,0,1.82,0,2.72.11,15.3-53.24,21-113,11.88-156.54C644.12,1732.57,631.73,1772,628.63,1811.6Z"/>
          <path class="cls-3" d="M628.76,1889c-.78,0-1.56.06-2.33.13,1.85,5.93,3,9.38,3,9.38S629.12,1895,628.76,1889Z"/>
          <path class="cls-16" d="M627.45,1851.2c.13,15.41.79,29.15,1.31,37.81h.57Q629,1869.82,627.45,1851.2Z"/>
          <path class="cls-16" d="M629.33,1889h-.57c.36,6,.65,9.51.65,9.51C629.41,1895.33,629.39,1892.16,629.33,1889Z"/>
          <path class="cls-3" d="M629.52,1889h-.19c.06,3.16.08,6.33.08,9.52q1.47-4.66,2.83-9.41C631.34,1889,630.43,1889,629.52,1889Z"/>
          <path class="cls-3" d="M727.29,1892.54a130.45,130.45,0,0,0,15.52,5.43,111.64,111.64,0,0,0,15.18-5.59c6.26-2.72,12.38-5.82,14.64-7.93,3-2.85,5.62-7.7,3-11-3.32-4.14-11-.84-14.74-4.67-3.07-3.2-.67-8.72,2.82-11.47s8-4.35,10.59-8c1.43-2,2.11-4.74,1.05-7-1.68-3.52-6.45-4-10.32-3.64s-8.39.78-11.07-2c-4.29-4.48.25-11.8-.45-18-.29-2.47-1.24-9.66-11.47-9.66s-11.2,7.19-11.48,9.66c-.7,6.17,3.84,13.49-.45,18-2.69,2.82-7.19,2.38-11.07,2s-8.65.12-10.32,3.64c-1.06,2.21-.38,5,1,7,2.58,3.62,7.09,5.22,10.58,8s5.91,8.27,2.82,11.47c-3.67,3.83-11.4.53-14.73,4.67-2.62,3.25-.05,8.1,3,11C713.76,1886.6,720.49,1889.78,727.29,1892.54Z"/>
          <path class="cls-5" d="M727.29,1892.54a35.74,35.74,0,0,0-20.19,32.18c0,19.73,71.43,19.73,71.43,0A35.72,35.72,0,0,0,758,1892.38a111.64,111.64,0,0,1-15.18,5.59A130.45,130.45,0,0,1,727.29,1892.54Z"/>
          <path class="cls-3" d="M824.46,1892.54A131.08,131.08,0,0,0,840,1898a111.62,111.62,0,0,0,15.17-5.59c6.26-2.72,12.39-5.82,14.64-7.93,3.05-2.85,5.63-7.7,3-11-3.32-4.14-11-.84-14.73-4.67-3.08-3.2-.68-8.72,2.81-11.47s8-4.35,10.59-8c1.43-2,2.11-4.74,1.06-7-1.68-3.52-6.45-4-10.33-3.64s-8.39.78-11.07-2c-4.29-4.48.25-11.8-.45-18-.28-2.47-1.23-9.66-11.47-9.66s-11.19,7.19-11.48,9.66c-.69,6.17,3.84,13.49-.45,18-2.68,2.82-7.19,2.38-11.07,2s-8.64.12-10.32,3.64c-1.06,2.21-.38,5,1.05,7,2.58,3.62,7.09,5.22,10.59,8s5.9,8.27,2.81,11.47c-3.67,3.83-11.4.53-14.72,4.67-2.62,3.25,0,8.1,3,11C810.93,1886.6,817.67,1889.78,824.46,1892.54Z"/>
          <path class="cls-5" d="M824.46,1892.54a35.76,35.76,0,0,0-20.19,32.18c0,19.73,71.43,19.73,71.43,0a35.72,35.72,0,0,0-20.54-32.34A111.62,111.62,0,0,1,840,1898,131.08,131.08,0,0,1,824.46,1892.54Z"/>
          <path class="cls-3" d="M942.4,1890.67c-.33,3.13-.57,5.06-.57,5.06,6.59,2.34,13.66,3.58,22.73,0,0,0-.24-1.93-.57-5.06-1.3-12.48-3.92-44.11,2.18-50.19,7.64-7.62,25.43-24.65,26.4-35.39a24.83,24.83,0,0,0-24.09,9.84c-6.57-22.36,23.37-43.54,16.66-65.86a15.48,15.48,0,0,0-18.76,7.83c-10.21-13.89,5.56-50.25-13.19-50.25s-3,36.36-13.18,50.25a15.48,15.48,0,0,0-18.76-7.83c-6.7,22.32,23.22,43.5,16.66,65.86a24.83,24.83,0,0,0-24.09-9.84c1,10.74,18.77,27.77,26.4,35.39C946.32,1846.56,943.7,1878.19,942.4,1890.67Z"/>
          <path class="cls-17" d="M942.4,1890.67a35.72,35.72,0,0,0-24.92,34c0,19.73,71.43,19.73,71.43,0a35.72,35.72,0,0,0-24.92-34c.33,3.13.57,5.06.57,5.06-9.07,3.58-16.14,2.34-22.73,0C941.83,1895.73,942.07,1893.8,942.4,1890.67Z"/>
          <path class="cls-3" d="M1040.27,1890.67c-.32,3.13-.57,5.06-.57,5.06,6.6,2.34,13.66,3.58,22.74,0,0,0-.25-1.93-.57-5.06-1.3-12.48-3.92-44.11,2.18-50.19,7.63-7.62,25.43-24.65,26.39-35.39a24.82,24.82,0,0,0-24.08,9.84c-6.57-22.36,23.36-43.54,16.66-65.86a15.48,15.48,0,0,0-18.76,7.83c-10.21-13.89,5.56-50.25-13.19-50.25s-3,36.36-13.19,50.25a15.48,15.48,0,0,0-18.76-7.83c-6.7,22.32,23.23,43.5,16.66,65.86a24.81,24.81,0,0,0-24.09-9.84c1,10.74,18.77,27.77,26.4,35.39C1044.19,1846.56,1041.57,1878.19,1040.27,1890.67Z"/>
          <path class="cls-17" d="M1040.27,1890.67a35.72,35.72,0,0,0-24.92,34c0,19.73,71.43,19.73,71.43,0a35.71,35.71,0,0,0-24.91-34c.32,3.13.57,5.06.57,5.06-9.08,3.58-16.14,2.34-22.74,0C1039.7,1895.73,1040,1893.8,1040.27,1890.67Z"/>
          <path class="cls-3" d="M1138.15,1890.67c-.33,3.13-.57,5.06-.57,5.06,6.59,2.34,13.66,3.58,22.73,0,0,0-.24-1.93-.57-5.06-1.3-12.48-3.92-44.11,2.18-50.19,7.63-7.62,25.43-24.65,26.39-35.39a24.82,24.82,0,0,0-24.08,9.84c-6.57-22.36,23.37-43.54,16.66-65.86a15.48,15.48,0,0,0-18.76,7.83c-10.21-13.89,5.56-50.25-13.19-50.25s-3,36.36-13.18,50.25a15.48,15.48,0,0,0-18.76-7.83c-6.71,22.32,23.22,43.5,16.66,65.86a24.83,24.83,0,0,0-24.09-9.84c1,10.74,18.77,27.77,26.4,35.39C1142.07,1846.56,1139.45,1878.19,1138.15,1890.67Z"/>
          <path class="cls-17" d="M1138.15,1890.67a35.73,35.73,0,0,0-24.93,34c0,19.73,71.44,19.73,71.44,0a35.72,35.72,0,0,0-24.92-34c.33,3.13.57,5.06.57,5.06-9.07,3.58-16.14,2.34-22.73,0C1137.58,1895.73,1137.82,1893.8,1138.15,1890.67Z"/>
        </g>
        <g>
          <path class="cls-18" d="M824.47,1892.54h0a35.76,35.76,0,0,0-20.19,32.18c0,19.73,71.43,19.73,71.43,0a35.72,35.72,0,0,0-20.54-32.34"/>
          <path class="cls-19" d="M824.46,1892.54c-6.79-2.76-13.53-5.94-15.83-8.09-3-2.85-5.62-7.7-3-11,3.32-4.14,11-.84,14.72-4.67,3.09-3.2.69-8.72-2.81-11.47s-8-4.35-10.59-8c-1.43-2-2.11-4.74-1.05-7,1.68-3.52,6.44-4,10.32-3.64s8.39.78,11.07-2c4.29-4.48-.24-11.8.45-18,.29-2.47,1.23-9.66,11.48-9.66s11.19,7.19,11.47,9.66c.7,6.17-3.84,13.49.45,18,2.68,2.82,7.19,2.38,11.07,2s8.65.12,10.33,3.64c1.05,2.21.37,5-1.06,7-2.58,3.62-7.09,5.22-10.59,8s-5.89,8.27-2.81,11.47c3.68,3.83,11.41.53,14.73,4.67,2.62,3.25,0,8.1-3,11-2.25,2.11-8.38,5.21-14.64,7.93A111.62,111.62,0,0,1,840,1898,131.08,131.08,0,0,1,824.46,1892.54Z"/>
          <line class="cls-18" x1="865.04" y1="1912.36" x2="858.29" y2="1914.46"/>
          <line class="cls-18" x1="825.41" y1="1915.05" x2="819.14" y2="1911.76"/>
          <path class="cls-18" d="M727.3,1892.54h0a35.74,35.74,0,0,0-20.19,32.18c0,19.73,71.43,19.73,71.43,0A35.72,35.72,0,0,0,758,1892.38"/>
          <path class="cls-19" d="M727.29,1892.54c-6.8-2.76-13.53-5.94-15.83-8.09-3.06-2.85-5.63-7.7-3-11,3.33-4.14,11.06-.84,14.73-4.67,3.09-3.2.68-8.72-2.82-11.47s-8-4.35-10.58-8c-1.43-2-2.11-4.74-1-7,1.67-3.52,6.44-4,10.32-3.64s8.38.78,11.07-2c4.29-4.48-.25-11.8.45-18,.28-2.47,1.23-9.66,11.48-9.66s11.18,7.19,11.47,9.66c.7,6.17-3.84,13.49.45,18,2.68,2.82,7.19,2.38,11.07,2s8.64.12,10.32,3.64c1.06,2.21.38,5-1.05,7-2.58,3.62-7.09,5.22-10.59,8s-5.89,8.27-2.82,11.47c3.69,3.83,11.42.53,14.74,4.67,2.61,3.25,0,8.1-3,11-2.26,2.11-8.38,5.21-14.64,7.93a111.64,111.64,0,0,1-15.18,5.59A130.45,130.45,0,0,1,727.29,1892.54Z"/>
          <line class="cls-18" x1="762.46" y1="1912.36" x2="755.71" y2="1914.46"/>
          <line class="cls-18" x1="722.83" y1="1915.05" x2="716.57" y2="1911.76"/>
          <path class="cls-18" d="M1138.15,1890.67a35.73,35.73,0,0,0-24.93,34c0,19.73,71.44,19.73,71.44,0a35.72,35.72,0,0,0-24.92-34"/>
          <path class="cls-19" d="M1138.15,1890.67c-.33,3.13-.57,5.06-.57,5.06,6.59,2.34,13.66,3.58,22.73,0,0,0-.24-1.93-.57-5.06-1.3-12.48-3.92-44.11,2.18-50.19,7.63-7.62,25.43-24.65,26.39-35.39a24.82,24.82,0,0,0-24.08,9.84c-6.57-22.36,23.37-43.54,16.66-65.86a15.48,15.48,0,0,0-18.76,7.83c-10.21-13.89,5.56-50.25-13.19-50.25s-3,36.36-13.18,50.25a15.48,15.48,0,0,0-18.76-7.83c-6.71,22.32,23.22,43.5,16.66,65.86a24.83,24.83,0,0,0-24.09-9.84c1,10.74,18.77,27.77,26.4,35.39C1142.07,1846.56,1139.45,1878.19,1138.15,1890.67Z"/>
          <path class="cls-18" d="M1153.28,1914.46c6.62-.14,11.11-1.14,16.27-4"/>
          <path class="cls-18" d="M1040.27,1890.67a35.72,35.72,0,0,0-24.92,34c0,19.73,71.43,19.73,71.43,0a35.71,35.71,0,0,0-24.91-34"/>
          <path class="cls-19" d="M1040.27,1890.67c-.32,3.13-.57,5.06-.57,5.06,6.6,2.34,13.66,3.58,22.74,0,0,0-.25-1.93-.57-5.06-1.3-12.48-3.92-44.11,2.18-50.19,7.63-7.62,25.43-24.65,26.39-35.39a24.82,24.82,0,0,0-24.08,9.84c-6.57-22.36,23.36-43.54,16.66-65.86a15.48,15.48,0,0,0-18.76,7.83c-10.21-13.89,5.56-50.25-13.19-50.25s-3,36.36-13.19,50.25a15.48,15.48,0,0,0-18.76-7.83c-6.7,22.32,23.23,43.5,16.66,65.86a24.81,24.81,0,0,0-24.09-9.84c1,10.74,18.77,27.77,26.4,35.39C1044.19,1846.56,1041.57,1878.19,1040.27,1890.67Z"/>
          <path class="cls-18" d="M1055.41,1914.46c6.62-.14,11.1-1.14,16.26-4"/>
          <path class="cls-18" d="M942.4,1890.67a35.72,35.72,0,0,0-24.92,34c0,19.73,71.43,19.73,71.43,0a35.72,35.72,0,0,0-24.92-34"/>
          <path class="cls-19" d="M942.4,1890.67c-.33,3.13-.57,5.06-.57,5.06,6.59,2.34,13.66,3.58,22.73,0,0,0-.24-1.93-.57-5.06-1.3-12.48-3.92-44.11,2.18-50.19,7.64-7.62,25.43-24.65,26.4-35.39a24.83,24.83,0,0,0-24.09,9.84c-6.57-22.36,23.37-43.54,16.66-65.86a15.48,15.48,0,0,0-18.76,7.83c-10.21-13.89,5.56-50.25-13.19-50.25s-3,36.36-13.18,50.25a15.48,15.48,0,0,0-18.76-7.83c-6.7,22.32,23.22,43.5,16.66,65.86a24.83,24.83,0,0,0-24.09-9.84c1,10.74,18.77,27.77,26.4,35.39C946.32,1846.56,943.7,1878.19,942.4,1890.67Z"/>
          <path class="cls-18" d="M957.54,1914.46c6.62-.14,11.1-1.14,16.26-4"/>
          <path class="cls-18" d="M626.43,1889.14a35.71,35.71,0,0,0-32.63,35.58c0,19.73,71.43,19.73,71.43,0a35.71,35.71,0,0,0-33-35.61"/>
          <path class="cls-18" d="M536.12,1898.52s-1.14-3.45-3-9.38c-5.88-18.87-19-62.83-25.76-100.68-8.85-49.49-8.87-86.38-8.87-86.79,18.09,41.49,31,93.12,35.65,149.53"/>
          <path class="cls-19" d="M536.12,1898.52s-.3-3.54-.66-9.51c-.52-8.66-1.18-22.4-1.3-37.81-.11-12.72.15-26.57,1.17-39.6,3.11-39.63,15.48-79,15.48-79,9.15,43.58,3.43,103.3-11.87,156.54C538,1892.27,537.09,1895.41,536.12,1898.52Z"/>
          <path class="cls-18" d="M533.14,1889.14a35.71,35.71,0,0,0-32.63,35.58c0,19.73,71.43,19.73,71.43,0a35.72,35.72,0,0,0-33-35.61"/>
          <path class="cls-18" d="M629.41,1898.52s-1.13-3.45-3-9.38c-5.88-18.87-19-62.83-25.75-100.68-8.85-49.49-8.88-86.38-8.88-86.79,18.09,41.49,31,93.12,35.65,149.53"/>
          <path class="cls-19" d="M629.41,1898.52s-.29-3.54-.65-9.51c-.52-8.66-1.18-22.4-1.31-37.81-.1-12.72.16-26.57,1.18-39.6,3.1-39.63,15.49-79,15.49-79,9.13,43.58,3.42,103.3-11.88,156.54Q630.88,1893.85,629.41,1898.52Z"/>
        </g>
      </g>
    </g>
    <g>
      <rect class="cls-20" x="2749.59" y="735.12" width="34.29" height="1316.88"/>
      <g>
        <path class="cls-21" d="M2928.1,393.17V794.66a10.27,10.27,0,0,1-10.24,10.24H2615.61a10.27,10.27,0,0,1-10.24-10.24V393.17a10.26,10.26,0,0,1,10.24-10.23h302.25A10.26,10.26,0,0,1,2928.1,393.17Z"/>
        <path class="cls-22" d="M2917.86,804.9H2615.61a10.27,10.27,0,0,1-10.24-10.24V393.17a10.26,10.26,0,0,1,10.24-10.23h302.25a10.26,10.26,0,0,1,10.24,10.23V794.66A10.27,10.27,0,0,1,2917.86,804.9Z"/>
      </g>
      <g>
        <path class="cls-23" d="M2652,419.19H2881.5a10.24,10.24,0,0,1,10.24,10.24V656.11a10.23,10.23,0,0,1-10.23,10.23H2652a10.24,10.24,0,0,1-10.24-10.24V429.42A10.23,10.23,0,0,1,2652,419.19Z"/>
        <path class="cls-22" d="M2652,419.19h229.55a10.23,10.23,0,0,1,10.23,10.23V656.11a10.24,10.24,0,0,1-10.24,10.24H2652a10.23,10.23,0,0,1-10.23-10.23V429.42A10.24,10.24,0,0,1,2652,419.19Z"/>
      </g>
      <g>
        <g>
          <g>
            <path class="cls-23" d="M2839,582.37v0a14.72,14.72,0,1,1-29.43,0v0a14.72,14.72,0,0,1,29.43,0Z"/>
            <path class="cls-23" d="M2727.55,582.37v0a14.72,14.72,0,1,1-29.43,0v0a14.72,14.72,0,0,1,29.43,0Z"/>
            <path d="M2862.81,582.37H2839a14.72,14.72,0,0,0-29.43,0h-82a14.72,14.72,0,0,0-29.43,0h-27.46V526.48a35,35,0,0,1,35-35h122.17a35,35,0,0,1,35,35Z"/>
          </g>
          <g>
            <line class="cls-2" x1="2809.54" y1="582.37" x2="2727.55" y2="582.37"/>
            <path class="cls-2" d="M2698.12,582.37h-27.46V526.48a35,35,0,0,1,35-35h122.17a35,35,0,0,1,35,35v55.89H2839"/>
            <path class="cls-2" d="M2839,582.37v0a14.72,14.72,0,1,1-29.43,0v0a14.72,14.72,0,0,1,29.43,0Z"/>
            <path class="cls-2" d="M2727.55,582.37v0a14.72,14.72,0,1,1-29.43,0v0a14.72,14.72,0,0,1,29.43,0Z"/>
          </g>
        </g>
        <rect class="cls-24" x="2736.5" y="492.34" width="60.87" height="42.06"/>
        <path class="cls-24" d="M2702.74,492.34h30.87a0,0,0,0,1,0,0V534.4a0,0,0,0,1,0,0h-60.87a0,0,0,0,1,0,0V522.34a30,30,0,0,1,30-30Z"/>
        <path class="cls-24" d="M2800.25,492.34h60.87a0,0,0,0,1,0,0V534.4a0,0,0,0,1,0,0h-30.87a30,30,0,0,1-30-30V492.34A0,0,0,0,1,2800.25,492.34Z" transform="translate(5661.37 1026.75) rotate(180)"/>
      </g>
    </g>
    <g>
      <g>
        <path class="cls-25" d="M2213.85,996.59l-1.35,0c-21,9-69,61-84,109h-.25l-4.49-169,1.76,0s9.07-26.12,33.49-56.31a235.92,235.92,0,0,1,81.11-64.39c32-15.44,72.07-26,121.82-26q4.41,0,8.75.12c.06,5.55,2.17,202.33.89,300.46l2,0h113.82l3.26.13c6.62-179.44-6.18-271.54-6.18-271.54l.39-.75c99.54,51.69,141.18,162.42,145.53,234.22,4.08,67.06,11.68,271.42,8.76,300.61a243,243,0,0,1-31.85,5.95c-18.71,2.15-41.95,2.21-61.54-5.95l-2.87.09,2,60.63.59,17.71-14.3,0-119.66.32-32.1-93.39L2341.5,1429H2204.16s3.58-165.32,6.89-311.42C2212,1073.9,2213,1031.91,2213.85,996.59Z"/>
        <path class="cls-26" d="M2562.25,1488.09c-5.41,4.72-10.93,6.65-14.87,1.58-7.88-10.1,16.48-26.09,12.3-38.6-3.7-11.07-12.75-11.56-14.77-37.22l-2-60.63,2.87-.09c19.59,8.16,42.83,8.1,61.54,5.95l.17,1.48s-3,12,18,45,5.25,57.28-1,69c-8,15-30.22,34.44-40.68,22.48l0-.08a19.53,19.53,0,0,1-5.81,2.55C2564.58,1502.68,2562.48,1489.9,2562.25,1488.09Z"/>
        <path class="cls-6" d="M2586.53,2036.07a53.27,53.27,0,0,1,.21,16H2461.25c-14.6-14.59-26.27-35-38-59.79q-2.74-5.77-5.27-11c-7.3-20.65,5.16-50.29,37.38-50.29,35,0,34.14,41.26,61.28,46.7C2542,1982.76,2580.8,2002.22,2586.53,2036.07Z"/>
        <path class="cls-21" d="M2586.65,2036.05l-.12,0c-5.73-33.85-44.5-53.31-69.93-58.39-27.14-5.44-26.26-46.7-61.28-46.7-32.22,0-44.68,29.64-37.38,50.29-8.84-18.48-14.84-32.47-11.4-48.7a61.83,61.83,0,0,1,7.92-19.1c19.59-32.64,71.15-27.81,105.06,14.59,3.28,4.11,6.52,8.06,9.68,11.88C2559.79,1976.87,2584,2001.67,2586.65,2036.05Z"/>
        <path class="cls-8" d="M2531.2,1432.62v504.9s-35-70.74-102.15-53.23c-32.2,8.39-23.25,48.12-23.25,48.12-17.52-23.35-8.85-51-11.77-141.51-4.6-142.6-14.59-283.1-14.59-283.1s-5.84,119.66-8.76,423.18a121.39,121.39,0,0,1-32.23,14.14c-26.44,7.42-54,6.55-75.6,2.58-18.71-3.42-33-9.15-38.09-13.8V1429H2341.5l37.94-90.48,32.1,93.39,119.66-.32Z"/>
        <path class="cls-26" d="M2531.2,1937.52l-2,2.42c-3.16-3.82-6.4-7.77-9.68-11.88-33.91-42.4-85.47-47.23-105.06-14.59a61.83,61.83,0,0,0-7.92,19.1l-.74-.16s-9-39.73,23.25-48.12C2496.17,1866.78,2531.2,1937.52,2531.2,1937.52Z"/>
        <path class="cls-9" d="M2427.6,761.28l-.22.56c-13.72-5.51-32.2-9.38-57.05-10h-.07c-34.81-3.23-61.05-45.29-22.93-78.77,37.38-32.81,15.41-73.11-17.51-67.12s-35,11.67-59.78,8c-20.25-3-28.05-18.06-29.83-33-1.25-10.39.45-20.71,2.9-26.85a48.37,48.37,0,0,1-23.22-1.73c-29.92-9.79-49.67-47.71-24.32-86.5,31.56-48.27,84.47-21,93.39,0,3.11-10.23,13.17-50.14,61.29-46.69,41.9,3,51.44,42.17,51.44,42.17s48.23-34.89,85.23,10.11c27.8,33.81-8,79-8,79s48,9.13,45,57-40,55-40,55,24,22.07,21,52S2467.82,777.39,2427.6,761.28Z"/>
        <path class="cls-5" d="M2484.5,819.05s12.8,92.1,6.18,271.54l-3.26-.13H2373.6l-2,0c1.28-98.13-.83-294.91-.89-300.46,36.34,1,68.26,8.2,96.12,19.84q9.36,3.91,18.09,8.48Z"/>
        <path class="cls-5" d="M2370.33,751.89c24.85.57,43.33,4.44,57.05,10,41.12,16.49,39.61,47.53,39.61,47.53l-.19.45C2438.94,798.18,2407,791,2370.68,790q-4.33-.12-8.75-.12c-49.75,0-89.82,10.57-121.82,26l-.19-.37S2237,788,2272.74,769.14C2290,760,2316.2,753,2356.09,751.92c4.94-.13,9.65-.13,14.17,0Z"/>
        <path class="cls-26" d="M2370.26,751.89c-4.52-.1-9.23-.1-14.17,0-39.89,1-66.11,8.11-83.35,17.22l-1.29-2.63c0-11.67-8.1-14.64-17.51-14.59-7.22,0-36.64,1.62-37.94-23.35-.91-17.74,1-20.39-2.92-32.1-5.83-17.51-39.83-21.46-17.51-43.78,11.68-11.67,14.59-21.44,14.59-35,0-9.75-1.3-27.3,1.59-43.39l2.59.45c10.65,1,15.21,2.63,25.24,6.33l.63-.07c1.78,14.93,9.58,30,29.83,33,24.76,3.69,26.87-2,59.78-8s54.89,34.31,17.51,67.12C2309.21,706.6,2335.45,748.66,2370.26,751.89Zm-133.83-118.8a3.78,3.78,0,1,0-3.78,3.75A3.76,3.76,0,0,0,2236.43,633.09Z"/>
        <path class="cls-21" d="M2341.5,1966.74c20.43,11.67,35,52.18,23.44,85.32H2163.56c11.68-51.78,68.39-62.09,97.53-81.67,0,0,46.15,27.18,78.21-1.57C2340,1968.15,2340.77,1967.46,2341.5,1966.74Z"/>
        <path class="cls-26" d="M2338,1968l1.32.87c-32.06,28.75-78.21,1.57-78.21,1.57l.79-1.84.82-20.06.15-.79c21.6,4,49.16,4.84,75.6-2.58l.13.45Z"/>
        <path class="cls-26" d="M2240.21,581l-.63.07c-10-3.7-14.59-5.36-25.24-6.33l-2.59-.45c1.44-8,3.91-15.62,8.09-21.74l0-.13a48.37,48.37,0,0,0,23.22,1.73C2240.66,560.28,2239,570.6,2240.21,581Z"/>
        <path class="cls-27" d="M2212.5,996.56l1.35,0c-.84,35.32-1.81,77.31-2.8,121l-1.55,0c-33,75-76,103-76,103l-2.2.06-3.06-115.06h.25C2143.5,1057.57,2191.5,1005.56,2212.5,996.56Z"/>
        <path class="cls-27" d="M1803.3,1204.11l-2.39-.08c-55.45,58.37-133.94,76.12-133.94,76.12a76.8,76.8,0,0,1-19.75-9.94c-17.61-12.09-39.16-36.89-29.18-83.3.62-2.88,1.36-5.85,2.23-8.89,35-26.27,63.88-41.69,90.47-84.64,23.56-38.07,22.51-79.31,32.11-128.68,16.22-83.42,56.23-150.44,139.36-174.49a251.14,251.14,0,0,1,57.52-9.19l2.3.05a219.59,219.59,0,0,0,1.82,33.9c5.61,42.32,21.65,87.71,23,147.73,25.87-63.3,28.44-134.22,26.49-181.68h.14a175.88,175.88,0,0,1,50.88,7.52c53,15.94,93.17,54.62,113.19,90l1.5,1.7c-24.42,30.19-33.49,56.31-33.49,56.31l-1.76,0,4.49,169,3.06,115.06,6.55,246.62H1792.46S1798.65,1340.72,1803.3,1204.11Z"/>
        <path class="cls-25" d="M2131,1788c.05,34.67,3.33,68.14.38,92.85.79-28-15.44-34.64-23.72-37.4l-1.74.37c-5.45-21.38-23.21-35.39-45-35.39-20.88,0-38.08,12.91-44.24,32.87l-2.45-.77s-39.39,11.25-32.53,53.09c-5.74-20.75-3.8-52.88-5.41-102.7-4.6-142.6-14.6-302.7-14.6-302.7s-8.75,130.51-11.67,434a123,123,0,0,1-35.21,14.94c-25.52,6.55-51.83,5.59-72.62,1.79-18.72-3.44-33-9.17-38.09-13.81l2-457.9h319.53S2130.93,1735.36,2131,1788Z"/>
        <path class="cls-25" d="M2107.66,1843.43c8.28,2.76,24.51,9.42,23.72,37.4-2.63,22.06-10.22,37.16-29.48,39.9l-.55.19a39.48,39.48,0,0,1-2.45-13.29c0-23.34,8.76-20.42,8.76-49.61a57.64,57.64,0,0,0-1.74-14.22Z"/>
        <path class="cls-6" d="M2101.35,1920.92c6,17,20.9,32.86,20.9,65.51,0,40.86-20.43,65.63-58.37,65.63s-58.37-24.77-58.37-65.63c0-29.43,9.08-45.22,14.16-60.48a56.57,56.57,0,0,0,3.35-18.32c0-23.34-8.75-20.42-8.75-49.61a56.3,56.3,0,0,1,2.45-16.74c6.16-20,23.36-32.87,44.24-32.87,21.75,0,39.51,14,45,35.39a57.64,57.64,0,0,1,1.74,14.22c0,29.19-8.76,26.27-8.76,49.61A39.48,39.48,0,0,0,2101.35,1920.92Z"/>
        <path class="cls-8" d="M2087.23,562.36c15.89,70.39-7.64,143.45-39.31,170.14-20.59,17.35-43-5-59-6-.55,0,3,21.59,4.37,54.53,2,47.46-.62,118.38-26.49,181.68-1.3-60-17.34-105.41-23-147.73a219.59,219.59,0,0,1-1.82-33.9,247,247,0,0,1,7.89-56.57c-26,2-50.05,15.83-73-12-29.57-35.83-54.84-105.58-28.28-167.71s66.4-78.74,118.93-78.74S2068.42,479,2087.23,562.36Z"/>
        <path class="cls-28" d="M2044.92,786.5l-.61,2a175.88,175.88,0,0,0-50.88-7.52h-.14c-1.37-32.94-4.92-54.58-4.37-54.53,16,1,38.41,23.36,59,6C2039.91,759.5,2044.92,786.5,2044.92,786.5Z"/>
        <path class="cls-25" d="M2023,1907.63a56.57,56.57,0,0,1-3.35,18.32l-2.49-.8c-21-5.25-30.77-14.61-35.44-31.55-6.86-41.84,32.53-53.09,32.53-53.09l2.45.77a56.3,56.3,0,0,0-2.45,16.74C2014.27,1887.21,2023,1884.29,2023,1907.63Z"/>
        <path class="cls-28" d="M1949.92,724.5a247,247,0,0,0-7.89,56.57l-2.3-.05a251.14,251.14,0,0,0-57.52,9.19l-.29-1.72c.09-.36,7-44-5-76C1899.87,740.33,1923.92,726.49,1949.92,724.5Z"/>
        <path class="cls-6" d="M1915.12,1961.59c19.7,25.87,29,60.39,22.9,90.47h-215.6c0-66.19,86.69-68.41,115.82-88l1.35.51C1847.57,1967.5,1888.82,1981.1,1915.12,1961.59Z"/>
        <path class="cls-28" d="M1915.12,1938.24v23.35c-26.3,19.51-67.55,5.91-75.53,3l2.57-.08-.08-24.77.15-.78c20.79,3.8,47.1,4.76,72.62-1.79Z"/>
        <path class="cls-28" d="M1560.76,1274l1.14.32c14.6,5.83,20.43,14.59,23.91,43.77a44,44,0,0,0,1.76,8.33l-2.32.43c-9.06,6.79-17,3.08-25.1-4.41-2.32-2.16-4.64-4.64-7-7.26-11.82-13.16-22.63-34.15-27.3-49.76-2.25-7.54-3.08-13.82-1.89-17.37,5.84-17.51,17.51-35,29.19-43.78,6.6-5,43.77-8.75,64.2-17.51l.69.14c-10,46.41,11.57,71.21,29.18,83.3l-.68,1.2s-11.68,5.84-29.19,0-23.34-14.59-43.77-8.76C1565.64,1264.92,1562.1,1269.39,1560.76,1274Z"/>
        <path class="cls-29" d="M1626.11,1312.27c.51,32-30,40.56-38.54,14.16a44,44,0,0,1-1.76-8.33c-3.48-29.18-9.31-37.94-23.91-43.77l-1.14-.32c1.34-4.62,4.88-9.09,12.82-11.36,20.43-5.83,26.26,2.92,43.77,8.76C1623.27,1283.86,1625.88,1297.57,1626.11,1312.27Z"/>
        <polygon class="cls-6" points="1579.4 2021.98 1593.99 2052.06 1526.43 2052.06 1541.46 2021.98 1579.4 2021.98"/>
        <path class="cls-29" d="M1579.4,2019.06V2022h-37.94S1521,1359.49,1521,1321.55c0,0-2.9-41.39,2.93-56l1.89-.14c4.67,15.61,15.48,36.6,27.3,49.76,2.36,2.62,4.68,5.1,7,7.26l-1.17,1.49C1559,1347.29,1579.4,2019.06,1579.4,2019.06Z"/>
      </g>
      <g>
        <path class="cls-2" d="M2271.45,766.51c0-11.67-8.1-14.64-17.51-14.59-7.22,0-36.64,1.62-37.94-23.35-.91-17.74,1-20.39-2.92-32.1-5.83-17.51-39.83-21.46-17.51-43.78,11.68-11.67,14.59-21.44,14.59-35,0-9.75-1.3-27.3,1.59-43.39,1.44-8,3.91-15.62,8.09-21.74"/>
        <path class="cls-2" d="M2343.54,626.43a15.05,15.05,0,0,1-1.2,21.21"/>
        <ellipse class="cls-2" cx="2232.65" cy="633.09" rx="3.78" ry="3.75"/>
        <path class="cls-2" d="M2214.34,574.73c10.65,1,15.21,2.63,25.24,6.33"/>
        <path class="cls-2" d="M2370.33,751.89l.35,0"/>
        <path class="cls-2" d="M2426.13,760.68c.49.21,1,.4,1.47.6,40.22,16.11,74.32-16.78,77.32-46.77s-21-52-21-52,37-7.12,40-55-45-57-45-57,35.8-45.19,8-79c-37-45-85.23-10.11-85.23-10.11s-9.54-39.19-51.44-42.17c-48.12-3.45-58.18,36.46-61.29,46.69-8.92-21-61.83-48.27-93.39,0-25.35,38.79-5.6,76.71,24.32,86.5a48.37,48.37,0,0,0,23.22,1.73c-2.45,6.14-4.15,16.46-2.9,26.85,1.78,14.93,9.58,30,29.83,33,24.76,3.69,26.87-2,59.78-8s54.89,34.31,17.51,67.12c-38.12,33.48-11.88,75.54,22.93,78.77"/>
        <path class="cls-2" d="M2125.51,936.57s9.07-26.12,33.49-56.31a235.92,235.92,0,0,1,81.11-64.39c32-15.44,72.07-26,121.82-26q4.41,0,8.75.12c36.34,1,68.26,8.2,96.12,19.84q9.36,3.91,18.09,8.48c99.54,51.69,141.18,162.42,145.53,234.22,4.08,67.06,11.68,271.42,8.76,300.61a243,243,0,0,1-31.85,5.95c-18.71,2.15-41.95,2.21-61.54-5.95"/>
        <path class="cls-2" d="M2528.28,909.52l14.64,443.7,2,60.63.59,17.71-14.3,0-119.66.32-32.1-93.39L2341.5,1429H2204.16s3.58-165.32,6.89-311.42c1-43.69,2-85.68,2.8-121,.9-37.57,1.66-67.61,2.15-84.15"/>
        <path class="cls-2" d="M2123.07,910.6l.68,26,4.49,169,3.06,115.06,6.55,246.62H1792.46s6.19-126.53,10.84-263.14c3.75-110.44,6.51-227.44,4.16-289.5"/>
        <path class="cls-2" d="M2212.5,996.56c-21,9-69,61-84,109"/>
        <path class="cls-2" d="M2133.5,1220.57s43-28,76-103"/>
        <path class="cls-2" d="M1806.16,1467.25l-2,457.9c5.13,4.64,19.37,10.37,38.09,13.81,20.79,3.8,47.1,4.76,72.62-1.79a123,123,0,0,0,35.21-14.94c2.92-303.52,11.67-434,11.67-434s10,160.1,14.6,302.7c1.61,49.82-.33,81.95,5.41,102.7,4.67,16.94,14.47,26.3,35.44,31.55"/>
        <path class="cls-2" d="M2224.76,1429V1933.9c5.13,4.65,19.38,10.38,38.09,13.8,21.6,4,49.16,4.84,75.6-2.58a121.39,121.39,0,0,0,32.23-14.14c2.92-303.52,8.76-423.18,8.76-423.18s10,140.5,14.59,283.1c2.92,90.47-5.75,118.16,11.77,141.51,0,0-9-39.73,23.25-48.12,67.12-17.51,102.15,53.23,102.15,53.23v-504.9"/>
        <path class="cls-2" d="M2125.69,1467.25s5.24,268.11,5.31,320.73c.05,34.67,3.33,68.14.38,92.85-2.63,22.06-10.22,37.16-29.48,39.9"/>
        <path class="cls-2" d="M2014.27,1840.51s-39.39,11.25-32.53,53.09c.12.77.26,1.57.42,2.36"/>
        <path class="cls-2" d="M2107.66,1843.43c8.28,2.76,24.51,9.42,23.72,37.4,0,1.55-.14,3.19-.29,4.88"/>
        <path class="cls-2" d="M2019.67,1926c-5.08,15.26-14.16,31-14.16,60.48,0,40.86,20.43,65.63,58.37,65.63s58.37-24.77,58.37-65.63c0-32.65-14.92-48.53-20.9-65.51a39.48,39.48,0,0,1-2.45-13.29c0-23.34,8.76-20.42,8.76-49.61a57.64,57.64,0,0,0-1.74-14.22c-5.45-21.38-23.21-35.39-45-35.39-20.88,0-38.08,12.91-44.24,32.87a56.3,56.3,0,0,0-2.45,16.74c0,29.19,8.75,26.27,8.75,49.61A56.57,56.57,0,0,1,2019.67,1926Z"/>
        <path class="cls-2" d="M2239.92,815.5S2237,788,2272.74,769.14C2290,760,2316.2,753,2356.09,751.92c4.94-.13,9.65-.13,14.17,0h.07c24.85.57,43.33,4.44,57.05,10,41.12,16.49,39.61,47.53,39.61,47.53"/>
        <path class="cls-2" d="M2370.68,789.86V790c.06,5.55,2.17,202.33.89,300.46-.21,15.49-.49,28.53-.89,38"/>
        <path class="cls-2" d="M2484.5,819.05s12.8,92.1,6.18,271.54q-.69,18.3-1.64,37.81"/>
        <polyline class="cls-2" points="2373.6 1090.46 2391.11 1090.46 2411.54 1090.46 2431.97 1090.46 2449.48 1090.46 2469.91 1090.46 2487.42 1090.46"/>
        <line class="cls-2" x1="2391.11" y1="1090.46" x2="2391.11" y2="1128.4"/>
        <line class="cls-2" x1="2411.54" y1="1090.46" x2="2411.54" y2="1128.4"/>
        <line class="cls-2" x1="2431.97" y1="1090.46" x2="2431.97" y2="1128.4"/>
        <line class="cls-2" x1="2449.48" y1="1090.46" x2="2449.48" y2="1128.4"/>
        <line class="cls-2" x1="2469.91" y1="1090.46" x2="2469.91" y2="1128.4"/>
        <path class="cls-2" d="M2345,1504.87c34.4,2.93,53.42,1.51,76.07-1.46"/>
        <path class="cls-2" d="M2461.25,2052.06c-14.6-14.59-26.27-35-38-59.79q-2.74-5.77-5.27-11c-8.84-18.48-14.84-32.47-11.4-48.7a61.83,61.83,0,0,1,7.92-19.1c19.59-32.64,71.15-27.81,105.06,14.59,3.28,4.11,6.52,8.06,9.68,11.88,30.59,36.93,54.8,61.73,57.45,96.11"/>
        <path class="cls-2" d="M2420.29,1986.43a32.11,32.11,0,0,1-2.35-5.16c-7.3-20.65,5.16-50.29,37.38-50.29,35,0,34.14,41.26,61.28,46.7,25.43,5.08,64.2,24.54,69.93,58.39a53.27,53.27,0,0,1,.21,16"/>
        <line class="cls-2" x1="2338.58" y1="1945.57" x2="2337.98" y2="1967.95"/>
        <path class="cls-2" d="M1915.12,1961.59c19.7,25.87,29,60.39,22.9,90.47h-215.6c0-66.19,86.69-68.41,115.82-88l1.35.51C1847.57,1967.5,1888.82,1981.1,1915.12,1961.59Z"/>
        <path class="cls-2" d="M2339.3,1968.82c.74-.67,1.47-1.36,2.2-2.08,20.43,11.67,35,52.18,23.44,85.32H2163.56c11.68-51.78,68.39-62.09,97.53-81.67C2261.09,1970.39,2307.24,1997.57,2339.3,1968.82Z"/>
        <line class="cls-2" x1="2262.7" y1="1948.49" x2="2261.88" y2="1968.55"/>
        <path class="cls-2" d="M1559,1323.94c0,23.35,20.42,695.12,20.42,695.12"/>
        <path class="cls-2" d="M1617.35,1271.41c5.92,12.45,8.53,26.16,8.76,40.86.51,32-30,40.56-38.54,14.16a44,44,0,0,1-1.76-8.33c-3.48-29.18-9.31-37.94-23.91-43.77"/>
        <path class="cls-2" d="M1541.46,2022S1521,1359.49,1521,1321.55c0,0-2.9-41.39,2.93-56"/>
        <polygon class="cls-2" points="1541.46 2021.98 1526.43 2052.06 1593.99 2052.06 1579.4 2021.98 1541.46 2021.98"/>
        <path class="cls-2" d="M1617.35,1186.77c-20.43,8.76-57.6,12.55-64.2,17.51-11.68,8.76-23.35,26.27-29.19,43.78-1.19,3.55-.36,9.83,1.89,17.37,4.67,15.61,15.48,36.6,27.3,49.76,2.36,2.62,4.68,5.1,7,7.26,8.06,7.49,16,11.2,25.1,4.41"/>
        <path class="cls-2" d="M1993.43,781a175.88,175.88,0,0,1,50.88,7.52c53,15.94,93.17,54.62,113.19,90"/>
        <path class="cls-2" d="M1800.91,1204c-55.45,58.37-133.94,76.12-133.94,76.12a76.8,76.8,0,0,1-19.75-9.94c-17.61-12.09-39.16-36.89-29.18-83.3.62-2.88,1.36-5.85,2.23-8.89,35-26.27,63.88-41.69,90.47-84.64,23.56-38.07,22.51-79.31,32.11-128.68,16.22-83.42,56.23-150.44,139.36-174.49a251.14,251.14,0,0,1,57.52-9.19"/>
        <path class="cls-2" d="M1646.54,1271.41s-11.68,5.84-29.19,0-23.34-14.59-43.77-8.76c-7.94,2.27-11.48,6.74-12.82,11.36-2.13,7.27,1.14,14.91,1.14,14.91"/>
        <line class="cls-2" x1="1915.12" y1="1938.24" x2="1915.12" y2="1961.59"/>
        <line class="cls-2" x1="1842.08" y1="1939.74" x2="1842.16" y2="1964.51"/>
        <path class="cls-2" d="M1881.92,788.49c.09-.36,7-44-5-76"/>
        <path class="cls-2" d="M2047.92,732.5c31.67-26.69,55.2-99.75,39.31-170.14-18.81-83.34-67.13-96.31-119.66-96.31s-92.36,16.6-118.93,78.74-1.29,131.88,28.28,167.71c22.95,27.83,47,14,73,12a247,247,0,0,0-7.89,56.57,219.59,219.59,0,0,0,1.82,33.9c5.61,42.32,21.65,87.71,23,147.73,25.87-63.3,28.44-134.22,26.49-181.68-1.37-32.94-4.92-54.58-4.37-54.53C2004.91,727.5,2027.33,749.85,2047.92,732.5Z"/>
        <path class="cls-2" d="M2044.92,786.5s-5-27,3-54"/>
        <path class="cls-2" d="M2607.5,1360.56s-3,12,18,45,5.25,57.28-1,69c-8,15-30.22,34.44-40.68,22.48"/>
        <path class="cls-2" d="M2611.36,1454.26c-3.48,13.08-15.15,34.89-27.58,42.71a19.53,19.53,0,0,1-5.81,2.55c-13.39,3.16-15.49-9.62-15.72-11.43,0-.14,0-.21,0-.21"/>
        <path class="cls-2" d="M2585.48,1449.68a134.18,134.18,0,0,1-9.13,20.09c-3.45,6.12-8.72,13.61-14.1,18.32s-10.93,6.65-14.87,1.58c-7.88-10.1,16.48-26.09,12.3-38.6-3.7-11.07-12.75-11.56-14.77-37.22-.27-3.31-.41-7-.41-11.29"/>
        <line class="cls-2" x1="2461.25" y1="2052.06" x2="2586.74" y2="2052.06"/>
      </g>
    </g>
    <g>
      <path class="cls-30" d="M386.41,108.37A155.09,155.09,0,1,1,231.3,263.43,155.06,155.06,0,0,1,386.41,108.37Z"/>
      <g>
        <path class="cls-31" d="M541.47,263.43A155.09,155.09,0,1,1,386.41,108.37,155.09,155.09,0,0,1,541.47,263.43Z"/>
        <path class="cls-31" d="M559,161.74,538.75,174"/>
        <path class="cls-31" d="M232.5,357.36c-7.46,4.53-15,9-22.47,13.55"/>
        <path class="cls-31" d="M474.64,425.75c4.1,6.73,8.15,13.5,12.21,20.23"/>
        <path class="cls-31" d="M283.5,81.27c4.75,7.86,9.49,15.75,14.24,23.6"/>
        <path class="cls-31" d="M488.32,90.29c-4,6.82-7.94,13.59-11.91,20.41"/>
        <path class="cls-31" d="M295.28,418.33,282.08,441"/>
        <path class="cls-31" d="M540.65,362.5q10.15,6,20.41,11.91"/>
        <path class="cls-31" d="M207.91,151.52q11.91,6.91,23.82,13.89"/>
        <path class="cls-31" d="M386.1,61.21V84.86"/>
        <path class="cls-31" d="M384.81,441.8v26.27"/>
        <path class="cls-31" d="M568.52,269.91h23.65"/>
        <path class="cls-31" d="M174.82,255.45h27.57"/>
      </g>
    </g>
  </g>
</svg>
