{
  "name": "S36-kinnisvara-hind",
  "title": "Average price per square metre of a living space in the subdistrict",
  "year": "2019",
  "caption": "",
  "maxBounds": [
    [
      24.4,
      59.25
    ],
    [
      25.145,
      59.65
    ]
  ],
  "sources": [
    "S36-kinnisvara-hind.geojson"
  ],
  "popup": {
    "template": "{{sources['S36-kinnisvara-hind'].asumi_nimi}}<br/>{% if sources['S36-kinnisvara-hind'].asumid_2019_average_price !== -1 %}<b>{{sources['S36-kinnisvara-hind'].asumid_2019_average_price | round}} €/m²</b>{% else %}No data available{% endif %}"
  },
  "legend": [
    [
      {
        "text": "The average m² price in the subdistrict"
      }
    ],
    [
      {
        "color": "rgb(0, 114, 206, 0.8)",
        "text": "3000+ €"
      },
      {
        "color": "rgb(94, 165, 223, 0.8)",
        "text": "2000–2999 €"
      },
      {
        "color": "rgb(195, 221, 241, 0.8)",
        "text": "1000–1999 €"
      },
      {
        "color": "rgb(222, 235, 246, 0.8)",
        "text": "0–999 €"
      },
      {
        "color": "#C4C4C4",
        "text": "No data available"
      }
    ]
  ]
}