{
  "name": "S09-rohealad",
  "title": "Distance from the closest green area",
  "year": "2020",
  "caption": "",
  "useGrid": true,
  "maxBounds": [
    [
      24.4,
      59.25
    ],
    [
      25.145,
      59.65
    ]
  ],
  "layers": [
    "S09-rohealad.data.json"
  ],
  "popup": {
    "template": "{% if sources.composite.cat %}<b>{{categories[sources.composite.cat]}}</b>{% endif %}{% if 'pop' in activeLayers %}{{('<br/>' | safe) if sources.composite.cat }}Number of residents per square: {{sources.composite.pop}}{% endif %}",
    "data": {
      "categories": {
        "1": "300–1000 m",
        "2": "under300 m"
      }
    }
  },
  "legend": [
    [
      {
        "text": "Closest green area"
      }
    ],
    [
      {
        "color": "rgb(51, 171, 97, 0.8)",
        "text": "within 300 m radius"
      },
      {
        "color": "rgb(133, 205, 159, 0.8)",
        "text": "within 300-1000 m radius"
      }
    ],
    [
      {
        "text": "Show number of residents",
        "toggle": "pop"
      }
    ]
  ]
}