{
  "name": "S31-asumi-sissetulek",
  "title": "Average income of the subdistrict’s residents",
  "year": "2019",
  "caption": "",
  "maxBounds": [
    [
      24.4,
      59.25
    ],
    [
      25.145,
      59.65
    ]
  ],
  "sources": [
    "S31-asumi-sissetulek.geojson"
  ],
  "popup": {
    "template": "{{sources['S31-asumi-sissetulek'].NIMI}}<br/>{%if sources['S31-asumi-sissetulek'].val !== -1%}<b>{{sources['S31-asumi-sissetulek'].val}} €</b>{% else %}No data available{% endif %}"
  },
  "legend": [
    [
      {
        "text": "Gross income of residents per month"
      }
    ],
    [
      {
        "color": "rgb(0, 114, 206, 0.8)",
        "text": "2000+ €"
      },
      {
        "color": "rgb(61, 147, 217, 0.8)",
        "text": "1500–1999 €"
      },
      {
        "color": "rgb(151, 197, 233, 0.8)",
        "text": "1000–1499 €"
      },
      {
        "color": "rgb(202, 224, 242, 0.8)",
        "text": "500–999 €"
      },
      {
        "color": "#CBCBCB",
        "text": "No data available"
      }
    ]
  ]
}