{
  "name": "S28-miljoo",
  "title": "Milieu-valued areas in Tallinn",
  "year": "2020",
  "caption": "",
  "sources": [
    "S28-miljoo.geojson"
  ],
  "maxBounds": [
    [
      24.4,
      59.25
    ],
    [
      25.145,
      59.65
    ]
  ],
  "popup": {
    "template": "<b>{{sources['S28-miljoo'].nimi_en}}</b><br/>{{sources['S28-miljoo'].kirjeldus_en}}"
  },
  "legend": [
    [
      {
        "color": "rgb(245, 211, 114, 0.8)",
        "text": "Milieu-valued area"
      }
    ]
  ]
}